"annee";"amm";"quantite_produit";"conditionnement";"eaj"
2021;"1030003";86459.3;"L";"Oui"
2021;"2000001";1411.9;"L";"Oui"
2021;"2000003";89881.3;"L";"Non"
2021;"2000017";715.7;"L";"Oui"
2021;"2000018";2548697.8;"K";"Non"
2021;"2000029";507.2;"L";"Oui"
2021;"2000030";38.0;"L";"Oui"
2021;"2000041";72.0;"K";"Oui"
2021;"2000044";117094.4;"L";"Non"
2021;"2000045";100.0;"L";"Non"
2021;"2000046";59624.9;"L";"Non"
2021;"2000067";750.0;"L";"Non"
2021;"2000071";1196.9;"K";"Oui"
2021;"2000079";198.0;"L";"Non"
2021;"2000080";680.0;"L";"Non"
2021;"2000083";40.0;"K";"Non"
2021;"2000084";130.0;"K";"Non"
2021;"2000087";32221.3;"K";"Non"
2021;"2000089";1875.8;"K";"Oui"
2021;"2000096";21.6;"L";"Oui"
2021;"2000097";5976.0;"K";"Non"
2021;"2000101";1.0;"L";"Non"
2021;"2000105";53.7;"K";"Oui"
2021;"2000121";1820.0;"K";"Non"
2021;"2000122";16192.0;"L";"Non"
2021;"2000125";121924.4;"K";"Oui"
2021;"2000128";12.9;"K";"Oui"
2021;"2000136";2522.0;"K";"Non"
2021;"2000146";0.8;"L";"Oui"
2021;"2000150";260.0;"L";"Oui"
2021;"2000191";0.9;"L";"Non"
2021;"2000195";0.4;"K";"Non"
2021;"2000201";62496.8;"L";"Non"
2021;"2000202";515156.3;"L";"Non"
2021;"2000205";910.2;"K";"Non"
2021;"2000207";20.0;"L";"Non"
2021;"2000208";54.0;"L";"Non"
2021;"2000210";2156.0;"L";"Non"
2021;"2000214";23.0;"L";"Non"
2021;"2000222";10.8;"L";"Oui"
2021;"2000226";12.0;"L";"Oui"
2021;"2000228";339.5;"K";"Oui"
2021;"2000236";166.0;"L";"Non"
2021;"2000241";3.0;"K";"Oui"
2021;"2000283";270.0;"L";"Non"
2021;"2000289";110.0;"L";"Non"
2021;"2000291";44.0;"L";"Non"
2021;"2000294";33617.3;"K";"Non"
2021;"2000299";54875.2;"L";"Non"
2021;"2000301";127820.0;"L";"Non"
2021;"2000316";121412.4;"L";"Non"
2021;"2000324";31021.9;"L";"Non"
2021;"2000327";272492.9;"L";"Non"
2021;"2000332";4795.5;"L";"Non"
2021;"2000333";59.0;"L";"Non"
2021;"2000335";5.0;"L";"Non"
2021;"2000336";7897.5;"K";"Non"
2021;"2000338";32922.8;"K";"Non"
2021;"2000341";112.0;"K";"Non"
2021;"2000364";19.8;"K";"Oui"
2021;"2000366";0.2;"L";"Oui"
2021;"2000369";2420.0;"K";"Non"
2021;"2000380";77146.7;"L";"Non"
2021;"2000390";1984.8;"K";"Non"
2021;"2000405";21.0;"L";"Non"
2021;"2000412";2.0;"K";"Oui"
2021;"2000447";620.0;"K";"Non"
2021;"2000452";47.0;"L";"Non"
2021;"2000461";12540.0;"L";"Non"
2021;"2000466";144.7;"L";"Oui"
2021;"2000468";800.0;"K";"Non"
2021;"2000499";2243.6;"L";"Non"
2021;"2000500";21.2;"L";"Oui"
2021;"2000502";0.5;"L";"Non"
2021;"2000510";13194.0;"K";"Oui"
2021;"2000517";540870.9;"L";"Non"
2021;"2000518";40.0;"K";"Non"
2021;"2000519";87325.5;"L";"Non"
2021;"2000536";4581.7;"K";"Non"
2021;"2000538";1.2;"L";"Oui"
2021;"2000541";9.0;"L";"Non"
2021;"2010003";177.0;"L";"Non"
2021;"2010005";160.0;"K";"Non"
2021;"2010009";1.0;"K";"Oui"
2021;"2010013";20.3;"K";"Oui"
2021;"2010019";9901.0;"L";"Non"
2021;"2010023";163737.7;"L";"Non"
2021;"2010025";180.0;"L";"Non"
2021;"2010027";220.0;"L";"Non"
2021;"2010030";191249.1;"L";"Non"
2021;"2010035";3292.1;"L";"Non"
2021;"2010047";245.0;"L";"Non"
2021;"2010099";11915.2;"L";"Oui"
2021;"2010100";14250.8;"L";"Oui"
2021;"2010101";6902.6;"L";"Oui"
2021;"2010108";40.0;"K";"Non"
2021;"2010112";757.5;"K";"Non"
2021;"2010118";25083.4;"K";"Non"
2021;"2010121";2.2;"K";"Oui"
2021;"2010123";9000.0;"K";"Oui"
2021;"2010124";151.0;"K";"Non"
2021;"2010130";270240.8;"K";"Non"
2021;"2010132";40.0;"K";"Non"
2021;"2010139";0.7;"L";"Non"
2021;"2010142";20.0;"K";"Oui"
2021;"2010143";2.0;"L";"Non"
2021;"2010149";60.0;"K";"Non"
2021;"2010158";10775.0;"L";"Non"
2021;"2010161";11.0;"L";"Non"
2021;"2010168";42.0;"L";"Non"
2021;"2010199";20.2;"L";"Non"
2021;"2010206";404.5;"K";"Non"
2021;"2010218";50.0;"L";"Non"
2021;"2010239";96026.7;"L";"Non"
2021;"2010240";7825.0;"L";"Non"
2021;"2010261";11766.0;"K";"Non"
2021;"2010262";4532.0;"L";"Non"
2021;"2010274";640.0;"L";"Non"
2021;"2010275";27.0;"K";"Oui"
2021;"2010280";414020.4;"L";"Non"
2021;"2010282";75556.1;"L";"Non"
2021;"2010283";181.3;"L";"Non"
2021;"2010284";91.1;"L";"Oui"
2021;"2010288";53.9;"K";"Non"
2021;"2010296";25.0;"L";"Non"
2021;"2010299";337.3;"K";"Oui"
2021;"2010310";18.0;"L";"Non"
2021;"2010317";9.0;"K";"Oui"
2021;"2010319";926.8;"L";"Oui"
2021;"2010321";186.2;"L";"Oui"
2021;"2010324";8.0;"K";"Non"
2021;"2010326";2984.0;"L";"Non"
2021;"2010335";1125.9;"L";"Oui"
2021;"2010340";12.0;"K";"Oui"
2021;"2010349";605.0;"L";"Non"
2021;"2010351";114.0;"K";"Non"
2021;"2010377";82.6;"K";"Oui"
2021;"2010398";59514.5;"K";"Non"
2021;"2010410";3635.5;"K";"Oui"
2021;"2010415";8644.0;"L";"Non"
2021;"2010419";660.3;"K";"Non"
2021;"2010425";236.3;"K";"Non"
2021;"2010426";6030.0;"K";"Non"
2021;"2010427";5502.0;"L";"Non"
2021;"2010429";1.0;"L";"Oui"
2021;"2010432";234.4;"L";"Oui"
2021;"2010434";9.0;"L";"Oui"
2021;"2010436";7.2;"K";"Oui"
2021;"2010438";1.3;"L";"Oui"
2021;"2010439";50.6;"L";"Oui"
2021;"2010441";42785.0;"L";"Non"
2021;"2010478";75.0;"L";"Non"
2021;"2010481";60.0;"K";"Non"
2021;"2010493";116.7;"K";"Oui"
2021;"2010494";73.0;"L";"Oui"
2021;"2010495";91345.0;"K";"Non"
2021;"2010498";220.0;"L";"Non"
2021;"2010499";365.0;"L";"Non"
2021;"2010502";20.0;"L";"Non"
2021;"2010509";72321.2;"K";"Non"
2021;"2010512";1.0;"L";"Oui"
2021;"2010513";51464.6;"K";"Non"
2021;"2010525";14.0;"K";"Non"
2021;"2010527";1130.0;"L";"Non"
2021;"2010530";128.7;"L";"Oui"
2021;"2010531";30835.0;"L";"Non"
2021;"2010537";203.9;"K";"Non"
2021;"2010552";3010.0;"K";"Non"
2021;"2010584";25193.0;"L";"Non"
2021;"2010600";4188.0;"K";"Non"
2021;"2010602";11108.0;"K";"Non"
2021;"2010604";85.0;"K";"Oui"
2021;"2010610";12120.5;"L";"Non"
2021;"2010613";50.0;"L";"Non"
2021;"2010617";8670.0;"L";"Non"
2021;"2010618";105661.5;"K";"Non"
2021;"2010628";0.5;"K";"Non"
2021;"2010632";3.0;"K";"Non"
2021;"2010637";5.4;"L";"Oui"
2021;"2010640";6860.0;"K";"Non"
2021;"2010643";1619.0;"L";"Non"
2021;"2020002";1.0;"K";"Non"
2021;"2020003";77193.9;"K";"Oui"
2021;"2020009";86.0;"L";"Oui"
2021;"2020014";11790.0;"L";"Non"
2021;"2020020";17.7;"L";"Oui"
2021;"2020021";64849.9;"L";"Non"
2021;"2020027";136.4;"K";"Oui"
2021;"2020054";40.0;"L";"Non"
2021;"2020062";75.0;"L";"Non"
2021;"2020064";190.0;"L";"Non"
2021;"2020065";103.2;"K";"Non"
2021;"2020069";2406.0;"L";"Non"
2021;"2020099";81143.7;"L";"Non"
2021;"2020110";49116.7;"K";"Non"
2021;"2020114";640.0;"L";"Non"
2021;"2020119";24340.0;"L";"Oui"
2021;"2020154";20.0;"L";"Non"
2021;"2020156";22.4;"L";"Non"
2021;"2020181";5010.0;"L";"Non"
2021;"2020199";50.7;"K";"Non"
2021;"2020213";1.0;"K";"Oui"
2021;"2020219";976.0;"L";"Non"
2021;"2020221";630.0;"L";"Non"
2021;"2020226";42189.0;"L";"Non"
2021;"2020233";6895.0;"K";"Non"
2021;"2020234";15390.0;"K";"Non"
2021;"2020238";4.0;"L";"Non"
2021;"2020241";4911.0;"K";"Non"
2021;"2020246";10.0;"L";"Non"
2021;"2020267";1642.0;"K";"Non"
2021;"2020269";1770.0;"L";"Non"
2021;"2020284";15.0;"L";"Non"
2021;"2020298";6.8;"L";"Oui"
2021;"2020300";72.0;"L";"Oui"
2021;"2020301";233.4;"L";"Oui"
2021;"2020318";8.8;"L";"Non"
2021;"2020322";0.8;"K";"Oui"
2021;"2020323";0.8;"L";"Non"
2021;"2020336";2.0;"K";"Oui"
2021;"2020345";2.0;"L";"Non"
2021;"2020352";345.6;"L";"Oui"
2021;"2020354";1.0;"K";"Oui"
2021;"2020355";1.0;"L";"Non"
2021;"2020365";18.2;"L";"Oui"
2021;"2020420";10.0;"K";"Non"
2021;"2020426";64.5;"L";"Oui"
2021;"2020429";310.0;"L";"Non"
2021;"2020448";35.8;"L";"Oui"
2021;"2020456";220.0;"L";"Non"
2021;"2020459";940.0;"L";"Non"
2021;"2020474";30167.3;"L";"Non"
2021;"2020476";60.0;"L";"Non"
2021;"2020479";105.0;"L";"Non"
2021;"2030002";5.0;"L";"Non"
2021;"2030010";496.4;"L";"Non"
2021;"2030011";3877.0;"L";"Non"
2021;"2030050";5.9;"L";"Non"
2021;"2030069";50.0;"K";"Non"
2021;"2030070";520.0;"K";"Non"
2021;"2030071";1373884.5;"K";"Non"
2021;"2030072";5050.0;"K";"Non"
2021;"2030073";14055.0;"K";"Non"
2021;"2030099";1010.0;"L";"Non"
2021;"2030110";30525.0;"K";"Non"
2021;"2030125";1068.8;"L";"Non"
2021;"2030130";10.0;"L";"Non"
2021;"2030131";109.2;"K";"Non"
2021;"2030150";1.2;"L";"Oui"
2021;"2030172";15.4;"L";"Oui"
2021;"2030174";129.1;"K";"Non"
2021;"2030175";7526.4;"K";"Oui"
2021;"2030178";0.2;"K";"Oui"
2021;"2030184";110.3;"K";"Oui"
2021;"2030226";135.0;"K";"Non"
2021;"2030239";56.9;"K";"Non"
2021;"2030255";39608.0;"L";"Non"
2021;"2030259";2599.0;"L";"Non"
2021;"2030265";140.0;"L";"Non"
2021;"2030271";1.5;"K";"Oui"
2021;"2030273";543.6;"L";"Oui"
2021;"2030274";60.0;"L";"Non"
2021;"2030276";1.0;"L";"Oui"
2021;"2030277";105.0;"L";"Non"
2021;"2030286";3.3;"L";"Oui"
2021;"2030302";35.0;"L";"Oui"
2021;"2030321";17.6;"L";"Oui"
2021;"2030323";480099.0;"L";"Non"
2021;"2030332";29567.8;"L";"Non"
2021;"2030337";500.0;"L";"Non"
2021;"2030342";1971422.8;"L";"Non"
2021;"2030391";1550.0;"L";"Oui"
2021;"2030404";167040.0;"L";"Non"
2021;"2030405";35.9;"K";"Oui"
2021;"2030406";2.6;"K";"Oui"
2021;"2030430";14740.0;"K";"Non"
2021;"2030457";136.5;"K";"Non"
2021;"2030460";27460.0;"K";"Non"
2021;"2030466";17389.6;"K";"Oui"
2021;"2040003";330.0;"L";"Non"
2021;"2040019";5475.0;"K";"Non"
2021;"2040052";29.4;"K";"Non"
2021;"2040067";10.0;"L";"Non"
2021;"2040079";22.0;"L";"Oui"
2021;"2040080";2216.5;"K";"Non"
2021;"2040082";41.3;"L";"Oui"
2021;"2040083";10.0;"K";"Oui"
2021;"2040085";52.7;"L";"Oui"
2021;"2040086";4.0;"L";"Oui"
2021;"2040120";9.8;"K";"Non"
2021;"2040121";7.7;"L";"Non"
2021;"2040140";2.0;"L";"Oui"
2021;"2040146";143829.6;"L";"Non"
2021;"2040192";2105.0;"L";"Non"
2021;"2040195";213.0;"L";"Non"
2021;"2040196";110.0;"K";"Non"
2021;"2040199";335.0;"K";"Non"
2021;"2040200";60.0;"K";"Oui"
2021;"2040201";2226.0;"L";"Non"
2021;"2040205";797.4;"K";"Oui"
2021;"2040211";0.2;"L";"Non"
2021;"2040228";9.0;"L";"Non"
2021;"2040310";1785.0;"L";"Non"
2021;"2040311";245.0;"L";"Non"
2021;"2040314";860.0;"K";"Oui"
2021;"2040321";1.0;"K";"Non"
2021;"2040322";5.6;"L";"Non"
2021;"2040323";71.0;"L";"Oui"
2021;"2040328";28.0;"K";"Non"
2021;"2040330";13530.0;"K";"Non"
2021;"2040338";1083.0;"L";"Non"
2021;"2040349";7.2;"K";"Oui"
2021;"2040354";819.0;"K";"Non"
2021;"2050001";5.2;"K";"Non"
2021;"2050028";550.0;"K";"Non"
2021;"2050035";163.0;"L";"Non"
2021;"2050037";39425.0;"K";"Oui"
2021;"2050038";2538.3;"L";"Oui"
2021;"2050043";113.6;"L";"Oui"
2021;"2050046";69764.6;"K";"Non"
2021;"2050050";1106.3;"L";"Oui"
2021;"2050075";51322.1;"K";"Non"
2021;"2050076";6291.2;"K";"Non"
2021;"2050077";12.0;"K";"Oui"
2021;"2050078";64140.0;"L";"Non"
2021;"2050090";97515.0;"L";"Non"
2021;"2050136";2324.7;"K";"Non"
2021;"2050140";662.0;"L";"Non"
2021;"2050142";97.7;"K";"Oui"
2021;"2050144";4.6;"L";"Non"
2021;"2050145";114.7;"L";"Oui"
2021;"2050146";39.5;"L";"Oui"
2021;"2060002";19273.9;"L";"Non"
2021;"2060007";166125.0;"K";"Non"
2021;"2060026";900.2;"K";"Non"
2021;"2060034";132989.0;"K";"Non"
2021;"2060045";8075.1;"K";"Non"
2021;"2060049";5.0;"L";"Non"
2021;"2060050";77176.4;"L";"Non"
2021;"2060051";36987.2;"L";"Non"
2021;"2060063";3024.8;"K";"Non"
2021;"2060071";15.8;"K";"Non"
2021;"2060079";835.5;"L";"Non"
2021;"2060084";102526.8;"K";"Non"
2021;"2060085";18599.9;"L";"Non"
2021;"2060086";757.9;"K";"Non"
2021;"2060088";2180488.7;"L";"Non"
2021;"2060091";10.0;"L";"Non"
2021;"2060098";23487.8;"L";"Non"
2021;"2060107";5.0;"L";"Non"
2021;"2060111";3135.0;"L";"Non"
2021;"2060113";1379.5;"L";"Non"
2021;"2060115";126537.1;"L";"Non"
2021;"2060116";168030.3;"L";"Non"
2021;"2060117";60.0;"L";"Non"
2021;"2060118";323212.5;"L";"Non"
2021;"2060119";304.2;"K";"Non"
2021;"2060126";40.0;"L";"Non"
2021;"2060127";92706.4;"L";"Non"
2021;"2060129";103.5;"K";"Non"
2021;"2060130";5779.0;"L";"Non"
2021;"2060131";77135.6;"L";"Non"
2021;"2060132";1793.0;"L";"Non"
2021;"2060133";3.0;"L";"Non"
2021;"2060134";142434.0;"K";"Non"
2021;"2060137";5.0;"L";"Non"
2021;"2060172";42570.8;"L";"Non"
2021;"2060175";36356.4;"K";"Non"
2021;"2060177";495.6;"K";"Non"
2021;"2060192";20.0;"K";"Oui"
2021;"2060194";683209.0;"K";"Non"
2021;"2070045";5.0;"L";"Non"
2021;"2070053";2000.0;"L";"Non"
2021;"2070077";1860.0;"L";"Non"
2021;"2070087";192.0;"L";"Non"
2021;"2070107";15309.8;"L";"Non"
2021;"2070108";422.3;"K";"Non"
2021;"2070133";101305.2;"L";"Non"
2021;"2070136";44022.9;"K";"Non"
2021;"2070143";6390.0;"L";"Non"
2021;"2070163";192.0;"K";"Non"
2021;"2070170";690.5;"L";"Oui"
2021;"2070184";503261.4;"L";"Non"
2021;"2070185";21772.1;"L";"Non"
2021;"2070193";25981.4;"L";"Non"
2021;"2070221";89895.8;"L";"Non"
2021;"2070242";405.0;"K";"Non"
2021;"2070251";595.0;"L";"Non"
2021;"2080004";794.0;"K";"Non"
2021;"2080010";9630.0;"L";"Non"
2021;"2080018";716.5;"L";"Oui"
2021;"2080019";5709.5;"L";"Non"
2021;"2080020";980.0;"K";"Non"
2021;"2080023";41957.0;"K";"Non"
2021;"2080024";300.0;"K";"Non"
2021;"2080025";160377.0;"L";"Non"
2021;"2080026";190556.1;"L";"Non"
2021;"2080029";29013.2;"L";"Non"
2021;"2080036";47.0;"L";"Non"
2021;"2080038";114406.0;"L";"Non"
2021;"2080039";225.0;"L";"Non"
2021;"2080049";32828.4;"L";"Non"
2021;"2080053";467.0;"L";"Oui"
2021;"2080054";124.7;"L";"Oui"
2021;"2080056";4621.8;"L";"Non"
2021;"2080060";5935.0;"L";"Non"
2021;"2080062";4230.0;"K";"Non"
2021;"2080063";41967.2;"K";"Non"
2021;"2080069";1.0;"L";"Oui"
2021;"2080070";8865.4;"K";"Non"
2021;"2080084";3.0;"K";"Non"
2021;"2080088";100.0;"L";"Non"
2021;"2080089";20.4;"L";"Oui"
2021;"2080090";15.8;"L";"Oui"
2021;"2080091";16.5;"K";"Oui"
2021;"2080094";8767.0;"K";"Non"
2021;"2080097";1597.5;"L";"Non"
2021;"2080098";199112.9;"L";"Non"
2021;"2080100";10524.5;"K";"Non"
2021;"2080101";59.0;"K";"Non"
2021;"2080102";34173.7;"L";"Non"
2021;"2080103";19350.0;"L";"Non"
2021;"2080104";27268.0;"K";"Non"
2021;"2080105";314176.3;"L";"Non"
2021;"2080107";10.0;"L";"Non"
2021;"2080108";59.9;"K";"Non"
2021;"2080112";3538.1;"L";"Non"
2021;"2080113";6930.0;"K";"Non"
2021;"2080114";421130.6;"L";"Non"
2021;"2080117";4578.3;"K";"Non"
2021;"2080119";30.0;"L";"Non"
2021;"2080121";8182.6;"K";"Non"
2021;"2080123";10698.9;"K";"Non"
2021;"2080124";2399.5;"K";"Non"
2021;"2080125";12515.3;"K";"Non"
2021;"2080129";570.0;"L";"Non"
2021;"2080131";1.0;"L";"Non"
2021;"2080133";1.8;"L";"Oui"
2021;"2080136";27950.4;"K";"Non"
2021;"2080144";31.5;"K";"Non"
2021;"2080145";863476.2;"L";"Non"
2021;"2080147";15236.4;"L";"Non"
2021;"2090001";12103.7;"L";"Non"
2021;"2090008";1192.9;"L";"Non"
2021;"2090009";157043.0;"L";"Non"
2021;"2090010";11349.0;"L";"Non"
2021;"2090011";199237.9;"L";"Non"
2021;"2090016";549056.6;"L";"Non"
2021;"2090017";14827.5;"L";"Non"
2021;"2090019";42939.8;"L";"Non"
2021;"2090024";235.0;"L";"Non"
2021;"2090027";765.0;"L";"Non"
2021;"2090028";46295.0;"L";"Non"
2021;"2090029";2.0;"L";"Non"
2021;"2090032";39.6;"L";"Oui"
2021;"2090033";17.1;"L";"Non"
2021;"2090034";16.3;"L";"Non"
2021;"2090035";2.0;"L";"Oui"
2021;"2090036";42.5;"L";"Oui"
2021;"2090037";35007.1;"K";"Non"
2021;"2090038";50.0;"L";"Non"
2021;"2090039";104759.4;"L";"Non"
2021;"2090040";6.0;"K";"Non"
2021;"2090041";26784.6;"K";"Non"
2021;"2090042";28713.8;"K";"Non"
2021;"2090043";7.0;"L";"Non"
2021;"2090044";1201.4;"L";"Oui"
2021;"2090045";1.4;"L";"Oui"
2021;"2090050";6705747.2;"K";"Non"
2021;"2090052";9445.9;"K";"Non"
2021;"2090053";35487.5;"L";"Non"
2021;"2090054";2206.3;"K";"Non"
2021;"2090055";24780.0;"L";"Non"
2021;"2090056";31.3;"L";"Non"
2021;"2090057";8996.0;"K";"Non"
2021;"2090059";30.0;"K";"Non"
2021;"2090060";21.0;"L";"Non"
2021;"2090063";3216.5;"K";"Non"
2021;"2090064";127216.6;"L";"Non"
2021;"2090065";3345.0;"K";"Non"
2021;"2090067";2.0;"L";"Non"
2021;"2090068";41620.8;"L";"Non"
2021;"2090069";35757.3;"L";"Non"
2021;"2090070";22.0;"K";"Non"
2021;"2090071";20571.5;"L";"Non"
2021;"2090072";808.7;"K";"Non"
2021;"2090075";94158.0;"K";"Non"
2021;"2090077";19105.0;"L";"Non"
2021;"2090079";2402.1;"L";"Oui"
2021;"2090080";93401.7;"L";"Non"
2021;"2090090";14.0;"L";"Non"
2021;"2090091";920.0;"K";"Non"
2021;"2090093";3156443.9;"L";"Non"
2021;"2090094";9690.9;"K";"Non"
2021;"2090095";167452.0;"L";"Non"
2021;"2090096";10504.3;"L";"Non"
2021;"2090099";13417.0;"L";"Non"
2021;"2090101";274536.3;"L";"Non"
2021;"2090103";18590.0;"K";"Non"
2021;"2090104";173.0;"L";"Non"
2021;"2090105";336069.0;"K";"Non"
2021;"2090106";350.0;"L";"Non"
2021;"2090107";16.7;"L";"Non"
2021;"2090109";0.6;"K";"Non"
2021;"2090111";215235.0;"L";"Non"
2021;"2090112";117725.5;"L";"Non"
2021;"2090113";1123606.4;"L";"Non"
2021;"2090114";1978.7;"K";"Non"
2021;"2090115";60231.4;"L";"Non"
2021;"2090116";10552.0;"L";"Non"
2021;"2090117";357594.4;"L";"Non"
2021;"2090118";1577916.3;"L";"Non"
2021;"2090119";312475.6;"L";"Non"
2021;"2090121";25890.0;"L";"Non"
2021;"2090123";2042.0;"L";"Non"
2021;"2090124";14.0;"L";"Oui"
2021;"2090126";634691.6;"L";"Non"
2021;"2090127";292712.7;"L";"Non"
2021;"2090129";9.0;"L";"Non"
2021;"2090130";4550.0;"K";"Non"
2021;"2090131";0.2;"K";"Non"
2021;"2090132";674382.0;"L";"Non"
2021;"2090133";33990.0;"K";"Non"
2021;"2090134";81288.0;"K";"Non"
2021;"2090135";27520.0;"K";"Non"
2021;"2090136";333654.6;"L";"Non"
2021;"2090137";425007.2;"K";"Non"
2021;"2090138";7.0;"K";"Non"
2021;"2090139";100.0;"K";"Non"
2021;"2090140";23.0;"L";"Non"
2021;"2090142";506.7;"K";"Non"
2021;"2090146";868915.8;"L";"Oui"
2021;"2090149";30371.5;"L";"Non"
2021;"2090153";101762.8;"K";"Non"
2021;"2090154";126.0;"L";"Non"
2021;"2090157";16274.0;"L";"Non"
2021;"2090158";4200.0;"L";"Non"
2021;"2090159";13792.0;"K";"Non"
2021;"2090160";126650.2;"L";"Non"
2021;"2090161";20.0;"K";"Non"
2021;"2090162";3635.0;"L";"Non"
2021;"2090163";540.0;"L";"Non"
2021;"2090164";19545.9;"L";"Non"
2021;"2090168";18407.0;"K";"Non"
2021;"2090169";6963.5;"K";"Non"
2021;"2090170";48486.0;"K";"Non"
2021;"2090173";35.0;"L";"Non"
2021;"2090175";7.0;"K";"Non"
2021;"2090176";45.8;"L";"Oui"
2021;"2090177";1083.0;"L";"Non"
2021;"2090178";28.0;"L";"Oui"
2021;"2090183";14315.0;"K";"Non"
2021;"2090186";1048777.0;"L";"Non"
2021;"2090188";1383087.9;"L";"Non"
2021;"2090189";1664.8;"L";"Non"
2021;"2090190";0.1;"L";"Non"
2021;"2090191";260.0;"L";"Non"
2021;"2090194";24.0;"L";"Non"
2021;"2090196";280.0;"L";"Non"
2021;"2090199";26418.5;"L";"Oui"
2021;"2090200";111184.3;"L";"Oui"
2021;"2100001";65.4;"L";"Non"
2021;"2100002";3303.2;"L";"Non"
2021;"2100004";2502.5;"L";"Oui"
2021;"2100009";13320.7;"K";"Non"
2021;"2100012";115.0;"L";"Non"
2021;"2100014";5953.8;"K";"Non"
2021;"2100015";1240.8;"K";"Non"
2021;"2100016";4525.6;"K";"Non"
2021;"2100018";159628.2;"L";"Non"
2021;"2100021";54514.3;"K";"Non"
2021;"2100023";32.6;"K";"Non"
2021;"2100025";384.0;"L";"Non"
2021;"2100026";69059.1;"L";"Non"
2021;"2100028";91010.4;"L";"Non"
2021;"2100029";245.0;"L";"Non"
2021;"2100030";1882152.0;"K";"Non"
2021;"2100031";2960.0;"L";"Non"
2021;"2100032";5958.0;"L";"Non"
2021;"2100034";53455.0;"L";"Non"
2021;"2100036";254.6;"K";"Non"
2021;"2100037";39001.0;"L";"Non"
2021;"2100038";878500.4;"K";"Non"
2021;"2100041";460999.9;"L";"Non"
2021;"2100042";55.6;"L";"Non"
2021;"2100049";15760.0;"L";"Non"
2021;"2100051";54297.2;"L";"Non"
2021;"2100052";471049.5;"L";"Non"
2021;"2100053";66998.5;"L";"Non"
2021;"2100056";142876.1;"L";"Non"
2021;"2100057";222199.0;"L";"Non"
2021;"2100058";36.0;"K";"Non"
2021;"2100059";294407.0;"L";"Non"
2021;"2100060";294173.4;"L";"Non"
2021;"2100061";2391.0;"K";"Non"
2021;"2100065";13287.7;"K";"Non"
2021;"2100066";746.0;"K";"Non"
2021;"2100067";1019.5;"K";"Non"
2021;"2100069";4229.7;"K";"Non"
2021;"2100070";122416.0;"K";"Non"
2021;"2100078";100.2;"L";"Non"
2021;"2100080";2322.0;"L";"Non"
2021;"2100083";32.0;"L";"Non"
2021;"2100086";2990.0;"K";"Non"
2021;"2100091";24169.3;"L";"Non"
2021;"2100099";34.0;"L";"Oui"
2021;"2100100";1.3;"L";"Oui"
2021;"2100102";7.4;"L";"Non"
2021;"2100103";229.0;"K";"Non"
2021;"2100105";78.6;"L";"Non"
2021;"2100108";561546.5;"L";"Non"
2021;"2100110";11275.7;"L";"Non"
2021;"2100111";295861.3;"L";"Non"
2021;"2100112";211449.7;"L";"Non"
2021;"2100114";1002.0;"K";"Non"
2021;"2100121";74234.0;"L";"Non"
2021;"2100122";2687.4;"K";"Non"
2021;"2100137";6.0;"L";"Non"
2021;"2100138";1026772.9;"L";"Non"
2021;"2100140";191529.2;"L";"Non"
2021;"2100143";3199.0;"L";"Non"
2021;"2100144";121.0;"K";"Non"
2021;"2100145";45.0;"L";"Non"
2021;"2100146";50.0;"K";"Non"
2021;"2100147";1200.0;"K";"Non"
2021;"2100149";58.9;"L";"Non"
2021;"2100151";255353.2;"L";"Non"
2021;"2100153";12.0;"L";"Non"
2021;"2100154";91.0;"L";"Non"
2021;"2100162";3140.0;"K";"Non"
2021;"2100164";555.0;"L";"Non"
2021;"2100165";4.9;"L";"Oui"
2021;"2100166";1.0;"L";"Oui"
2021;"2100167";1360.0;"K";"Non"
2021;"2100170";219.0;"L";"Non"
2021;"2100173";2800.0;"L";"Non"
2021;"2100175";4811.2;"L";"Non"
2021;"2100177";29226.7;"K";"Non"
2021;"2100178";41873.6;"K";"Non"
2021;"2100179";386.2;"L";"Non"
2021;"2100180";2.0;"L";"Non"
2021;"2100181";862707.5;"K";"Non"
2021;"2100183";3245.0;"L";"Non"
2021;"2100185";13202.3;"L";"Non"
2021;"2100186";733979.4;"L";"Non"
2021;"2100188";174.0;"L";"Non"
2021;"2100191";12544.0;"L";"Non"
2021;"2100194";60086.2;"L";"Non"
2021;"2100205";2097.0;"L";"Non"
2021;"2100206";284065.0;"L";"Non"
2021;"2100207";2.0;"K";"Non"
2021;"2100211";36260.0;"L";"Non"
2021;"2100212";896.0;"K";"Non"
2021;"2100214";136.5;"L";"Non"
2021;"2100215";280545.6;"L";"Non"
2021;"2100219";4462.0;"L";"Oui"
2021;"2100220";17.0;"L";"Oui"
2021;"2100221";613516.1;"K";"Non"
2021;"2100227";10299.5;"L";"Non"
2021;"2100229";885.0;"L";"Non"
2021;"2100230";180.0;"L";"Non"
2021;"2100231";292993.9;"K";"Non"
2021;"2100234";100074.7;"L";"Non"
2021;"2100235";13976.2;"L";"Non"
2021;"2100240";2.0;"L";"Oui"
2021;"2100241";68.4;"K";"Non"
2021;"2100244";54061.0;"L";"Non"
2021;"2100245";46975.0;"L";"Non"
2021;"2100246";1026.0;"L";"Non"
2021;"2110004";107872.5;"L";"Non"
2021;"2110005";35975.0;"L";"Non"
2021;"2110006";138583.9;"K";"Non"
2021;"2110007";260.6;"K";"Non"
2021;"2110009";3731.5;"L";"Non"
2021;"2110010";453.7;"K";"Non"
2021;"2110011";24079.1;"L";"Non"
2021;"2110012";357818.8;"L";"Non"
2021;"2110013";22110.0;"L";"Non"
2021;"2110017";3934.3;"L";"Non"
2021;"2110018";53563.2;"L";"Non"
2021;"2110020";53.5;"L";"Non"
2021;"2110021";19709.0;"K";"Non"
2021;"2110025";5.0;"L";"Non"
2021;"2110033";41915.5;"L";"Oui"
2021;"2110034";6441.0;"K";"Non"
2021;"2110038";28.0;"K";"Non"
2021;"2110039";222.0;"K";"Non"
2021;"2110040";800.0;"K";"Oui"
2021;"2110042";1750.0;"L";"Non"
2021;"2110045";455.0;"L";"Non"
2021;"2110049";2082.0;"L";"Non"
2021;"2110050";4846.2;"L";"Non"
2021;"2110051";551.0;"L";"Non"
2021;"2110054";325.5;"K";"Non"
2021;"2110055";10.0;"K";"Non"
2021;"2110056";15720.6;"L";"Non"
2021;"2110059";250229.1;"K";"Non"
2021;"2110063";10351.6;"K";"Non"
2021;"2110068";380.0;"L";"Non"
2021;"2110072";1353.9;"K";"Non"
2021;"2110073";38007.4;"L";"Non"
2021;"2110076";26880.5;"L";"Non"
2021;"2110077";34496.9;"L";"Non"
2021;"2110078";220.0;"L";"Non"
2021;"2110079";249.5;"K";"Non"
2021;"2110082";1596.0;"K";"Non"
2021;"2110083";66.8;"L";"Oui"
2021;"2110084";559.6;"L";"Oui"
2021;"2110086";134280.1;"L";"Non"
2021;"2110090";39467.3;"L";"Non"
2021;"2110091";10.0;"L";"Non"
2021;"2110092";1328.4;"K";"Non"
2021;"2110095";57039.8;"L";"Non"
2021;"2110096";1042.0;"L";"Non"
2021;"2110099";74.5;"K";"Non"
2021;"2110101";108479.4;"L";"Non"
2021;"2110102";1263751.2;"L";"Non"
2021;"2110103";4010.7;"K";"Non"
2021;"2110104";149352.7;"L";"Non"
2021;"2110105";57304.3;"L";"Non"
2021;"2110106";18.2;"L";"Non"
2021;"2110107";17.2;"L";"Non"
2021;"2110108";3.2;"L";"Non"
2021;"2110109";6898.2;"L";"Non"
2021;"2110110";3.0;"L";"Non"
2021;"2110111";162175.5;"L";"Non"
2021;"2110112";0.8;"L";"Non"
2021;"2110115";47546.3;"L";"Non"
2021;"2110118";150.0;"L";"Non"
2021;"2110121";249.0;"L";"Non"
2021;"2110132";60.0;"L";"Non"
2021;"2110133";7.0;"L";"Non"
2021;"2110135";157.0;"L";"Oui"
2021;"2110137";4.0;"L";"Non"
2021;"2110138";200.0;"K";"Non"
2021;"2110140";33499.2;"L";"Non"
2021;"2110141";112867.7;"L";"Non"
2021;"2110142";4275.0;"L";"Non"
2021;"2110143";21988.6;"L";"Non"
2021;"2110144";85922.1;"L";"Non"
2021;"2110145";344.0;"L";"Non"
2021;"2110146";99.0;"L";"Oui"
2021;"2110147";37164.0;"K";"Non"
2021;"2110148";20700.2;"L";"Non"
2021;"2110149";255300.8;"L";"Oui"
2021;"2110150";47405.4;"L";"Oui"
2021;"2110151";1532417.1;"L";"Non"
2021;"2110152";21718.0;"L";"Non"
2021;"2110153";8652.8;"L";"Non"
2021;"2110154";32375.2;"L";"Non"
2021;"2110159";15.4;"L";"Oui"
2021;"2110160";34.4;"L";"Oui"
2021;"2110161";1377.0;"L";"Non"
2021;"2110162";138043.6;"L";"Non"
2021;"2110165";60.0;"L";"Non"
2021;"2110166";8.0;"L";"Non"
2021;"2110167";218351.0;"L";"Non"
2021;"2110168";2562.0;"L";"Non"
2021;"2110170";70.0;"L";"Non"
2021;"2110172";90.0;"K";"Non"
2021;"2110173";38241.7;"K";"Non"
2021;"2110174";386.1;"L";"Oui"
2021;"2110177";3.0;"L";"Non"
2021;"2110178";10139.0;"L";"Non"
2021;"2110179";2247.1;"K";"Non"
2021;"2110180";6255.2;"K";"Oui"
2021;"2110181";5875.1;"L";"Non"
2021;"2110187";1020.0;"K";"Non"
2021;"2110191";123312.0;"L";"Non"
2021;"2110192";5982.3;"K";"Non"
2021;"2110194";5.0;"L";"Non"
2021;"2110195";287.0;"K";"Non"
2021;"2110196";1343.3;"K";"Oui"
2021;"2110197";25525.1;"L";"Non"
2021;"2110198";485.0;"L";"Non"
2021;"2110200";4930.0;"L";"Non"
2021;"2110201";26.5;"L";"Non"
2021;"2110202";91370.0;"L";"Non"
2021;"2110203";2624.0;"K";"Non"
2021;"2120007";22.0;"L";"Non"
2021;"2120008";0.2;"L";"Oui"
2021;"2120015";4.4;"L";"Oui"
2021;"2120018";216.0;"L";"Non"
2021;"2120027";2020.0;"K";"Non"
2021;"2120028";660.0;"L";"Non"
2021;"2120030";1001.4;"K";"Non"
2021;"2120034";4429.3;"L";"Non"
2021;"2120035";27.0;"L";"Non"
2021;"2120036";5.0;"L";"Non"
2021;"2120041";43683.9;"L";"Non"
2021;"2120042";121.0;"K";"Non"
2021;"2120048";184940.4;"L";"Non"
2021;"2120049";1400.7;"L";"Non"
2021;"2120051";5343.0;"L";"Non"
2021;"2120057";157250.0;"L";"Non"
2021;"2120058";51640.0;"L";"Non"
2021;"2120059";1810.3;"L";"Non"
2021;"2120060";3470.0;"L";"Non"
2021;"2120063";15.8;"L";"Non"
2021;"2120065";1550.0;"L";"Non"
2021;"2120066";100175.7;"L";"Non"
2021;"2120067";50753.5;"K";"Non"
2021;"2120069";40.0;"K";"Non"
2021;"2120070";158250.5;"L";"Non"
2021;"2120071";211.0;"L";"Non"
2021;"2120074";492.0;"L";"Non"
2021;"2120075";409523.4;"L";"Non"
2021;"2120081";17076.0;"L";"Non"
2021;"2120082";76.4;"K";"Non"
2021;"2120087";2975.8;"K";"Non"
2021;"2120088";110.0;"K";"Non"
2021;"2120089";63777.3;"L";"Non"
2021;"2120090";110.0;"K";"Non"
2021;"2120091";8.0;"K";"Non"
2021;"2120092";51661.0;"L";"Non"
2021;"2120093";105.0;"L";"Non"
2021;"2120094";3400.0;"L";"Non"
2021;"2120096";90.0;"K";"Non"
2021;"2120097";40.0;"K";"Non"
2021;"2120098";5031.4;"K";"Non"
2021;"2120099";6.0;"L";"Non"
2021;"2120100";1495.0;"K";"Non"
2021;"2120105";10.1;"K";"Non"
2021;"2120107";130.0;"L";"Non"
2021;"2120116";2.4;"L";"Oui"
2021;"2120117";15888.5;"L";"Non"
2021;"2120118";440.0;"L";"Non"
2021;"2120119";400.0;"L";"Oui"
2021;"2120120";79853.8;"L";"Non"
2021;"2120122";1220.0;"L";"Non"
2021;"2120123";14280.0;"K";"Non"
2021;"2120124";93.0;"K";"Non"
2021;"2120125";560.0;"L";"Non"
2021;"2120129";57.6;"L";"Oui"
2021;"2120130";2145.4;"K";"Non"
2021;"2120131";23.0;"K";"Non"
2021;"2120132";355410.4;"K";"Non"
2021;"2120133";62.3;"L";"Non"
2021;"2120135";5530.0;"L";"Non"
2021;"2120140";8780.0;"K";"Non"
2021;"2120142";89.9;"K";"Non"
2021;"2120143";1584471.2;"L";"Non"
2021;"2120144";535.0;"L";"Non"
2021;"2120145";113.0;"K";"Non"
2021;"2120146";1705.0;"L";"Non"
2021;"2120148";700.0;"L";"Non"
2021;"2120149";1469.6;"K";"Non"
2021;"2120150";591.5;"L";"Oui"
2021;"2120151";345.0;"L";"Non"
2021;"2120153";541591.2;"L";"Non"
2021;"2120154";1020.0;"L";"Non"
2021;"2120155";93.6;"L";"Oui"
2021;"2120157";296.0;"L";"Non"
2021;"2120158";56063.0;"K";"Non"
2021;"2120159";314.3;"L";"Non"
2021;"2120160";74632.5;"L";"Non"
2021;"2120164";69.0;"K";"Non"
2021;"2120168";198225.0;"K";"Non"
2021;"2120171";3755.0;"K";"Non"
2021;"2120172";38.5;"L";"Oui"
2021;"2120173";78.0;"K";"Oui"
2021;"2120174";144.0;"L";"Oui"
2021;"2120176";30.0;"K";"Non"
2021;"2120177";8616.7;"K";"Non"
2021;"2120179";304754.0;"K";"Non"
2021;"2120188";679.5;"K";"Non"
2021;"2120189";27490.0;"K";"Non"
2021;"2120191";46.5;"K";"Non"
2021;"2120193";6325.0;"L";"Non"
2021;"2120194";27.5;"K";"Non"
2021;"2120195";50.0;"K";"Non"
2021;"2120199";544462.2;"L";"Non"
2021;"2120200";195.0;"L";"Non"
2021;"2120203";1870.0;"L";"Non"
2021;"2120205";655.0;"L";"Non"
2021;"2120206";24018.2;"L";"Non"
2021;"2120209";34827.0;"K";"Non"
2021;"2120210";3871.0;"L";"Non"
2021;"2120212";54.6;"K";"Non"
2021;"2120213";10.9;"L";"Non"
2021;"2120216";13.7;"L";"Non"
2021;"2120219";690.1;"L";"Non"
2021;"2130001";8240.0;"L";"Non"
2021;"2130013";174.0;"L";"Non"
2021;"2130023";840.0;"K";"Non"
2021;"2130026";65.0;"L";"Non"
2021;"2130031";11075.0;"K";"Non"
2021;"2130033";454.0;"L";"Non"
2021;"2130034";205.0;"K";"Non"
2021;"2130038";2765.0;"L";"Non"
2021;"2130040";19.4;"L";"Non"
2021;"2130042";10130.0;"K";"Non"
2021;"2130043";120.0;"L";"Non"
2021;"2130045";300.0;"L";"Non"
2021;"2130049";168508.4;"L";"Non"
2021;"2130050";108.0;"K";"Non"
2021;"2130059";68583.8;"L";"Non"
2021;"2130061";84935.4;"L";"Non"
2021;"2130063";267998.2;"L";"Non"
2021;"2130066";1462.5;"K";"Non"
2021;"2130067";36773.5;"L";"Non"
2021;"2130068";168794.4;"L";"Non"
2021;"2130069";95384.2;"L";"Non"
2021;"2130071";4265.0;"L";"Non"
2021;"2130075";644000.1;"K";"Non"
2021;"2130076";15.0;"L";"Non"
2021;"2130078";3.0;"L";"Non"
2021;"2130079";793.5;"L";"Non"
2021;"2130081";177828.4;"K";"Non"
2021;"2130082";18864.6;"K";"Non"
2021;"2130083";133613.0;"L";"Non"
2021;"2130084";71532.2;"K";"Non"
2021;"2130085";30401.4;"K";"Non"
2021;"2130086";495325.1;"K";"Non"
2021;"2130087";58570.1;"K";"Non"
2021;"2130088";5333.2;"K";"Non"
2021;"2130089";25.0;"K";"Non"
2021;"2130091";26061.6;"L";"Non"
2021;"2130092";1438.2;"L";"Non"
2021;"2130093";20.0;"L";"Oui"
2021;"2130095";290.0;"L";"Non"
2021;"2130098";280.0;"L";"Non"
2021;"2130101";190.0;"L";"Non"
2021;"2130102";14290.0;"K";"Non"
2021;"2130103";12.0;"K";"Oui"
2021;"2130105";2.0;"K";"Non"
2021;"2130106";28.1;"K";"Non"
2021;"2130108";1948.0;"K";"Non"
2021;"2130109";469.4;"K";"Non"
2021;"2130111";5.5;"L";"Non"
2021;"2130112";43888.5;"K";"Non"
2021;"2130114";1132.1;"K";"Non"
2021;"2130115";32341.8;"K";"Non"
2021;"2130117";5.0;"L";"Non"
2021;"2130119";4618.9;"L";"Non"
2021;"2130122";1836.0;"L";"Non"
2021;"2130124";10.0;"L";"Non"
2021;"2130125";3284.0;"K";"Oui"
2021;"2130126";203278.4;"K";"Oui"
2021;"2130127";4384.0;"K";"Non"
2021;"2130128";79.0;"K";"Non"
2021;"2130129";9785.5;"K";"Non"
2021;"2130132";1446.0;"L";"Non"
2021;"2130136";411.0;"K";"Non"
2021;"2130140";655329.3;"L";"Non"
2021;"2130141";3.0;"L";"Oui"
2021;"2130142";1256.0;"K";"Non"
2021;"2130143";1140.0;"K";"Non"
2021;"2130147";40.0;"L";"Non"
2021;"2130148";576.5;"K";"Non"
2021;"2130149";20.0;"L";"Non"
2021;"2130151";36.7;"K";"Oui"
2021;"2130152";95617.9;"L";"Non"
2021;"2130153";432067.1;"L";"Oui"
2021;"2130156";140.0;"L";"Non"
2021;"2130158";338.0;"K";"Non"
2021;"2130162";175.0;"L";"Non"
2021;"2130164";242495.4;"L";"Non"
2021;"2130167";5274.0;"L";"Non"
2021;"2130168";8965.0;"K";"Non"
2021;"2130172";5.2;"L";"Oui"
2021;"2130175";2528.4;"L";"Non"
2021;"2130181";10.0;"L";"Non"
2021;"2130187";11810.0;"L";"Non"
2021;"2130188";410.0;"L";"Non"
2021;"2130190";5.7;"L";"Non"
2021;"2130191";95.0;"L";"Non"
2021;"2130192";535.0;"L";"Non"
2021;"2130193";20400.0;"L";"Non"
2021;"2130194";1661.1;"L";"Non"
2021;"2130195";23290.0;"L";"Non"
2021;"2130198";35.0;"L";"Non"
2021;"2130200";4589.0;"L";"Non"
2021;"2130201";1745.0;"K";"Non"
2021;"2130202";335047.9;"L";"Non"
2021;"2130203";434.0;"L";"Non"
2021;"2130212";31188.5;"K";"Non"
2021;"2130215";2750.0;"L";"Non"
2021;"2130221";20.0;"L";"Non"
2021;"2130230";353.5;"K";"Non"
2021;"2130236";16.0;"K";"Non"
2021;"2130240";33.2;"K";"Non"
2021;"2130242";111410.6;"L";"Non"
2021;"2130243";155.0;"L";"Non"
2021;"2130244";74969.8;"L";"Non"
2021;"2130247";17761.0;"L";"Non"
2021;"2130248";20.0;"L";"Non"
2021;"2130249";344125.7;"L";"Non"
2021;"2130251";64929.9;"L";"Non"
2021;"2130252";9350.0;"L";"Non"
2021;"2130253";156749.0;"L";"Non"
2021;"2130254";535.0;"L";"Non"
2021;"2130255";4310.0;"K";"Non"
2021;"2130256";320.0;"L";"Non"
2021;"2130258";560.0;"L";"Non"
2021;"2130259";1.0;"L";"Non"
2021;"2130260";1491.0;"L";"Non"
2021;"2130261";17640.0;"K";"Non"
2021;"2130265";625.0;"L";"Non"
2021;"2130266";399605.9;"L";"Non"
2021;"2130271";2034.3;"L";"Non"
2021;"2130272";1038.5;"K";"Non"
2021;"2130274";8485.0;"L";"Non"
2021;"2130276";1881.0;"L";"Non"
2021;"2130277";745882.0;"K";"Non"
2021;"2140001";2957.1;"K";"Non"
2021;"2140002";2965.3;"L";"Non"
2021;"2140006";16615.0;"L";"Non"
2021;"2140008";1735.0;"K";"Non"
2021;"2140009";12.0;"K";"Non"
2021;"2140011";39.0;"L";"Non"
2021;"2140018";21842.0;"L";"Non"
2021;"2140019";8.5;"L";"Non"
2021;"2140021";13200.0;"L";"Non"
2021;"2140022";104823.0;"L";"Non"
2021;"2140023";4260.0;"L";"Non"
2021;"2140027";7815.0;"K";"Non"
2021;"2140035";934.0;"L";"Non"
2021;"2140037";4834.0;"K";"Non"
2021;"2140038";3212.4;"L";"Non"
2021;"2140039";10.9;"L";"Non"
2021;"2140040";928384.1;"K";"Non"
2021;"2140041";0.3;"L";"Non"
2021;"2140042";6458.0;"L";"Non"
2021;"2140043";497.7;"K";"Non"
2021;"2140044";2113.5;"K";"Non"
2021;"2140047";3485.0;"L";"Non"
2021;"2140048";1.5;"K";"Non"
2021;"2140050";26305.2;"K";"Non"
2021;"2140051";14656.0;"L";"Non"
2021;"2140052";17836.0;"L";"Non"
2021;"2140056";1846.0;"K";"Non"
2021;"2140059";3127.5;"L";"Non"
2021;"2140062";237.0;"L";"Non"
2021;"2140065";132667.0;"K";"Non"
2021;"2140074";1277.5;"L";"Non"
2021;"2140077";2335.0;"L";"Non"
2021;"2140078";169184.5;"L";"Non"
2021;"2140079";535.0;"L";"Non"
2021;"2140080";970.0;"L";"Non"
2021;"2140082";77433.7;"L";"Non"
2021;"2140084";518520.0;"L";"Non"
2021;"2140085";22681.0;"L";"Non"
2021;"2140089";37015.0;"L";"Non"
2021;"2140090";28117.2;"L";"Non"
2021;"2140091";70.0;"K";"Non"
2021;"2140093";207006.5;"L";"Non"
2021;"2140094";80.2;"L";"Non"
2021;"2140098";421951.2;"L";"Non"
2021;"2140099";3050.0;"L";"Non"
2021;"2140101";9.0;"K";"Non"
2021;"2140104";2125.1;"L";"Non"
2021;"2140105";21852.5;"L";"Non"
2021;"2140106";4540.7;"L";"Oui"
2021;"2140107";5070.0;"L";"Non"
2021;"2140108";0.4;"L";"Non"
2021;"2140110";16565.0;"L";"Non"
2021;"2140112";20.0;"L";"Non"
2021;"2140114";3349.0;"K";"Non"
2021;"2140115";875.0;"L";"Non"
2021;"2140117";16049.1;"L";"Non"
2021;"2140118";20027.0;"K";"Non"
2021;"2140121";1541640.5;"L";"Oui"
2021;"2140124";622.2;"K";"Non"
2021;"2140126";17205.0;"K";"Non"
2021;"2140127";23216.5;"K";"Non"
2021;"2140132";4227.2;"L";"Non"
2021;"2140133";13900.0;"K";"Non"
2021;"2140134";21140.4;"K";"Non"
2021;"2140137";5613.8;"K";"Non"
2021;"2140143";384.1;"K";"Non"
2021;"2140145";980.0;"L";"Non"
2021;"2140146";23768.8;"K";"Non"
2021;"2140147";114602.3;"L";"Non"
2021;"2140148";6461.0;"L";"Non"
2021;"2140149";3308.0;"L";"Non"
2021;"2140152";32711.0;"L";"Non"
2021;"2140156";47144.2;"L";"Non"
2021;"2140160";23790.0;"L";"Non"
2021;"2140162";3.0;"K";"Oui"
2021;"2140165";9658.0;"K";"Non"
2021;"2140166";72697.0;"L";"Oui"
2021;"2140167";86473.0;"L";"Oui"
2021;"2140168";6955.5;"L";"Non"
2021;"2140169";3.0;"L";"Non"
2021;"2140173";349112.0;"L";"Non"
2021;"2140175";224504.7;"L";"Non"
2021;"2140176";24310.0;"K";"Non"
2021;"2140177";10464.3;"L";"Non"
2021;"2140179";57780.9;"L";"Non"
2021;"2140180";3976.0;"L";"Non"
2021;"2140181";30.0;"K";"Non"
2021;"2140183";96.0;"L";"Non"
2021;"2140184";8522.6;"K";"Non"
2021;"2140187";7.9;"L";"Non"
2021;"2140188";3548.0;"L";"Non"
2021;"2140189";189.8;"L";"Non"
2021;"2140193";13645.9;"L";"Oui"
2021;"2140194";85.0;"L";"Non"
2021;"2140197";19.0;"L";"Non"
2021;"2140199";35145.6;"K";"Non"
2021;"2140201";7298.0;"L";"Non"
2021;"2140206";99.0;"K";"Non"
2021;"2140207";30737.0;"L";"Non"
2021;"2140208";218.8;"K";"Non"
2021;"2140210";1035.0;"L";"Non"
2021;"2140213";940.0;"L";"Non"
2021;"2140215";120631.4;"K";"Non"
2021;"2140218";25.5;"K";"Non"
2021;"2140223";470.0;"K";"Non"
2021;"2140225";470.0;"L";"Non"
2021;"2140226";1235.0;"L";"Non"
2021;"2140232";713.0;"L";"Non"
2021;"2140233";7320.0;"K";"Non"
2021;"2140234";420.8;"L";"Non"
2021;"2140236";67930.0;"K";"Non"
2021;"2140238";753.8;"L";"Non"
2021;"2140240";40.0;"K";"Non"
2021;"2140242";352.7;"L";"Non"
2021;"2140243";276.6;"L";"Non"
2021;"2140244";92.0;"K";"Non"
2021;"2140246";965.9;"K";"Non"
2021;"2140247";1953.0;"L";"Non"
2021;"2140250";8130.0;"L";"Non"
2021;"2140252";483900.1;"K";"Oui"
2021;"2140254";5291.0;"L";"Non"
2021;"2140255";66928.2;"L";"Non"
2021;"2140256";15.8;"L";"Non"
2021;"2140257";498051.4;"L";"Non"
2021;"2140258";133243.2;"L";"Non"
2021;"2140259";60.0;"K";"Non"
2021;"2140260";190.0;"L";"Non"
2021;"2140261";670.8;"K";"Non"
2021;"2140265";30.0;"L";"Non"
2021;"2140269";185.0;"L";"Non"
2021;"2140270";34343.7;"L";"Non"
2021;"2140271";4.0;"K";"Non"
2021;"2140272";95.0;"L";"Non"
2021;"2140273";40.0;"L";"Non"
2021;"2140276";321.0;"L";"Non"
2021;"2150001";5.0;"K";"Oui"
2021;"2150002";10781.0;"K";"Non"
2021;"2150004";10.0;"L";"Non"
2021;"2150006";260.0;"K";"Non"
2021;"2150007";54214.6;"K";"Non"
2021;"2150008";13859.0;"K";"Non"
2021;"2150009";20179.0;"K";"Non"
2021;"2150011";320.2;"L";"Non"
2021;"2150012";27745.6;"L";"Non"
2021;"2150013";10.0;"K";"Non"
2021;"2150014";13868.3;"L";"Non"
2021;"2150016";5295.0;"K";"Non"
2021;"2150018";2720.0;"L";"Non"
2021;"2150019";102643.3;"L";"Non"
2021;"2150020";793.6;"K";"Non"
2021;"2150022";48177.3;"L";"Non"
2021;"2150023";192.0;"L";"Non"
2021;"2150025";1190.0;"L";"Non"
2021;"2150026";15351.0;"L";"Non"
2021;"2150028";420443.0;"L";"Non"
2021;"2150031";2931.0;"L";"Non"
2021;"2150033";3645.0;"L";"Non"
2021;"2150042";708.5;"K";"Non"
2021;"2150044";195.0;"L";"Non"
2021;"2150051";40080.0;"L";"Non"
2021;"2150054";783.0;"L";"Non"
2021;"2150057";316.0;"K";"Non"
2021;"2150058";21817.5;"L";"Non"
2021;"2150062";7370.0;"L";"Non"
2021;"2150063";375.0;"L";"Non"
2021;"2150066";9892.1;"L";"Non"
2021;"2150067";375303.5;"L";"Non"
2021;"2150068";28.8;"L";"Non"
2021;"2150069";14.0;"K";"Non"
2021;"2150071";715.0;"L";"Non"
2021;"2150074";31571.6;"L";"Non"
2021;"2150078";30237.0;"L";"Non"
2021;"2150081";8949.0;"L";"Non"
2021;"2150082";365.0;"K";"Non"
2021;"2150084";48694.1;"L";"Non"
2021;"2150085";8129.0;"L";"Non"
2021;"2150086";2985.0;"L";"Non"
2021;"2150087";4061.5;"K";"Oui"
2021;"2150088";33.9;"K";"Non"
2021;"2150096";165.0;"K";"Non"
2021;"2150097";513.5;"K";"Non"
2021;"2150098";12.2;"L";"Non"
2021;"2150100";365.1;"L";"Oui"
2021;"2150103";940826.0;"L";"Non"
2021;"2150104";237904.0;"L";"Non"
2021;"2150105";56094.6;"K";"Non"
2021;"2150106";5.0;"L";"Non"
2021;"2150110";680.0;"L";"Non"
2021;"2150112";5655.0;"K";"Non"
2021;"2150115";2920.0;"K";"Non"
2021;"2150118";371043.3;"K";"Non"
2021;"2150124";1294.3;"L";"Non"
2021;"2150125";19021.4;"L";"Non"
2021;"2150129";40.0;"L";"Non"
2021;"2150130";5375.0;"L";"Non"
2021;"2150134";731.0;"K";"Non"
2021;"2150140";8861572.1;"L";"Non"
2021;"2150175";10.0;"K";"Non"
2021;"2150179";6771.9;"K";"Non"
2021;"2150215";636.9;"K";"Non"
2021;"2150223";180.0;"L";"Non"
2021;"2150232";51.0;"L";"Non"
2021;"2150245";27284.6;"L";"Non"
2021;"2150247";1865.0;"L";"Non"
2021;"2150248";15346.2;"L";"Non"
2021;"2150266";1470.0;"L";"Non"
2021;"2150267";721.0;"K";"Non"
2021;"2150269";21275.0;"L";"Non"
2021;"2150274";4549.5;"L";"Non"
2021;"2150277";16525.3;"L";"Non"
2021;"2150293";285.0;"K";"Non"
2021;"2150295";50.4;"K";"Non"
2021;"2150298";82.5;"K";"Non"
2021;"2150304";3025.0;"L";"Non"
2021;"2150309";343.0;"L";"Non"
2021;"2150325";10.0;"K";"Non"
2021;"2150328";881.8;"K";"Non"
2021;"2150330";1765.0;"K";"Non"
2021;"2150336";18.0;"K";"Non"
2021;"2150352";16480.0;"L";"Non"
2021;"2150353";4360.0;"K";"Non"
2021;"2150355";550.0;"L";"Non"
2021;"2150358";40.0;"K";"Non"
2021;"2150372";775.0;"L";"Non"
2021;"2150375";1435.0;"L";"Non"
2021;"2150387";51462.8;"L";"Non"
2021;"2150405";45.0;"K";"Non"
2021;"2150417";27696.4;"K";"Oui"
2021;"2150438";810.0;"K";"Non"
2021;"2150443";16285.0;"K";"Non"
2021;"2150448";10.0;"K";"Non"
2021;"2150451";1122.0;"L";"Non"
2021;"2150456";524.8;"K";"Non"
2021;"2150479";28420.3;"L";"Non"
2021;"2150481";78359.0;"K";"Non"
2021;"2150483";2338856.1;"K";"Non"
2021;"2150484";12153.9;"L";"Non"
2021;"2150489";525.0;"L";"Non"
2021;"2150571";9817.1;"K";"Non"
2021;"2150572";1945.0;"K";"Non"
2021;"2150573";250.0;"K";"Non"
2021;"2150574";7.0;"K";"Non"
2021;"2150577";1482.0;"L";"Non"
2021;"2150626";7910.0;"L";"Non"
2021;"2150641";73.0;"K";"Non"
2021;"2150642";35.0;"K";"Non"
2021;"2150646";462.0;"L";"Non"
2021;"2150699";3325.0;"L";"Non"
2021;"2150742";535.0;"L";"Non"
2021;"2150747";1111.5;"K";"Non"
2021;"2150750";430.0;"L";"Non"
2021;"2150752";88260.0;"L";"Non"
2021;"2150753";11450.0;"L";"Non"
2021;"2150755";4515.0;"L";"Non"
2021;"2150757";36493.5;"L";"Non"
2021;"2150758";320.0;"L";"Non"
2021;"2150763";435.0;"L";"Non"
2021;"2150766";2.0;"K";"Non"
2021;"2150768";843.0;"K";"Non"
2021;"2150783";7.0;"L";"Non"
2021;"2150785";142889.9;"L";"Non"
2021;"2150789";1472.4;"K";"Oui"
2021;"2150790";560566.6;"K";"Oui"
2021;"2150792";4300.0;"K";"Non"
2021;"2150845";235.0;"L";"Non"
2021;"2150847";13.0;"K";"Non"
2021;"2150855";45044.0;"L";"Non"
2021;"2150870";5508.0;"L";"Non"
2021;"2150889";11.5;"K";"Non"
2021;"2150891";2230.0;"L";"Non"
2021;"2150893";690.0;"K";"Non"
2021;"2150899";150.0;"L";"Non"
2021;"2150914";111030.0;"K";"Non"
2021;"2150918";19166.0;"L";"Non"
2021;"2150919";1334.0;"L";"Non"
2021;"2150921";1845.0;"L";"Non"
2021;"2150944";71947.8;"K";"Non"
2021;"2150964";3258472.9;"K";"Non"
2021;"2150968";114924.6;"K";"Non"
2021;"2150969";137705.9;"K";"Oui"
2021;"2150973";72575.0;"K";"Non"
2021;"2150981";14.3;"L";"Non"
2021;"2150991";179.0;"K";"Non"
2021;"2159993";14.1;"K";"Non"
2021;"2159995";38.0;"L";"Non"
2021;"2159998";28.2;"K";"Non"
2021;"2160005";354.0;"L";"Non"
2021;"2160008";17528.0;"L";"Non"
2021;"2160016";38227.8;"K";"Non"
2021;"2160046";1365.0;"K";"Non"
2021;"2160047";581.0;"L";"Non"
2021;"2160051";26.0;"L";"Non"
2021;"2160056";5.0;"L";"Non"
2021;"2160064";80427.6;"L";"Non"
2021;"2160071";214.0;"L";"Non"
2021;"2160072";280.0;"K";"Non"
2021;"2160106";2140.0;"L";"Non"
2021;"2160114";8526.8;"L";"Non"
2021;"2160115";1155647.0;"L";"Oui"
2021;"2160120";1277.0;"K";"Non"
2021;"2160127";10.1;"L";"Non"
2021;"2160128";25.0;"L";"Non"
2021;"2160129";7450.0;"L";"Non"
2021;"2160131";1790.0;"L";"Non"
2021;"2160133";2280.0;"L";"Non"
2021;"2160160";7629.9;"L";"Non"
2021;"2160177";5141.0;"L";"Non"
2021;"2160178";3300.0;"L";"Non"
2021;"2160198";13449.4;"L";"Non"
2021;"2160199";1370.0;"L";"Non"
2021;"2160200";48080.0;"L";"Non"
2021;"2160208";126139.0;"L";"Non"
2021;"2160226";1548190.5;"K";"Non"
2021;"2160229";35.0;"L";"Non"
2021;"2160230";246.0;"L";"Non"
2021;"2160248";60214.3;"L";"Non"
2021;"2160260";216337.3;"L";"Non"
2021;"2160262";60.0;"L";"Non"
2021;"2160263";6213.8;"L";"Non"
2021;"2160268";84.0;"K";"Non"
2021;"2160272";668.2;"L";"Non"
2021;"2160278";6339.1;"K";"Non"
2021;"2160292";19764.0;"K";"Non"
2021;"2160296";320.0;"K";"Non"
2021;"2160297";3260.5;"L";"Non"
2021;"2160312";8420.0;"L";"Non"
2021;"2160321";4.2;"L";"Non"
2021;"2160324";50.0;"L";"Non"
2021;"2160326";4085.0;"L";"Non"
2021;"2160343";6438.0;"L";"Non"
2021;"2160374";47909.0;"L";"Non"
2021;"2160375";82.0;"L";"Non"
2021;"2160383";867.8;"K";"Non"
2021;"2160384";53561.0;"L";"Non"
2021;"2160387";147745.5;"L";"Non"
2021;"2160390";1087.3;"K";"Non"
2021;"2160392";5.0;"L";"Non"
2021;"2160393";20.0;"L";"Non"
2021;"2160395";62027.8;"L";"Non"
2021;"2160397";2011.0;"L";"Non"
2021;"2160400";2610.0;"L";"Non"
2021;"2160401";240.0;"L";"Non"
2021;"2160402";1340.0;"L";"Non"
2021;"2160403";28.0;"L";"Non"
2021;"2160404";146.0;"L";"Non"
2021;"2160407";94896.8;"L";"Non"
2021;"2160408";97145.0;"L";"Non"
2021;"2160409";6211.2;"K";"Non"
2021;"2160413";1050.0;"K";"Non"
2021;"2160417";9729.0;"K";"Non"
2021;"2160421";148.0;"L";"Non"
2021;"2160423";13205.2;"K";"Non"
2021;"2160433";200.0;"K";"Non"
2021;"2160454";2220.0;"K";"Non"
2021;"2160456";44.5;"K";"Non"
2021;"2160475";589581.1;"K";"Non"
2021;"2160477";3326.0;"L";"Non"
2021;"2160479";120299.8;"L";"Non"
2021;"2160484";46278.5;"L";"Non"
2021;"2160487";456.0;"L";"Non"
2021;"2160492";180.0;"K";"Non"
2021;"2160494";1330.0;"K";"Non"
2021;"2160508";87.0;"L";"Non"
2021;"2160512";8520.0;"K";"Non"
2021;"2160515";252.0;"K";"Non"
2021;"2160527";49275.7;"L";"Non"
2021;"2160548";9.0;"L";"Non"
2021;"2160549";791.0;"K";"Non"
2021;"2160555";22338.8;"K";"Non"
2021;"2160556";8968.2;"L";"Non"
2021;"2160608";2298.5;"L";"Non"
2021;"2160615";24815.5;"K";"Oui"
2021;"2160617";281588.2;"L";"Non"
2021;"2160659";525.0;"K";"Non"
2021;"2160660";556.2;"K";"Non"
2021;"2160662";6505.0;"L";"Non"
2021;"2160664";7740.0;"K";"Non"
2021;"2160686";6286.5;"K";"Non"
2021;"2160693";130722.9;"L";"Non"
2021;"2160694";3328.0;"K";"Non"
2021;"2160702";55.0;"L";"Non"
2021;"2160704";710.0;"K";"Non"
2021;"2160705";48099.0;"K";"Non"
2021;"2160706";28.4;"L";"Non"
2021;"2160710";10335.0;"L";"Non"
2021;"2160711";70.0;"K";"Non"
2021;"2160713";3382.0;"L";"Non"
2021;"2160718";994.5;"K";"Non"
2021;"2160723";21.5;"L";"Non"
2021;"2160724";124034.8;"L";"Non"
2021;"2160726";147244.2;"L";"Non"
2021;"2160727";11401.5;"K";"Non"
2021;"2160730";1023.6;"L";"Non"
2021;"2160739";17465.5;"L";"Non"
2021;"2160749";39420.0;"L";"Non"
2021;"2160752";20150.4;"L";"Non"
2021;"2160754";840.0;"L";"Non"
2021;"2160756";53028.0;"L";"Non"
2021;"2160764";5545.0;"L";"Non"
2021;"2160781";111094.6;"L";"Non"
2021;"2160783";5348.0;"L";"Non"
2021;"2160792";23085.0;"K";"Non"
2021;"2160802";22095.0;"L";"Non"
2021;"2160814";1581.4;"L";"Non"
2021;"2160816";11880.0;"L";"Non"
2021;"2160817";20652.8;"L";"Non"
2021;"2160818";405448.8;"L";"Non"
2021;"2160821";3190.0;"K";"Non"
2021;"2160824";1260.0;"K";"Non"
2021;"2160826";180.0;"L";"Non"
2021;"2160829";295.0;"K";"Non"
2021;"2160830";3248.8;"L";"Non"
2021;"2160836";137.4;"L";"Non"
2021;"2160839";18115.1;"L";"Non"
2021;"2160841";9362.1;"K";"Non"
2021;"2160842";10982.0;"K";"Non"
2021;"2160860";38232.3;"L";"Non"
2021;"2160900";4145.0;"L";"Non"
2021;"2160901";124.0;"K";"Non"
2021;"2160904";2120.0;"L";"Non"
2021;"2160913";520.0;"L";"Non"
2021;"2160917";15432.0;"L";"Non"
2021;"2160920";191688.2;"L";"Non"
2021;"2160929";897.1;"K";"Non"
2021;"2160931";890033.1;"L";"Non"
2021;"2160933";50.0;"K";"Non"
2021;"2160935";555.4;"K";"Non"
2021;"2160936";71854.6;"L";"Non"
2021;"2160937";166613.0;"L";"Non"
2021;"2160944";160.0;"L";"Non"
2021;"2160950";9970.3;"K";"Non"
2021;"2160951";234.0;"L";"Non"
2021;"2160953";38665.0;"L";"Non"
2021;"2160954";10.0;"L";"Non"
2021;"2160958";72792.0;"K";"Non"
2021;"2160959";439862.8;"L";"Non"
2021;"2160960";70.0;"L";"Non"
2021;"2160962";24605.8;"L";"Non"
2021;"2160963";10645.4;"L";"Non"
2021;"2160965";830.0;"L";"Non"
2021;"2160967";42006.2;"L";"Non"
2021;"2160970";582.0;"L";"Non"
2021;"2160971";10.0;"L";"Non"
2021;"2160973";100.0;"K";"Non"
2021;"2160976";146.8;"K";"Non"
2021;"2160983";204.0;"K";"Non"
2021;"2160984";1160.0;"L";"Non"
2021;"2160985";89130.0;"L";"Non"
2021;"2160996";11335.0;"L";"Non"
2021;"2161016";46882.1;"L";"Non"
2021;"2161035";41.3;"K";"Non"
2021;"2161067";14.7;"K";"Non"
2021;"2161068";6390.0;"L";"Non"
2021;"2161069";849.0;"L";"Non"
2021;"2161080";9870.1;"L";"Non"
2021;"2161082";177.0;"K";"Non"
2021;"2161083";7685.0;"L";"Non"
2021;"2161093";2505.0;"L";"Non"
2021;"2161101";427588.4;"L";"Non"
2021;"2161105";290.0;"L";"Non"
2021;"2169997";210.0;"L";"Non"
2021;"2169998";121.6;"K";"Non"
2021;"2169999";8225.8;"L";"Non"
2021;"2170031";85105.0;"L";"Non"
2021;"2170032";20047.0;"L";"Non"
2021;"2170035";1936.4;"K";"Non"
2021;"2170042";112735.0;"L";"Non"
2021;"2170055";4524.0;"L";"Non"
2021;"2170059";645.0;"K";"Non"
2021;"2170064";5.0;"L";"Non"
2021;"2170085";273904.7;"L";"Non"
2021;"2170089";572.0;"L";"Non"
2021;"2170110";63380.0;"L";"Non"
2021;"2170134";1660.0;"K";"Non"
2021;"2170139";2237.8;"L";"Non"
2021;"2170145";521.0;"L";"Non"
2021;"2170146";26114.0;"L";"Non"
2021;"2170149";6548.0;"L";"Non"
2021;"2170151";748.0;"L";"Non"
2021;"2170158";151010.9;"L";"Non"
2021;"2170166";33.0;"K";"Non"
2021;"2170167";79.8;"K";"Non"
2021;"2170197";1505.0;"L";"Non"
2021;"2170200";650.0;"L";"Non"
2021;"2170208";75774.6;"K";"Non"
2021;"2170216";8894.7;"K";"Non"
2021;"2170224";3360.0;"L";"Non"
2021;"2170225";0.9;"K";"Non"
2021;"2170227";1585.0;"L";"Non"
2021;"2170228";14355.0;"L";"Non"
2021;"2170230";927.9;"L";"Non"
2021;"2170232";9490.0;"L";"Non"
2021;"2170236";5557.2;"K";"Non"
2021;"2170237";5786.7;"K";"Non"
2021;"2170238";1309.5;"K";"Non"
2021;"2170243";254039.7;"L";"Oui"
2021;"2170263";32948.5;"L";"Non"
2021;"2170314";975.0;"L";"Non"
2021;"2170315";20.0;"L";"Non"
2021;"2170321";73664.0;"L";"Non"
2021;"2170323";5.5;"K";"Non"
2021;"2170332";20035.3;"L";"Non"
2021;"2170335";173.7;"L";"Non"
2021;"2170354";4115.0;"L";"Non"
2021;"2170355";73336.4;"L";"Oui"
2021;"2170358";1740.0;"K";"Non"
2021;"2170360";885.0;"L";"Non"
2021;"2170362";3305.0;"L";"Non"
2021;"2170381";483757.6;"L";"Non"
2021;"2170392";6975.4;"K";"Non"
2021;"2170395";1060.0;"L";"Non"
2021;"2170403";105.0;"L";"Non"
2021;"2170410";1731.0;"L";"Non"
2021;"2170412";71495.4;"L";"Non"
2021;"2170421";37494.0;"L";"Non"
2021;"2170422";45.0;"L";"Non"
2021;"2170423";15639.7;"L";"Non"
2021;"2170424";17154.0;"L";"Non"
2021;"2170425";2050.0;"L";"Non"
2021;"2170428";3273.5;"K";"Non"
2021;"2170429";364951.9;"L";"Non"
2021;"2170430";12.4;"L";"Non"
2021;"2170434";5593.6;"K";"Non"
2021;"2170435";109.2;"K";"Non"
2021;"2170437";3590.7;"L";"Non"
2021;"2170455";5252.1;"L";"Non"
2021;"2170457";110850.2;"L";"Non"
2021;"2170458";144516.8;"K";"Non"
2021;"2170459";19044.3;"L";"Non"
2021;"2170462";26905.0;"L";"Non"
2021;"2170464";48600.0;"L";"Non"
2021;"2170498";2319.0;"K";"Non"
2021;"2170501";1035.0;"K";"Non"
2021;"2170510";3.0;"K";"Non"
2021;"2170524";3633.0;"K";"Non"
2021;"2170547";1855.4;"K";"Non"
2021;"2170576";2710.0;"L";"Non"
2021;"2170579";1.5;"K";"Non"
2021;"2170586";1.0;"L";"Non"
2021;"2170592";200.0;"K";"Non"
2021;"2170650";8417.9;"K";"Non"
2021;"2170654";5577.7;"K";"Non"
2021;"2170684";20280.0;"L";"Non"
2021;"2170685";75215.1;"L";"Oui"
2021;"2170686";5792.5;"L";"Non"
2021;"2170691";57151.0;"L";"Non"
2021;"2170697";1687.9;"K";"Non"
2021;"2170698";19861.8;"K";"Non"
2021;"2170700";42570.2;"L";"Non"
2021;"2170702";4224.0;"K";"Non"
2021;"2170711";1188.3;"K";"Non"
2021;"2170712";13984.0;"L";"Non"
2021;"2170713";472.0;"L";"Non"
2021;"2170714";160.0;"K";"Non"
2021;"2170720";582.0;"L";"Non"
2021;"2170721";50.0;"L";"Non"
2021;"2170724";815.0;"L";"Non"
2021;"2170725";21.0;"L";"Non"
2021;"2170742";117.0;"K";"Non"
2021;"2170747";5.0;"L";"Non"
2021;"2170748";4190.0;"L";"Non"
2021;"2170752";12374.1;"L";"Non"
2021;"2170757";415705.0;"L";"Non"
2021;"2170769";530.0;"L";"Non"
2021;"2170773";6660.0;"L";"Non"
2021;"2170774";2790.0;"L";"Non"
2021;"2170780";256.0;"K";"Non"
2021;"2170785";466.2;"K";"Non"
2021;"2170795";171.0;"K";"Non"
2021;"2170796";510.0;"L";"Non"
2021;"2170803";11173.0;"L";"Non"
2021;"2170807";1690.0;"L";"Non"
2021;"2170808";35.0;"L";"Non"
2021;"2170810";6680.0;"L";"Non"
2021;"2170821";30.2;"K";"Non"
2021;"2170823";60.0;"L";"Non"
2021;"2170826";1045.0;"L";"Non"
2021;"2170827";1926.0;"L";"Non"
2021;"2170830";5700.0;"L";"Non"
2021;"2170831";20.0;"K";"Non"
2021;"2170835";1219.0;"L";"Non"
2021;"2170836";318.0;"L";"Non"
2021;"2170837";4.0;"K";"Non"
2021;"2170839";18201.0;"L";"Non"
2021;"2170840";1195.0;"L";"Non"
2021;"2170843";2608.0;"L";"Non"
2021;"2170844";5120.0;"L";"Non"
2021;"2170853";815.0;"L";"Non"
2021;"2170854";171666.8;"L";"Non"
2021;"2170857";9663.0;"K";"Non"
2021;"2170858";7220.0;"L";"Non"
2021;"2170871";340.0;"L";"Non"
2021;"2170880";93.0;"L";"Non"
2021;"2170893";413.0;"L";"Non"
2021;"2170898";560.0;"L";"Non"
2021;"2170900";9120.0;"L";"Non"
2021;"2170907";340.0;"L";"Non"
2021;"2170911";170.0;"L";"Non"
2021;"2170913";933.0;"L";"Non"
2021;"2170914";1.0;"L";"Non"
2021;"2170917";1378.4;"L";"Non"
2021;"2170923";19387.3;"L";"Non"
2021;"2170927";885.0;"L";"Non"
2021;"2170932";170.5;"L";"Oui"
2021;"2170933";92797.4;"K";"Non"
2021;"2170960";3666.6;"K";"Non"
2021;"2170977";73361.1;"L";"Oui"
2021;"2170978";74581.8;"L";"Oui"
2021;"2170979";26059.4;"K";"Non"
2021;"2170992";6181.8;"L";"Non"
2021;"2170997";18273.5;"K";"Non"
2021;"2171002";3987.0;"K";"Non"
2021;"2171010";10342.2;"L";"Non"
2021;"2171025";2523.0;"L";"Non"
2021;"2171035";82310.7;"L";"Non"
2021;"2171049";3320.0;"L";"Non"
2021;"2171054";331548.7;"L";"Non"
2021;"2171058";2286.6;"L";"Non"
2021;"2171066";45334.5;"L";"Non"
2021;"2171067";155599.8;"L";"Oui"
2021;"2171073";2652.7;"K";"Non"
2021;"2171086";1223.0;"L";"Non"
2021;"2171087";20.0;"L";"Non"
2021;"2171089";45312.0;"K";"Non"
2021;"2171111";123055.3;"L";"Non"
2021;"2171119";52925.2;"K";"Non"
2021;"2171123";13254.1;"L";"Non"
2021;"2171124";652.9;"K";"Non"
2021;"2171126";2211.2;"K";"Non"
2021;"2171134";40318.5;"L";"Non"
2021;"2171140";31645.0;"K";"Non"
2021;"2171141";254994.9;"L";"Non"
2021;"2171155";25.8;"K";"Non"
2021;"2171174";4386.0;"L";"Non"
2021;"2171178";3200.0;"L";"Non"
2021;"2171179";5440.0;"L";"Non"
2021;"2171182";670.0;"L";"Non"
2021;"2171193";5140.0;"L";"Non"
2021;"2171195";63630.0;"K";"Non"
2021;"2171200";141997.9;"K";"Non"
2021;"2171204";4276.8;"K";"Non"
2021;"2171223";543.0;"L";"Non"
2021;"2171228";9675.0;"L";"Non"
2021;"2171233";935.0;"L";"Non"
2021;"2171235";900.0;"L";"Non"
2021;"2171236";10580.0;"L";"Non"
2021;"2171243";16636.0;"K";"Non"
2021;"2171248";427.8;"K";"Non"
2021;"2171250";2927.1;"L";"Oui"
2021;"2171251";143.0;"K";"Non"
2021;"2171253";7054.5;"L";"Non"
2021;"2171258";55.2;"K";"Non"
2021;"2171306";2787.0;"L";"Non"
2021;"2171307";2359.0;"K";"Non"
2021;"2171312";2510.0;"L";"Oui"
2021;"2171317";21745.6;"L";"Non"
2021;"2179999";5689.0;"L";"Non"
2021;"2180001";13328.0;"L";"Non"
2021;"2180009";18998.4;"K";"Non"
2021;"2180029";998.0;"L";"Non"
2021;"2180035";5187.0;"K";"Non"
2021;"2180039";4263.0;"L";"Non"
2021;"2180043";170.0;"L";"Non"
2021;"2180047";40.0;"L";"Non"
2021;"2180055";755.0;"L";"Non"
2021;"2180058";1536.1;"K";"Non"
2021;"2180088";83057.6;"L";"Non"
2021;"2180094";2900.0;"L";"Non"
2021;"2180120";5.0;"K";"Non"
2021;"2180122";10887.0;"K";"Non"
2021;"2180123";2008.2;"L";"Non"
2021;"2180124";75816.9;"L";"Non"
2021;"2180127";763.0;"L";"Non"
2021;"2180147";57593.0;"K";"Non"
2021;"2180165";16676.0;"L";"Non"
2021;"2180189";24122.5;"K";"Non"
2021;"2180196";51330.0;"L";"Non"
2021;"2180198";1750.0;"L";"Non"
2021;"2180226";1643.0;"L";"Non"
2021;"2180233";51928.9;"L";"Non"
2021;"2180241";331.0;"L";"Non"
2021;"2180244";8326.7;"L";"Oui"
2021;"2180245";3472.0;"L";"Non"
2021;"2180246";7220.0;"K";"Non"
2021;"2180252";6.0;"L";"Oui"
2021;"2180256";236073.5;"K";"Oui"
2021;"2180257";5.8;"K";"Non"
2021;"2180260";1164262.0;"K";"Non"
2021;"2180265";10.0;"L";"Non"
2021;"2180275";634.7;"K";"Oui"
2021;"2180283";10003.2;"K";"Oui"
2021;"2180289";47.2;"L";"Oui"
2021;"2180309";1587.8;"L";"Non"
2021;"2180318";1490.0;"L";"Non"
2021;"2180319";46660.6;"L";"Oui"
2021;"2180334";2993.5;"L";"Non"
2021;"2180335";1181.3;"L";"Non"
2021;"2180337";11472.0;"K";"Non"
2021;"2180355";2480.0;"K";"Non"
2021;"2180369";10018.0;"L";"Non"
2021;"2180375";4800.0;"L";"Non"
2021;"2180379";21703.1;"L";"Non"
2021;"2180380";39362.4;"L";"Non"
2021;"2180382";1.0;"L";"Non"
2021;"2180383";5225.0;"L";"Non"
2021;"2180385";660.0;"L";"Non"
2021;"2180396";456.0;"L";"Non"
2021;"2180401";3295.0;"L";"Non"
2021;"2180404";120973.6;"L";"Non"
2021;"2180408";2885.0;"L";"Oui"
2021;"2180428";187.0;"L";"Non"
2021;"2180436";358.3;"L";"Non"
2021;"2180441";11310.0;"L";"Non"
2021;"2180460";34820.0;"K";"Non"
2021;"2180461";66382.2;"K";"Non"
2021;"2180462";125178.4;"K";"Non"
2021;"2180463";424230.0;"K";"Non"
2021;"2180474";28440.0;"L";"Non"
2021;"2180549";95.1;"K";"Non"
2021;"2180581";5358.0;"L";"Non"
2021;"2180593";18445.5;"L";"Non"
2021;"2180598";12291.5;"L";"Non"
2021;"2180619";143145.3;"L";"Non"
2021;"2180625";49.0;"L";"Non"
2021;"2180631";5.0;"L";"Non"
2021;"2180633";63185.0;"L";"Non"
2021;"2180635";36.0;"K";"Non"
2021;"2180651";6046.8;"K";"Non"
2021;"2180662";3468.0;"L";"Non"
2021;"2180670";48770.0;"K";"Non"
2021;"2180672";26549.0;"L";"Non"
2021;"2180685";5.5;"K";"Non"
2021;"2180688";152.0;"L";"Non"
2021;"2180689";90.0;"L";"Non"
2021;"2180690";7775.0;"L";"Non"
2021;"2180692";10320.0;"L";"Non"
2021;"2180694";2080.0;"L";"Non"
2021;"2180703";19278.7;"L";"Non"
2021;"2180712";10040.0;"L";"Non"
2021;"2180714";11690.4;"L";"Non"
2021;"2180720";19460.2;"L";"Non"
2021;"2180730";3591.3;"L";"Non"
2021;"2180735";5222.0;"L";"Non"
2021;"2180751";266.0;"L";"Non"
2021;"2180756";4452.5;"K";"Non"
2021;"2180766";337.0;"L";"Non"
2021;"2180807";377270.0;"L";"Non"
2021;"2180829";75230.1;"L";"Non"
2021;"2180834";8070.0;"K";"Non"
2021;"2180858";1498.9;"K";"Oui"
2021;"2180864";92836.9;"L";"Non"
2021;"2180865";1933.7;"L";"Non"
2021;"2180882";125.0;"L";"Non"
2021;"2180884";6845.0;"L";"Non"
2021;"2180888";14468.4;"L";"Oui"
2021;"2180901";17220.0;"K";"Non"
2021;"2189993";48265.0;"K";"Oui"
2021;"2189994";14020.0;"K";"Oui"
2021;"2189996";13661.9;"L";"Non"
2021;"2189997";5895.0;"K";"Non"
2021;"2189998";108.0;"K";"Non"
2021;"2190010";11697.5;"K";"Non"
2021;"2190016";300048.6;"L";"Non"
2021;"2190019";220.0;"L";"Non"
2021;"2190025";256.0;"K";"Non"
2021;"2190040";111327.1;"L";"Non"
2021;"2190041";32026.3;"L";"Non"
2021;"2190047";13265.1;"L";"Non"
2021;"2190053";8720.0;"L";"Non"
2021;"2190054";32015.0;"L";"Non"
2021;"2190062";111274.6;"L";"Non"
2021;"2190065";235268.0;"L";"Non"
2021;"2190066";160817.9;"K";"Oui"
2021;"2190080";3.7;"L";"Non"
2021;"2190088";7127.7;"L";"Oui"
2021;"2190097";267157.8;"L";"Non"
2021;"2190105";2250.0;"L";"Non"
2021;"2190108";35.0;"L";"Non"
2021;"2190129";1450.0;"L";"Non"
2021;"2190130";1230.0;"L";"Non"
2021;"2190146";342.7;"K";"Non"
2021;"2190148";3778.2;"L";"Non"
2021;"2190149";54110.9;"L";"Non"
2021;"2190160";805.0;"L";"Non"
2021;"2190162";29.0;"L";"Non"
2021;"2190173";2515856.0;"K";"Non"
2021;"2190190";25953.0;"L";"Oui"
2021;"2190198";342574.0;"L";"Non"
2021;"2190206";3815.0;"L";"Non"
2021;"2190214";628144.5;"L";"Non"
2021;"2190215";3309.0;"L";"Non"
2021;"2190243";631.0;"L";"Non"
2021;"2190246";233950.9;"L";"Non"
2021;"2190247";34.4;"L";"Non"
2021;"2190254";5112.0;"L";"Non"
2021;"2190259";20.0;"L";"Non"
2021;"2190265";18605.0;"K";"Non"
2021;"2190266";1305.0;"K";"Non"
2021;"2190268";14009.3;"L";"Non"
2021;"2190303";66.0;"L";"Non"
2021;"2190304";2710.0;"L";"Non"
2021;"2190306";1034.0;"L";"Non"
2021;"2190307";880.0;"L";"Non"
2021;"2190311";42991.9;"L";"Non"
2021;"2190312";149.0;"L";"Non"
2021;"2190319";163458.9;"L";"Oui"
2021;"2190321";93511.0;"L";"Non"
2021;"2190328";4255.0;"L";"Non"
2021;"2190331";100.0;"L";"Non"
2021;"2190332";34.0;"K";"Non"
2021;"2190333";2680.0;"L";"Non"
2021;"2190334";2978.0;"L";"Non"
2021;"2190346";1017.3;"K";"Oui"
2021;"2190395";19761.2;"L";"Non"
2021;"2190441";4169.0;"L";"Non"
2021;"2190451";45.0;"L";"Non"
2021;"2190453";273.0;"L";"Non"
2021;"2190454";386.0;"L";"Non"
2021;"2190457";99.4;"K";"Non"
2021;"2190461";1440.0;"L";"Non"
2021;"2190463";70.0;"L";"Non"
2021;"2190467";3265.0;"L";"Non"
2021;"2190468";3653.1;"K";"Non"
2021;"2190483";1820.0;"L";"Non"
2021;"2190484";1580.0;"L";"Non"
2021;"2190485";2595.0;"L";"Non"
2021;"2190486";3495.0;"L";"Non"
2021;"2190488";1831.0;"L";"Non"
2021;"2190499";212722.5;"L";"Non"
2021;"2190509";196613.7;"L";"Non"
2021;"2190537";116799.6;"K";"Non"
2021;"2190538";6840.5;"L";"Non"
2021;"2190546";1385.0;"L";"Non"
2021;"2190548";13320.0;"L";"Non"
2021;"2190549";235.2;"K";"Non"
2021;"2190559";29886.1;"L";"Non"
2021;"2190561";577.1;"K";"Non"
2021;"2190565";156.0;"K";"Non"
2021;"2190567";12210.0;"L";"Non"
2021;"2190572";1195.0;"L";"Non"
2021;"2190591";16760.8;"L";"Non"
2021;"2190607";54083.5;"L";"Non"
2021;"2190608";30496.6;"L";"Non"
2021;"2190621";23825.7;"L";"Non"
2021;"2190632";13012.0;"K";"Non"
2021;"2190634";170788.2;"L";"Non"
2021;"2190635";22357.0;"L";"Non"
2021;"2190639";193333.6;"L";"Non"
2021;"2190652";16225.0;"K";"Non"
2021;"2190659";42.0;"L";"Non"
2021;"2190673";126.0;"K";"Non"
2021;"2190686";900313.7;"L";"Non"
2021;"2190687";883.2;"K";"Non"
2021;"2190689";450.0;"L";"Non"
2021;"2190717";386.0;"L";"Non"
2021;"2190722";258332.8;"L";"Non"
2021;"2190730";52740.0;"L";"Non"
2021;"2190738";3445.0;"K";"Non"
2021;"2190742";50.0;"L";"Non"
2021;"2190760";70028.4;"K";"Oui"
2021;"2190779";3895.0;"L";"Non"
2021;"2190808";66965.6;"L";"Oui"
2021;"2190811";68704.4;"L";"Oui"
2021;"2190855";11522.0;"L";"Non"
2021;"2190858";1060.0;"K";"Non"
2021;"2190863";215.0;"L";"Non"
2021;"2190870";5000.0;"L";"Non"
2021;"2190874";13310.9;"L";"Oui"
2021;"2190882";9846.2;"L";"Non"
2021;"2190883";65007.3;"L";"Non"
2021;"2190893";1909.0;"K";"Non"
2021;"2190907";1275.0;"L";"Non"
2021;"2190916";259.0;"K";"Non"
2021;"2190919";3090.0;"K";"Non"
2021;"2190925";17478.9;"L";"Non"
2021;"2190934";35.0;"L";"Non"
2021;"2190938";283.0;"L";"Non"
2021;"2190939";26290.0;"L";"Non"
2021;"2190954";1067.0;"L";"Non"
2021;"2190961";5800.0;"L";"Non"
2021;"2190963";3208.0;"K";"Non"
2021;"2190964";30310.0;"K";"Non"
2021;"2190966";2.0;"L";"Non"
2021;"2190968";5871.0;"L";"Non"
2021;"2190971";2015.0;"L";"Non"
2021;"2190972";244.0;"K";"Non"
2021;"2199997";10469.0;"L";"Non"
2021;"2199998";3093.0;"L";"Non"
2021;"2200012";446.0;"L";"Non"
2021;"2200015";1990.0;"K";"Non"
2021;"2200017";3870.0;"K";"Non"
2021;"2200019";5809.0;"L";"Non"
2021;"2200038";21880.0;"K";"Non"
2021;"2200048";12.0;"L";"Non"
2021;"2200059";20376.8;"L";"Oui"
2021;"2200061";30.0;"L";"Non"
2021;"2200063";2780.0;"L";"Non"
2021;"2200066";280306.1;"L";"Non"
2021;"2200067";20482.0;"K";"Oui"
2021;"2200068";5126.4;"K";"Oui"
2021;"2200078";501.3;"L";"Non"
2021;"2200101";1751.0;"L";"Non"
2021;"2200103";535.0;"L";"Non"
2021;"2200108";37.0;"L";"Non"
2021;"2200123";185.0;"L";"Non"
2021;"2200132";5161.8;"K";"Non"
2021;"2200140";1010.0;"L";"Non"
2021;"2200142";61.0;"K";"Non"
2021;"2200150";570.0;"K";"Non"
2021;"2200165";9836.0;"L";"Non"
2021;"2200195";2455.0;"K";"Non"
2021;"2200197";68.0;"L";"Non"
2021;"2200215";75827.0;"L";"Non"
2021;"2200241";2010.0;"L";"Non"
2021;"2200258";3935.0;"L";"Non"
2021;"2200272";7465.0;"L";"Non"
2021;"2200273";4248.0;"L";"Non"
2021;"2200274";4917.0;"K";"Non"
2021;"2200275";29.9;"K";"Non"
2021;"2200296";3672.4;"L";"Non"
2021;"2200299";4905.0;"L";"Non"
2021;"2200300";1150.0;"L";"Non"
2021;"2200304";421.0;"L";"Non"
2021;"2200305";730.0;"L";"Non"
2021;"2200310";90.0;"L";"Non"
2021;"2200317";13518.0;"L";"Non"
2021;"2200333";5276.8;"L";"Non"
2021;"2200335";20.0;"L";"Non"
2021;"2200339";1925.0;"L";"Non"
2021;"2200354";1385.0;"K";"Non"
2021;"2200389";3214.6;"K";"Non"
2021;"2200393";3685.0;"L";"Non"
2021;"2200399";21.0;"K";"Non"
2021;"2200451";73.0;"L";"Non"
2021;"2200476";7900.0;"L";"Non"
2021;"2200510";3.0;"K";"Non"
2021;"2200514";1642.0;"L";"Non"
2021;"2200515";10.0;"L";"Non"
2021;"2200518";1175.0;"L";"Non"
2021;"2200519";11235.0;"L";"Non"
2021;"2200521";840.0;"L";"Non"
2021;"2200526";94904.8;"L";"Oui"
2021;"2200532";6955.0;"L";"Non"
2021;"2200588";1250.0;"L";"Non"
2021;"2200589";54493.0;"K";"Non"
2021;"2200591";706.0;"L";"Non"
2021;"2200593";5371.0;"L";"Non"
2021;"2200594";1260.0;"L";"Non"
2021;"2200595";2796.1;"K";"Non"
2021;"2200675";4665.3;"L";"Non"
2021;"2200718";600.0;"L";"Non"
2021;"2200720";3165.0;"L";"Non"
2021;"2200721";450.0;"L";"Non"
2021;"2200724";19285.0;"L";"Non"
2021;"2200736";64.3;"L";"Non"
2021;"2200753";529550.2;"L";"Non"
2021;"2200756";113664.0;"L";"Non"
2021;"2200760";1563.0;"L";"Non"
2021;"2200775";1690.0;"L";"Non"
2021;"2200779";765.0;"K";"Non"
2021;"2200839";44542.2;"L";"Non"
2021;"2200861";51600.0;"K";"Non"
2021;"2200883";4795.0;"L";"Non"
2021;"2200891";2151.5;"L";"Non"
2021;"2200894";2659.0;"L";"Non"
2021;"2200899";89659.5;"L";"Non"
2021;"2200904";660.0;"L";"Non"
2021;"2200905";211.0;"L";"Non"
2021;"2200989";2255.0;"L";"Non"
2021;"2200991";6160.0;"L";"Non"
2021;"2200993";72.0;"L";"Non"
2021;"2201009";2738.0;"L";"Non"
2021;"2201010";1603.0;"L";"Non"
2021;"2209999";534.0;"K";"Non"
2021;"2210008";310.0;"L";"Non"
2021;"2210009";18412.0;"L";"Non"
2021;"2210012";1265.0;"L";"Non"
2021;"2210013";3155.0;"L";"Non"
2021;"2210027";700.0;"L";"Non"
2021;"2210065";1200.0;"L";"Non"
2021;"2210072";178.0;"K";"Non"
2021;"2210073";151.0;"K";"Non"
2021;"2210118";292.0;"L";"Non"
2021;"2210138";72600.1;"L";"Non"
2021;"2210139";4340.0;"L";"Non"
2021;"2210146";3775.0;"L";"Non"
2021;"2210165";860.0;"K";"Non"
2021;"2210166";110.0;"L";"Non"
2021;"2210192";533549.2;"L";"Non"
2021;"2210219";101300.0;"L";"Non"
2021;"2210251";995.0;"L";"Non"
2021;"2210324";8.0;"L";"Non"
2021;"2210452";200.0;"L";"Non"
2021;"2210470";1257.0;"L";"Non"
2021;"2210501";10.0;"L";"Non"
2021;"2210567";3273.6;"L";"Non"
2021;"2210568";788.9;"L";"Non"
2021;"2210699";7421.0;"L";"Non"
2021;"2210797";32.8;"L";"Non"
2021;"2210895";145.7;"L";"Non"
2021;"2219994";865.0;"L";"Non"
2021;"2219996";624.0;"K";"Non"
2021;"2219999";4.6;"L";"Non"
2021;"5000014";1500.0;"K";"Non"
2021;"5100219";1495623.5;"K";"Non"
2021;"5200079";115.7;"K";"Non"
2021;"5500179";19193.0;"L";"Non"
2021;"5900368";4537.0;"K";"Non"
2021;"6000067";50.0;"L";"Non"
2021;"6200015";0.8;"K";"Oui"
2021;"6200075";1103.0;"K";"Non"
2021;"6200445";226825.0;"K";"Non"
2021;"6300001";575.0;"K";"Non"
2021;"6400401";26170.7;"K";"Non"
2021;"6500402";2385.0;"L";"Non"
2021;"6600031";696.0;"K";"Non"
2021;"6600074";10.0;"L";"Oui"
2021;"6600397";15.6;"K";"Oui"
2021;"6600501";7030.0;"L";"Non"
2021;"6700395";800.0;"K";"Non"
2021;"6800258";40.0;"K";"Non"
2021;"6800326";1.1;"K";"Non"
2021;"6800403";256441.0;"K";"Non"
2021;"6900313";5.0;"L";"Non"
2021;"6900376";780.0;"K";"Oui"
2021;"6900486";5383.2;"L";"Oui"
2021;"7000023";20.0;"L";"Non"
2021;"7000102";60.0;"L";"Oui"
2021;"7100280";182622.0;"L";"Non"
2021;"7200313";307461.6;"L";"Non"
2021;"7300221";1590.0;"L";"Non"
2021;"7400057";232.0;"L";"Non"
2021;"7400610";36.1;"L";"Oui"
2021;"7400619";12.7;"K";"Non"
2021;"7400634";41.6;"K";"Non"
2021;"7400636";3.5;"K";"Non"
2021;"7400650";40.0;"L";"Non"
2021;"7400755";30675.0;"K";"Non"
2021;"7400815";6051.5;"L";"Non"
2021;"7500004";58.8;"L";"Oui"
2021;"7500071";180.0;"K";"Non"
2021;"7500540";2.4;"K";"Oui"
2021;"7500569";315.0;"K";"Non"
2021;"7500589";60.0;"K";"Non"
2021;"7500716";387067.0;"K";"Non"
2021;"7600008";18386.8;"L";"Non"
2021;"7600246";28.0;"K";"Non"
2021;"7600310";458045.0;"K";"Non"
2021;"7600557";23315.0;"L";"Non"
2021;"7700030";30.0;"L";"Non"
2021;"7700216";329184.3;"L";"Non"
2021;"7700568";1452.0;"K";"Oui"
2021;"7700703";95384.5;"L";"Non"
2021;"7700706";87691.5;"K";"Non"
2021;"7700741";20.0;"L";"Non"
2021;"7700788";18.9;"K";"Oui"
2021;"7800132";10920.0;"L";"Non"
2021;"7800305";16660.0;"K";"Non"
2021;"7800575";10.0;"L";"Non"
2021;"7900323";1727.0;"L";"Non"
2021;"7900708";91677.7;"L";"Non"
2021;"7900732";95.0;"K";"Non"
2021;"7900753";39634.4;"L";"Non"
2021;"8000084";155971.3;"L";"Non"
2021;"8000144";90.0;"K";"Non"
2021;"8000169";12.0;"K";"Oui"
2021;"8000273";5.6;"K";"Non"
2021;"8000350";75.0;"K";"Non"
2021;"8000624";0.7;"K";"Oui"
2021;"8100006";87.0;"L";"Non"
2021;"8100167";1.5;"L";"Oui"
2021;"8100198";47735.5;"K";"Non"
2021;"8100236";165.7;"K";"Oui"
2021;"8100291";56839.5;"L";"Non"
2021;"8100342";5.2;"L";"Non"
2021;"8100345";13892.4;"K";"Non"
2021;"8100444";22.0;"L";"Non"
2021;"8100462";1492.6;"K";"Non"
2021;"8100472";1908.5;"L";"Non"
2021;"8100548";32.0;"K";"Oui"
2021;"8200024";28490.0;"K";"Non"
2021;"8200044";6.0;"L";"Oui"
2021;"8200124";7460.0;"L";"Non"
2021;"8200488";289.0;"L";"Non"
2021;"8200489";859.0;"L";"Non"
2021;"8200538";11989.2;"L";"Non"
2021;"8200575";766.0;"L";"Non"
2021;"8300025";4935.0;"L";"Non"
2021;"8300063";592953.0;"L";"Non"
2021;"8300214";80.0;"L";"Non"
2021;"8300243";335.0;"L";"Non"
2021;"8300429";469.4;"L";"Non"
2021;"8300488";243355.3;"L";"Non"
2021;"8400032";64.3;"K";"Oui"
2021;"8400096";92869.3;"L";"Non"
2021;"8400098";5.2;"L";"Oui"
2021;"8400255";12631.6;"K";"Non"
2021;"8400364";113.7;"L";"Oui"
2021;"8400425";86327.0;"K";"Non"
2021;"8400475";5.0;"K";"Non"
2021;"8400477";24901.3;"K";"Non"
2021;"8400491";6.0;"L";"Non"
2021;"8400499";50.0;"K";"Non"
2021;"8400520";1232.0;"K";"Non"
2021;"8400521";937.0;"L";"Non"
2021;"8400528";148237.7;"L";"Non"
2021;"8400574";1124094.9;"L";"Non"
2021;"8400579";155.0;"L";"Non"
2021;"8400600";28656.8;"L";"Non"
2021;"8400604";20.0;"L";"Non"
2021;"8500011";2060.0;"L";"Non"
2021;"8500023";2085.0;"K";"Non"
2021;"8500174";4857.5;"L";"Non"
2021;"8500194";278.0;"L";"Non"
2021;"8500198";150.4;"L";"Oui"
2021;"8500216";1.0;"K";"Oui"
2021;"8500321";2562.0;"K";"Non"
2021;"8500347";59.0;"K";"Oui"
2021;"8500351";236.9;"K";"Non"
2021;"8500352";162.6;"K";"Non"
2021;"8500354";70.0;"K";"Non"
2021;"8500408";40.0;"L";"Non"
2021;"8500412";38190.0;"K";"Non"
2021;"8500469";3.0;"K";"Non"
2021;"8500470";1142216.0;"L";"Non"
2021;"8500493";2045.0;"L";"Non"
2021;"8500703";125.0;"K";"Non"
2021;"8600014";1.0;"K";"Oui"
2021;"8600015";13.7;"K";"Oui"
2021;"8600027";155.0;"K";"Non"
2021;"8600028";5.0;"L";"Non"
2021;"8600031";9960.0;"L";"Non"
2021;"8600063";691.7;"K";"Oui"
2021;"8600068";2.0;"L";"Non"
2021;"8600083";135.0;"L";"Non"
2021;"8600183";1.0;"K";"Oui"
2021;"8600232";48295.0;"L";"Non"
2021;"8600243";498787.2;"L";"Non"
2021;"8600244";391.1;"L";"Non"
2021;"8600262";46.2;"K";"Oui"
2021;"8600313";37586.4;"L";"Non"
2021;"8600330";1153.0;"L";"Non"
2021;"8600349";730.5;"K";"Oui"
2021;"8600389";6040.0;"L";"Non"
2021;"8600395";1811.2;"K";"Oui"
2021;"8600525";5.6;"K";"Oui"
2021;"8600526";3.0;"K";"Oui"
2021;"8600622";0.5;"L";"Oui"
2021;"8600664";3000.0;"K";"Non"
2021;"8700002";499467.3;"L";"Non"
2021;"8700012";145.0;"L";"Non"
2021;"8700020";281050.8;"L";"Non"
2021;"8700035";24863.3;"L";"Non"
2021;"8700102";53534.9;"L";"Non"
2021;"8700107";485166.3;"K";"Non"
2021;"8700111";2333.5;"K";"Non"
2021;"8700118";5185.0;"L";"Non"
2021;"8700155";1.6;"K";"Oui"
2021;"8700177";100.0;"K";"Non"
2021;"8700185";3.0;"L";"Oui"
2021;"8700196";9190.0;"L";"Non"
2021;"8700304";4017.0;"K";"Non"
2021;"8700444";10.0;"L";"Non"
2021;"8700449";9750.0;"L";"Non"
2021;"8700458";274.0;"L";"Non"
2021;"8700462";4496999.1;"L";"Non"
2021;"8700472";21.5;"L";"Non"
2021;"8700506";165.8;"L";"Non"
2021;"8700525";253653.7;"K";"Non"
2021;"8700544";13.0;"K";"Oui"
2021;"8700621";98.9;"L";"Non"
2021;"8700638";740.0;"L";"Non"
2021;"8700687";40.0;"L";"Non"
2021;"8700702";2820.0;"K";"Non"
2021;"8700746";1.0;"K";"Non"
2021;"8800001";61.5;"K";"Non"
2021;"8800011";2711.2;"L";"Non"
2021;"8800028";113.5;"L";"Non"
2021;"8800029";702128.3;"L";"Non"
2021;"8800108";6868.2;"L";"Non"
2021;"8800161";650444.2;"L";"Non"
2021;"8800199";94188.9;"L";"Non"
2021;"8800287";10.0;"L";"Oui"
2021;"8800335";29.4;"L";"Oui"
2021;"8800395";344540.3;"L";"Non"
2021;"8800417";13960.0;"L";"Non"
2021;"8800423";218.0;"K";"Non"
2021;"8800469";442.0;"L";"Oui"
2021;"8800488";10.0;"L";"Non"
2021;"8800504";14556.2;"L";"Non"
2021;"8800519";7991.3;"K";"Non"
2021;"8800534";0.1;"K";"Oui"
2021;"8800558";3.7;"K";"Oui"
2021;"8800603";97048.0;"L";"Non"
2021;"8800827";16307.6;"L";"Non"
2021;"8800841";31432.6;"L";"Non"
2021;"8800843";0.4;"K";"Non"
2021;"8800846";0.4;"K";"Oui"
2021;"8800941";58520.0;"K";"Non"
2021;"8820680";102.0;"K";"Oui"
2021;"8900045";8.9;"K";"Oui"
2021;"8900119";9.3;"L";"Oui"
2021;"8900137";7780.0;"L";"Non"
2021;"8900204";74.3;"L";"Non"
2021;"8900261";505.0;"L";"Non"
2021;"8900277";27.3;"L";"Oui"
2021;"8900338";112.5;"K";"Non"
2021;"8900349";1.5;"L";"Oui"
2021;"8900376";190.0;"K";"Non"
2021;"8900564";163914.4;"L";"Non"
2021;"8900618";2.4;"K";"Oui"
2021;"8900619";1.1;"K";"Oui"
2021;"8900620";17185.2;"L";"Non"
2021;"8900677";5441.0;"K";"Non"
2021;"8900681";183282.5;"L";"Non"
2021;"8900685";11357.1;"K";"Non"
2021;"8900700";40140.0;"K";"Oui"
2021;"8920634";6.0;"K";"Oui"
2021;"8920639";505.0;"K";"Oui"
2021;"9000069";90791.5;"L";"Non"
2021;"9000099";0.6;"L";"Oui"
2021;"9000112";821142.0;"L";"Non"
2021;"9000144";52185.0;"L";"Non"
2021;"9000163";1609.5;"K";"Non"
2021;"9000171";6.0;"L";"Oui"
2021;"9000184";707308.7;"L";"Non"
2021;"9000198";280.0;"L";"Non"
2021;"9000222";2952068.4;"L";"Non"
2021;"9000259";3883.9;"K";"Non"
2021;"9000266";5.0;"K";"Non"
2021;"9000277";129230.0;"K";"Non"
2021;"9000282";250314.4;"L";"Non"
2021;"9000359";26.5;"K";"Oui"
2021;"9000360";85.9;"K";"Oui"
2021;"9000361";723.5;"K";"Non"
2021;"9000362";120.0;"K";"Non"
2021;"9000390";5.0;"K";"Non"
2021;"9000440";7.2;"K";"Oui"
2021;"9000450";1520.0;"K";"Non"
2021;"9000451";10.0;"L";"Non"
2021;"9000471";251.0;"L";"Non"
2021;"9000490";471405.6;"L";"Non"
2021;"9000510";1.9;"K";"Non"
2021;"9000594";609.6;"K";"Non"
2021;"9000597";0.8;"L";"Oui"
2021;"9000619";564353.6;"L";"Non"
2021;"9000647";7.0;"L";"Oui"
2021;"9000673";0.4;"K";"Oui"
2021;"9000678";350.0;"L";"Non"
2021;"9000741";110436.8;"L";"Non"
2021;"9000743";1620.0;"L";"Non"
2021;"9000753";904310.8;"K";"Non"
2021;"9000833";173210.7;"L";"Non"
2021;"9020381";140.5;"K";"Non"
2021;"9100034";1184715.6;"L";"Non"
2021;"9100046";32649.3;"L";"Non"
2021;"9100065";165.0;"L";"Non"
2021;"9100071";8.0;"L";"Non"
2021;"9100156";30.0;"L";"Non"
2021;"9100177";8.5;"L";"Oui"
2021;"9100231";586.6;"K";"Oui"
2021;"9100262";1.6;"K";"Oui"
2021;"9100296";720267.3;"L";"Non"
2021;"9100375";6.0;"L";"Oui"
2021;"9100418";90694.9;"L";"Non"
2021;"9100438";1.0;"L";"Non"
2021;"9100482";5.0;"L";"Non"
2021;"9100498";230.5;"K";"Non"
2021;"9100505";101.5;"L";"Non"
2021;"9100525";421.5;"K";"Non"
2021;"9100537";120.0;"L";"Non"
2021;"9100554";321.0;"K";"Non"
2021;"9100557";226.0;"L";"Non"
2021;"9100558";106.5;"K";"Non"
2021;"9100594";260.0;"L";"Non"
2021;"9100636";6871.0;"L";"Non"
2021;"9100637";0.8;"K";"Oui"
2021;"9100645";21911.0;"L";"Non"
2021;"9100650";3002.0;"L";"Oui"
2021;"9100704";11.0;"L";"Oui"
2021;"9100706";42.0;"L";"Oui"
2021;"9120180";1.0;"K";"Oui"
2021;"9120277";2509.0;"K";"Oui"
2021;"9120616";58952.4;"K";"Oui"
2021;"9200020";10.0;"L";"Non"
2021;"9200022";322.6;"L";"Non"
2021;"9200024";2645.0;"L";"Non"
2021;"9200056";109.0;"K";"Non"
2021;"9200058";584.2;"K";"Non"
2021;"9200060";90.9;"K";"Non"
2021;"9200062";542.5;"K";"Non"
2021;"9200073";6543.1;"K";"Non"
2021;"9200078";28508.9;"L";"Non"
2021;"9200086";462.0;"K";"Non"
2021;"9200091";476.2;"L";"Non"
2021;"9200135";91.1;"K";"Oui"
2021;"9200142";20.0;"L";"Non"
2021;"9200145";4.0;"L";"Oui"
2021;"9200159";47565.4;"L";"Non"
2021;"9200193";40.4;"L";"Non"
2021;"9200214";1141026.6;"K";"Non"
2021;"9200215";174927.9;"K";"Non"
2021;"9200235";122000.0;"L";"Non"
2021;"9200248";70.0;"L";"Non"
2021;"9200262";546.3;"L";"Non"
2021;"9200271";201.8;"L";"Oui"
2021;"9200293";20560.0;"L";"Non"
2021;"9200306";411.0;"L";"Non"
2021;"9200313";93.0;"L";"Non"
2021;"9200317";4137.7;"L";"Non"
2021;"9200359";48780.0;"K";"Non"
2021;"9200379";5364.1;"L";"Non"
2021;"9200380";136006.2;"K";"Non"
2021;"9200383";171.0;"K";"Non"
2021;"9200436";283553.6;"L";"Non"
2021;"9200461";900.0;"L";"Non"
2021;"9200482";20541.4;"K";"Non"
2021;"9200493";4370.8;"K";"Non"
2021;"9200494";2378.4;"L";"Non"
2021;"9200532";12704.1;"L";"Non"
2021;"9200548";2426.3;"L";"Non"
2021;"9300005";43449.0;"K";"Non"
2021;"9300020";25.0;"L";"Non"
2021;"9300027";30.2;"L";"Oui"
2021;"9300032";7907.0;"L";"Non"
2021;"9300034";6.0;"L";"Non"
2021;"9300050";45.5;"L";"Oui"
2021;"9300076";40.0;"L";"Non"
2021;"9300093";714.0;"K";"Non"
2021;"9300094";6389.5;"K";"Non"
2021;"9300108";98195.0;"K";"Non"
2021;"9300111";1908.4;"L";"Oui"
2021;"9300143";83316.0;"K";"Non"
2021;"9300145";760.0;"L";"Oui"
2021;"9300186";11040.1;"K";"Non"
2021;"9300189";6138.5;"L";"Non"
2021;"9300229";1.0;"L";"Oui"
2021;"9300241";191.7;"L";"Non"
2021;"9300254";0.2;"L";"Oui"
2021;"9300255";3.8;"L";"Oui"
2021;"9300257";5970.6;"L";"Non"
2021;"9300270";111.3;"L";"Non"
2021;"9300279";48.6;"K";"Non"
2021;"9300284";425.0;"L";"Non"
2021;"9300285";2301.2;"L";"Non"
2021;"9300299";0.4;"L";"Oui"
2021;"9300301";89.4;"L";"Oui"
2021;"9300305";31095.9;"L";"Non"
2021;"9300309";9337.4;"L";"Non"
2021;"9300322";170679.2;"L";"Non"
2021;"9300326";128.6;"K";"Oui"
2021;"9300335";94836.5;"L";"Non"
2021;"9300379";4.4;"K";"Oui"
2021;"9300396";164357.3;"L";"Non"
2021;"9300401";2450.0;"L";"Non"
2021;"9300412";184.2;"K";"Non"
2021;"9300457";10.0;"L";"Oui"
2021;"9300487";414989.8;"L";"Non"
2021;"9300490";3475.0;"K";"Non"
2021;"9300504";1559406.6;"L";"Non"
2021;"9300571";31894.0;"K";"Non"
2021;"9400007";142.0;"L";"Oui"
2021;"9400008";8222.5;"L";"Non"
2021;"9400012";33985.7;"L";"Non"
2021;"9400039";151.0;"L";"Oui"
2021;"9400052";313078.3;"L";"Non"
2021;"9400067";28.0;"K";"Non"
2021;"9400083";8847.0;"L";"Non"
2021;"9400085";120986.3;"L";"Non"
2021;"9400106";166.2;"L";"Oui"
2021;"9400109";26332.8;"K";"Non"
2021;"9400130";15.0;"L";"Non"
2021;"9400134";94.0;"L";"Non"
2021;"9400145";32.0;"L";"Non"
2021;"9400162";21435.0;"L";"Non"
2021;"9400196";714.0;"K";"Non"
2021;"9400202";11301.6;"K";"Non"
2021;"9400208";48.5;"K";"Non"
2021;"9400210";10.0;"K";"Oui"
2021;"9400213";230.0;"L";"Oui"
2021;"9400227";0.2;"L";"Oui"
2021;"9400235";129.0;"L";"Oui"
2021;"9400280";54893.3;"K";"Non"
2021;"9400336";94817.7;"L";"Non"
2021;"9400346";2700.0;"K";"Non"
2021;"9400367";1864.5;"L";"Non"
2021;"9400389";5.0;"L";"Non"
2021;"9400398";11.0;"L";"Non"
2021;"9400456";298.0;"K";"Oui"
2021;"9400460";16128.0;"K";"Non"
2021;"9400462";1079.6;"K";"Non"
2021;"9400463";363345.7;"L";"Non"
2021;"9400483";2090.0;"K";"Non"
2021;"9400484";489.0;"K";"Non"
2021;"9400485";88556.8;"L";"Non"
2021;"9400494";402.0;"L";"Non"
2021;"9400495";9564.0;"L";"Oui"
2021;"9400496";330.0;"L";"Non"
2021;"9400535";2335.0;"L";"Non"
2021;"9400555";92604.0;"L";"Non"
2021;"9400556";0.2;"L";"Non"
2021;"9420113";926.1;"K";"Non"
2021;"9500002";11.0;"L";"Non"
2021;"9500011";5820.0;"L";"Non"
2021;"9500016";2940.0;"L";"Non"
2021;"9500037";17.0;"K";"Oui"
2021;"9500040";133338.6;"L";"Non"
2021;"9500043";190.0;"K";"Non"
2021;"9500088";5.0;"L";"Non"
2021;"9500126";300.0;"L";"Non"
2021;"9500135";858.6;"K";"Oui"
2021;"9500136";1.2;"K";"Non"
2021;"9500140";0.4;"K";"Oui"
2021;"9500143";1.2;"K";"Oui"
2021;"9500147";103188.8;"K";"Oui"
2021;"9500148";6.7;"K";"Non"
2021;"9500150";1285.0;"L";"Non"
2021;"9500152";14523.0;"L";"Non"
2021;"9500158";124.8;"L";"Non"
2021;"9500159";155.0;"L";"Oui"
2021;"9500161";41.8;"L";"Oui"
2021;"9500180";7792.5;"L";"Non"
2021;"9500199";7102.3;"L";"Non"
2021;"9500213";464.8;"L";"Non"
2021;"9500219";12270.0;"L";"Non"
2021;"9500222";5.0;"L";"Non"
2021;"9500223";19003.0;"L";"Non"
2021;"9500227";417.0;"K";"Oui"
2021;"9500229";75.0;"K";"Oui"
2021;"9500234";11137.6;"L";"Non"
2021;"9500269";4550.0;"K";"Oui"
2021;"9500281";19026.5;"K";"Oui"
2021;"9500296";29.9;"K";"Oui"
2021;"9500302";129711.0;"K";"Oui"
2021;"9500321";10565.6;"K";"Non"
2021;"9500323";14216.0;"K";"Non"
2021;"9500326";351.4;"K";"Non"
2021;"9500328";1845.0;"K";"Non"
2021;"9500341";20490.5;"K";"Oui"
2021;"9500347";15.2;"K";"Non"
2021;"9500348";350.0;"K";"Non"
2021;"9500349";15849.5;"L";"Non"
2021;"9500361";50160.9;"K";"Non"
2021;"9500364";37.0;"L";"Oui"
2021;"9500402";0.4;"L";"Non"
2021;"9500404";1.0;"K";"Oui"
2021;"9500414";59.6;"L";"Non"
2021;"9500415";4.1;"K";"Oui"
2021;"9500432";10103.0;"L";"Non"
2021;"9500452";373008.9;"K";"Non"
2021;"9500467";581.2;"K";"Non"
2021;"9500480";2125.0;"K";"Non"
2021;"9500484";196.0;"L";"Oui"
2021;"9500485";769.3;"L";"Oui"
2021;"9500541";610.0;"L";"Non"
2021;"9500562";170.8;"L";"Oui"
2021;"9500568";61722.1;"K";"Non"
2021;"9500581";12011.5;"L";"Non"
2021;"9500595";14815.0;"L";"Non"
2021;"9500628";97312.9;"K";"Non"
2021;"9500629";3357.0;"K";"Non"
2021;"9500642";2620.0;"L";"Non"
2021;"9500645";9968.0;"L";"Non"
2021;"9500649";459117.3;"K";"Non"
2021;"9600001";159618.3;"K";"Non"
2021;"9600016";1.0;"L";"Oui"
2021;"9600022";82.6;"L";"Non"
2021;"9600025";51360.3;"K";"Non"
2021;"9600027";192.0;"L";"Non"
2021;"9600077";1.0;"K";"Non"
2021;"9600091";13.0;"K";"Oui"
2021;"9600093";319908.1;"L";"Non"
2021;"9600096";4.0;"L";"Non"
2021;"9600097";740.7;"L";"Oui"
2021;"9600103";58726.0;"K";"Non"
2021;"9600116";37520.0;"K";"Non"
2021;"9600120";10.0;"K";"Non"
2021;"9600141";15.8;"L";"Oui"
2021;"9600147";0.4;"L";"Non"
2021;"9600191";70.0;"K";"Oui"
2021;"9600195";4390.2;"L";"Non"
2021;"9600196";3600.0;"K";"Non"
2021;"9600197";2299.8;"K";"Non"
2021;"9600199";16435.0;"K";"Non"
2021;"9600229";88423.9;"L";"Non"
2021;"9600232";50.0;"L";"Non"
2021;"9600233";9030.0;"L";"Non"
2021;"9600248";5600.0;"K";"Non"
2021;"9600273";281.0;"L";"Non"
2021;"9600299";1420.0;"K";"Oui"
2021;"9600312";205.0;"L";"Non"
2021;"9600318";4.0;"L";"Oui"
2021;"9600319";7.2;"L";"Oui"
2021;"9600320";59.4;"L";"Oui"
2021;"9600325";3.0;"K";"Oui"
2021;"9600368";21613.2;"K";"Non"
2021;"9600370";349086.3;"L";"Non"
2021;"9600371";69.0;"K";"Non"
2021;"9600377";90.0;"L";"Oui"
2021;"9600386";332.0;"K";"Non"
2021;"9600387";0.2;"K";"Oui"
2021;"9600390";1976564.6;"L";"Non"
2021;"9600395";20298.0;"K";"Non"
2021;"9600398";871.2;"K";"Non"
2021;"9600404";1.1;"L";"Oui"
2021;"9600422";140.0;"L";"Non"
2021;"9600433";48.0;"K";"Non"
2021;"9600434";9336.0;"K";"Non"
2021;"9600474";3.0;"K";"Oui"
2021;"9600488";25.2;"K";"Oui"
2021;"9600510";675.0;"K";"Non"
2021;"9600512";224256.8;"K";"Non"
2021;"9600516";87617.0;"K";"Non"
2021;"9600526";100.1;"K";"Non"
2021;"9600529";0.8;"K";"Non"
2021;"9600538";5.0;"L";"Non"
2021;"9600541";368.9;"K";"Non"
2021;"9600548";10506.0;"L";"Non"
2021;"9600550";2748.0;"L";"Non"
2021;"9700009";25.0;"L";"Non"
2021;"9700027";255.2;"K";"Non"
2021;"9700038";11.1;"L";"Oui"
2021;"9700041";90.0;"K";"Non"
2021;"9700042";1010.0;"L";"Non"
2021;"9700060";4.5;"L";"Non"
2021;"9700065";1.0;"L";"Non"
2021;"9700067";23735.0;"K";"Non"
2021;"9700070";5386.6;"K";"Non"
2021;"9700076";4270.0;"K";"Non"
2021;"9700096";2.2;"L";"Oui"
2021;"9700097";0.4;"K";"Non"
2021;"9700114";63970.0;"K";"Non"
2021;"9700116";475.0;"L";"Non"
2021;"9700118";2.3;"K";"Non"
2021;"9700123";10.0;"K";"Non"
2021;"9700139";2620.0;"L";"Non"
2021;"9700164";80.0;"K";"Non"
2021;"9700214";959.7;"K";"Non"
2021;"9700216";8.5;"L";"Non"
2021;"9700230";0.7;"L";"Oui"
2021;"9700234";23.0;"K";"Oui"
2021;"9700235";25.6;"L";"Oui"
2021;"9700236";40.0;"L";"Non"
2021;"9700259";18.4;"L";"Oui"
2021;"9700278";8344.3;"K";"Non"
2021;"9700282";714.0;"L";"Non"
2021;"9700320";190.0;"L";"Non"
2021;"9700329";4320.0;"L";"Non"
2021;"9700332";45436.8;"L";"Non"
2021;"9700338";80.0;"L";"Non"
2021;"9700343";6615.0;"K";"Non"
2021;"9700350";615.0;"L";"Non"
2021;"9700354";1174.0;"K";"Non"
2021;"9700355";1942.0;"L";"Non"
2021;"9700357";929.5;"L";"Non"
2021;"9700369";5.0;"L";"Non"
2021;"9700392";9.0;"K";"Non"
2021;"9700396";8.0;"L";"Non"
2021;"9700401";218507.3;"K";"Non"
2021;"9700412";20.0;"L";"Non"
2021;"9700420";16.0;"L";"Non"
2021;"9700425";50.0;"L";"Non"
2021;"9700446";650.0;"L";"Non"
2021;"9700448";27300.0;"K";"Non"
2021;"9700449";50.0;"K";"Non"
2021;"9700450";2.8;"L";"Non"
2021;"9700452";2430.0;"K";"Non"
2021;"9700454";780.0;"K";"Non"
2021;"9700463";15755.1;"K";"Non"
2021;"9700468";1.0;"L";"Non"
2021;"9700509";25.0;"K";"Oui"
2021;"9700519";90560.0;"L";"Non"
2021;"9700521";79.0;"L";"Oui"
2021;"9700551";10.0;"K";"Non"
2021;"9700558";226.0;"L";"Non"
2021;"9700578";1050.9;"K";"Non"
2021;"9800018";410765.9;"L";"Non"
2021;"9800028";60.0;"L";"Non"
2021;"9800054";2557.4;"K";"Non"
2021;"9800076";15043.7;"L";"Non"
2021;"9800085";18656.0;"L";"Non"
2021;"9800092";1.0;"L";"Non"
2021;"9800093";115.0;"L";"Non"
2021;"9800096";840645.6;"L";"Non"
2021;"9800098";29048.0;"K";"Non"
2021;"9800100";441804.9;"L";"Non"
2021;"9800106";14862.8;"K";"Non"
2021;"9800107";49.3;"L";"Oui"
2021;"9800120";400.0;"L";"Non"
2021;"9800126";40898.5;"K";"Non"
2021;"9800144";2609.3;"K";"Non"
2021;"9800147";8.3;"L";"Non"
2021;"9800168";765.0;"L";"Non"
2021;"9800181";120.0;"K";"Non"
2021;"9800182";299862.0;"L";"Non"
2021;"9800183";20.0;"K";"Non"
2021;"9800187";5.0;"L";"Non"
2021;"9800193";12.0;"K";"Non"
2021;"9800194";0.1;"L";"Non"
2021;"9800201";26656.4;"L";"Non"
2021;"9800204";50.0;"K";"Non"
2021;"9800207";3843.0;"K";"Non"
2021;"9800210";84183.0;"L";"Non"
2021;"9800211";15.0;"L";"Non"
2021;"9800215";12.0;"K";"Oui"
2021;"9800217";4.2;"K";"Non"
2021;"9800219";23324.0;"L";"Non"
2021;"9800231";3.1;"K";"Oui"
2021;"9800235";1120.0;"L";"Non"
2021;"9800236";7.0;"L";"Non"
2021;"9800238";0.5;"L";"Oui"
2021;"9800244";15764.4;"K";"Non"
2021;"9800245";4734675.3;"K";"Non"
2021;"9800259";236239.0;"L";"Non"
2021;"9800262";1984.7;"K";"Non"
2021;"9800277";8003.1;"L";"Non"
2021;"9800280";241.5;"L";"Non"
2021;"9800289";7378.5;"L";"Non"
2021;"9800294";10420.0;"L";"Non"
2021;"9800304";39675.0;"L";"Non"
2021;"9800307";2.0;"L";"Non"
2021;"9800320";1882.2;"K";"Non"
2021;"9800321";6.0;"L";"Oui"
2021;"9800327";55.0;"L";"Non"
2021;"9800330";56.0;"K";"Non"
2021;"9800334";3.0;"L";"Oui"
2021;"9800336";278834.0;"L";"Non"
2021;"9800337";9550.0;"L";"Non"
2021;"9800342";57.0;"L";"Non"
2021;"9800343";39175.0;"L";"Non"
2021;"9800344";10350.2;"L";"Non"
2021;"9800347";34949.2;"L";"Non"
2021;"9800350";0.5;"L";"Non"
2021;"9800357";1.6;"K";"Oui"
2021;"9800358";14.0;"K";"Oui"
2021;"9800374";396.9;"K";"Non"
2021;"9800392";370.0;"L";"Non"
2021;"9800395";30.0;"K";"Non"
2021;"9800396";217.5;"L";"Oui"
2021;"9800400";195.2;"K";"Non"
2021;"9800401";28.8;"L";"Oui"
2021;"9800402";456.5;"L";"Oui"
2021;"9800414";1255.0;"L";"Non"
2021;"9800415";17.0;"L";"Non"
2021;"9800420";66759.9;"L";"Non"
2021;"9800421";701.7;"L";"Non"
2021;"9800432";55.0;"L";"Oui"
2021;"9800452";75.0;"L";"Non"
2021;"9800453";1635.0;"L";"Non"
2021;"9800458";7795.0;"L";"Non"
2021;"9800466";7349.5;"L";"Non"
2021;"9800474";1615456.2;"K";"Non"
2021;"9800477";15.0;"L";"Non"
2021;"9800481";102887.0;"L";"Non"
2021;"9800483";34.4;"K";"Non"
2021;"9800484";2547.5;"L";"Non"
2021;"9800496";769.0;"L";"Non"
2021;"9800510";1.0;"K";"Oui"
2021;"9800514";383.1;"K";"Non"
2021;"9800524";4.5;"L";"Oui"
2021;"9800528";10.0;"L";"Non"
2021;"9800555";12970.0;"L";"Non"
2021;"9800568";55.0;"L";"Non"
2021;"9800571";269.9;"L";"Non"
2021;"9900009";96.0;"K";"Non"
2021;"9900013";250.0;"K";"Non"
2021;"9900014";286.0;"L";"Non"
2021;"9900037";17167.6;"K";"Non"
2021;"9900047";142517.5;"L";"Non"
2021;"9900081";2240.0;"K";"Non"
2021;"9900087";11710.0;"K";"Non"
2021;"9900092";950.0;"L";"Non"
2021;"9900093";1.0;"L";"Oui"
2021;"9900115";279379.4;"L";"Non"
2021;"9900119";37554.2;"K";"Non"
2021;"9900123";445.7;"K";"Non"
2021;"9900127";5.8;"L";"Oui"
2021;"9900129";1155.0;"L";"Non"
2021;"9900133";16.5;"L";"Non"
2021;"9900134";1.3;"L";"Oui"
2021;"9900137";39.0;"K";"Non"
2021;"9900139";20.0;"K";"Non"
2021;"9900143";0.5;"L";"Oui"
2021;"9900145";4.0;"L";"Oui"
2021;"9900147";31.0;"L";"Non"
2021;"9900154";756.9;"K";"Non"
2021;"9900158";1620.0;"L";"Non"
2021;"9900189";75850.7;"K";"Non"
2021;"9900191";5.0;"L";"Non"
2021;"9900202";8733.3;"K";"Non"
2021;"9900203";20.0;"L";"Non"
2021;"9900206";974.0;"L";"Non"
2021;"9900227";364676.7;"L";"Non"
2021;"9900232";43.0;"L";"Oui"
2021;"9900242";118936.0;"K";"Non"
2021;"9900251";748755.9;"L";"Non"
2021;"9900257";209563.6;"K";"Oui"
2021;"9900262";222.7;"K";"Non"
2021;"9900275";416.0;"L";"Non"
2021;"9900282";259.5;"L";"Oui"
2021;"9900289";73.5;"K";"Non"
2021;"9900321";2.0;"K";"Oui"
2021;"9900324";64.0;"K";"Oui"
2021;"9900329";5.0;"L";"Non"
2021;"9900331";96.0;"L";"Non"
2021;"9900340";192078.5;"L";"Non"
2021;"9900350";0.7;"L";"Non"
2021;"9900353";4.8;"K";"Non"
2021;"9900354";51833.1;"K";"Non"
2021;"9900360";457.5;"K";"Oui"
2021;"9900361";1.0;"L";"Oui"
2021;"9900371";274.0;"K";"Oui"
2021;"9900372";0.4;"K";"Oui"
2021;"9900376";175.0;"K";"Non"
2021;"9900398";912.0;"K";"Non"
2021;"9900401";20.0;"L";"Non"
2021;"9900406";32.0;"L";"Non"
2021;"9900411";280.0;"L";"Non"
2021;"9900412";6054.0;"L";"Non"
2021;"9900440";3.0;"K";"Oui"
2021;"9900446";74043.9;"K";"Non"
