"annee";"amm";"quantite_produit";"conditionnement";"eaj"
2012;"1030003";59952.9;"L";"Oui"
2012;"2000001";392.1;"L";"Oui"
2012;"2000003";98367.9;"L";"Non"
2012;"2000006";60.0;"L";"Non"
2012;"2000009";1.5;"K";"Oui"
2012;"2000010";3830.0;"L";"Non"
2012;"2000014";14.0;"L";"Non"
2012;"2000017";6136.7;"L";"Oui"
2012;"2000018";1619154.1;"K";"Non"
2012;"2000028";2.4;"L";"Oui"
2012;"2000029";256.7;"L";"Oui"
2012;"2000030";44.0;"L";"Oui"
2012;"2000035";12.8;"L";"Non"
2012;"2000041";626.6;"K";"Oui"
2012;"2000042";2555.0;"L";"Non"
2012;"2000044";141802.2;"L";"Non"
2012;"2000045";9778.6;"L";"Non"
2012;"2000046";41631.4;"L";"Non"
2012;"2000051";10347.0;"L";"Non"
2012;"2000052";175485.7;"L";"Non"
2012;"2000067";7930.0;"L";"Non"
2012;"2000071";451736.5;"K";"Oui"
2012;"2000074";20.0;"K";"Non"
2012;"2000075";12.5;"K";"Non"
2012;"2000076";3400.0;"L";"Non"
2012;"2000078";8.8;"K";"Non"
2012;"2000079";44016.8;"L";"Non"
2012;"2000080";187213.7;"L";"Non"
2012;"2000083";9690.0;"K";"Non"
2012;"2000084";2790.0;"K";"Non"
2012;"2000085";24976.0;"L";"Non"
2012;"2000087";3350.0;"K";"Non"
2012;"2000089";207.0;"K";"Oui"
2012;"2000091";55980.0;"K";"Non"
2012;"2000097";339121.7;"K";"Non"
2012;"2000099";60051.0;"K";"Non"
2012;"2000100";1895.0;"L";"Non"
2012;"2000101";3710.0;"L";"Non"
2012;"2000105";196.0;"K";"Oui"
2012;"2000121";5344.3;"K";"Non"
2012;"2000122";32186.0;"L";"Non"
2012;"2000125";128188.8;"K";"Oui"
2012;"2000128";6322.2;"K";"Oui"
2012;"2000129";1.2;"K";"Non"
2012;"2000135";7.0;"L";"Oui"
2012;"2000136";448449.0;"K";"Non"
2012;"2000146";27.6;"L";"Oui"
2012;"2000148";4961.0;"L";"Oui"
2012;"2000150";21588.0;"L";"Oui"
2012;"2000157";2.0;"L";"Non"
2012;"2000160";195.0;"K";"Non"
2012;"2000169";39.5;"K";"Non"
2012;"2000170";20.6;"L";"Non"
2012;"2000190";19.1;"L";"Non"
2012;"2000191";1353.3;"L";"Non"
2012;"2000193";1962.0;"K";"Non"
2012;"2000195";3306.0;"K";"Non"
2012;"2000201";141866.2;"L";"Non"
2012;"2000202";313197.3;"L";"Non"
2012;"2000205";3692.6;"K";"Non"
2012;"2000206";5554.0;"L";"Non"
2012;"2000207";8744.7;"L";"Non"
2012;"2000208";19472.3;"L";"Non"
2012;"2000210";4230.0;"L";"Oui"
2012;"2000214";9905.0;"L";"Non"
2012;"2000216";38274.0;"L";"Non"
2012;"2000218";9.0;"L";"Non"
2012;"2000219";240.0;"L";"Non"
2012;"2000222";5958.8;"L";"Oui"
2012;"2000224";9.5;"L";"Non"
2012;"2000226";237.5;"L";"Oui"
2012;"2000228";112675.9;"K";"Oui"
2012;"2000231";40371.5;"K";"Non"
2012;"2000236";8065.9;"L";"Non"
2012;"2000254";3340.0;"L";"Non"
2012;"2000260";40.0;"K";"Non"
2012;"2000276";1114.0;"L";"Non"
2012;"2000277";45540.0;"L";"Non"
2012;"2000283";2130.0;"L";"Non"
2012;"2000294";120023.2;"K";"Non"
2012;"2000299";81792.2;"L";"Non"
2012;"2000300";24.0;"L";"Non"
2012;"2000301";87294.0;"L";"Non"
2012;"2000305";337844.4;"L";"Non"
2012;"2000306";7486.0;"L";"Non"
2012;"2000307";29190.4;"L";"Non"
2012;"2000316";27458.8;"L";"Non"
2012;"2000324";1486.4;"L";"Non"
2012;"2000327";92870.1;"L";"Non"
2012;"2000331";36614.8;"L";"Non"
2012;"2000332";48257.5;"L";"Non"
2012;"2000333";9824.0;"L";"Non"
2012;"2000335";14186.8;"L";"Non"
2012;"2000336";55625.0;"K";"Non"
2012;"2000338";113711.0;"K";"Non"
2012;"2000341";133601.5;"K";"Non"
2012;"2000352";61384.0;"K";"Non"
2012;"2000359";182.8;"K";"Non"
2012;"2000360";70.0;"K";"Non"
2012;"2000362";58960.0;"K";"Oui"
2012;"2000364";9149.7;"K";"Oui"
2012;"2000365";9298.6;"L";"Oui"
2012;"2000366";27043.0;"L";"Oui"
2012;"2000374";16367.5;"K";"Non"
2012;"2000378";96851.6;"K";"Non"
2012;"2000380";87439.0;"L";"Non"
2012;"2000382";205.0;"L";"Oui"
2012;"2000383";390.0;"L";"Non"
2012;"2000388";4315.0;"L";"Non"
2012;"2000390";164740.6;"K";"Oui"
2012;"2000391";2035.0;"L";"Non"
2012;"2000402";22143.0;"L";"Non"
2012;"2000405";45.0;"L";"Non"
2012;"2000407";765.0;"L";"Non"
2012;"2000412";8205.6;"K";"Oui"
2012;"2000415";265000.9;"L";"Non"
2012;"2000416";930.0;"L";"Oui"
2012;"2000417";1120.0;"K";"Non"
2012;"2000419";140.0;"K";"Non"
2012;"2000420";2040.0;"L";"Non"
2012;"2000421";5.0;"L";"Non"
2012;"2000424";14608.0;"L";"Oui"
2012;"2000427";18.0;"K";"Non"
2012;"2000442";90447.0;"K";"Non"
2012;"2000447";16874.0;"K";"Non"
2012;"2000449";7448.5;"L";"Non"
2012;"2000451";117.0;"K";"Non"
2012;"2000452";20223.0;"L";"Non"
2012;"2000456";690.0;"L";"Non"
2012;"2000466";54.5;"L";"Oui"
2012;"2000467";130460.0;"K";"Non"
2012;"2000468";95725.0;"K";"Non"
2012;"2000476";4.0;"L";"Non"
2012;"2000478";21730.0;"L";"Non"
2012;"2000481";565.0;"K";"Non"
2012;"2000491";3.0;"K";"Non"
2012;"2000499";210402.8;"L";"Non"
2012;"2000500";247913.6;"L";"Oui"
2012;"2000502";27719.0;"L";"Non"
2012;"2000503";2190.0;"K";"Non"
2012;"2000509";23718.1;"L";"Non"
2012;"2000510";567880.6;"K";"Oui"
2012;"2000517";264770.5;"L";"Oui"
2012;"2000519";81443.0;"L";"Non"
2012;"2000520";2099.2;"L";"Non"
2012;"2000528";1.0;"L";"Non"
2012;"2000535";2012.2;"L";"Non"
2012;"2000536";13048.2;"K";"Non"
2012;"2000538";1462.5;"L";"Oui"
2012;"2000541";6027.0;"L";"Non"
2012;"2000546";166.4;"L";"Non"
2012;"2000552";2440.0;"L";"Non"
2012;"2000559";23073.9;"L";"Non"
2012;"2000565";74.0;"L";"Non"
2012;"2010001";30.5;"K";"Non"
2012;"2010005";31.0;"K";"Non"
2012;"2010006";6.0;"K";"Non"
2012;"2010009";51514.0;"K";"Oui"
2012;"2010019";19353.0;"L";"Non"
2012;"2010023";211291.6;"L";"Non"
2012;"2010025";52994.2;"L";"Non"
2012;"2010027";4149.0;"L";"Non"
2012;"2010029";6610.0;"K";"Non"
2012;"2010030";269250.0;"L";"Non"
2012;"2010034";0.9;"K";"Non"
2012;"2010035";52372.6;"L";"Oui"
2012;"2010037";20246.0;"L";"Non"
2012;"2010047";35938.0;"L";"Non"
2012;"2010049";13745.3;"L";"Non"
2012;"2010052";15.0;"L";"Oui"
2012;"2010053";36405.0;"K";"Non"
2012;"2010057";370.0;"K";"Non"
2012;"2010099";516.0;"L";"Oui"
2012;"2010100";661.4;"L";"Oui"
2012;"2010101";198.4;"L";"Oui"
2012;"2010105";20.0;"L";"Non"
2012;"2010108";35.0;"K";"Non"
2012;"2010109";94.0;"L";"Non"
2012;"2010111";905.0;"L";"Non"
2012;"2010112";2112.0;"K";"Non"
2012;"2010118";275705.8;"K";"Oui"
2012;"2010121";13708.8;"K";"Oui"
2012;"2010122";5.0;"K";"Oui"
2012;"2010123";38700.0;"K";"Oui"
2012;"2010124";0.7;"K";"Non"
2012;"2010125";11.0;"K";"Non"
2012;"2010130";313238.6;"K";"Non"
2012;"2010132";17838.0;"K";"Non"
2012;"2010139";20881.4;"L";"Oui"
2012;"2010142";2713.2;"K";"Oui"
2012;"2010143";11805.6;"L";"Oui"
2012;"2010147";285.0;"L";"Oui"
2012;"2010149";36.0;"K";"Non"
2012;"2010152";4.0;"L";"Non"
2012;"2010156";1001.7;"L";"Non"
2012;"2010157";51362.8;"K";"Oui"
2012;"2010158";58490.0;"L";"Non"
2012;"2010161";2.0;"L";"Non"
2012;"2010165";24.3;"L";"Non"
2012;"2010191";5070.0;"L";"Non"
2012;"2010192";1500.0;"L";"Non"
2012;"2010194";400.0;"L";"Non"
2012;"2010197";7380.0;"L";"Non"
2012;"2010199";6.6;"L";"Non"
2012;"2010206";3.0;"K";"Non"
2012;"2010209";300.0;"K";"Oui"
2012;"2010217";9.2;"L";"Non"
2012;"2010222";20.0;"L";"Non"
2012;"2010231";36.0;"L";"Non"
2012;"2010236";74.5;"K";"Non"
2012;"2010237";35.0;"L";"Non"
2012;"2010239";139244.4;"L";"Non"
2012;"2010240";63794.9;"L";"Non"
2012;"2010261";22128.7;"K";"Non"
2012;"2010262";352712.5;"L";"Non"
2012;"2010273";385019.0;"K";"Non"
2012;"2010274";48551.0;"L";"Non"
2012;"2010275";527.8;"K";"Oui"
2012;"2010276";20.0;"L";"Non"
2012;"2010278";175.0;"L";"Non"
2012;"2010280";569913.4;"L";"Non"
2012;"2010281";374.7;"K";"Non"
2012;"2010282";199028.0;"L";"Non"
2012;"2010283";97943.0;"L";"Non"
2012;"2010284";1795.4;"L";"Oui"
2012;"2010288";15693.2;"K";"Non"
2012;"2010289";55977.0;"L";"Non"
2012;"2010290";5792.9;"L";"Oui"
2012;"2010296";7653.0;"L";"Non"
2012;"2010299";111049.7;"K";"Oui"
2012;"2010300";12.0;"K";"Oui"
2012;"2010307";182.0;"L";"Non"
2012;"2010310";39577.3;"L";"Non"
2012;"2010311";1940.0;"L";"Non"
2012;"2010313";0.8;"K";"Non"
2012;"2010315";5712.3;"K";"Non"
2012;"2010317";3826.5;"K";"Oui"
2012;"2010319";60308.0;"L";"Oui"
2012;"2010321";571032.9;"L";"Oui"
2012;"2010322";193.6;"K";"Non"
2012;"2010324";4404.9;"K";"Oui"
2012;"2010325";10.0;"L";"Oui"
2012;"2010326";225725.7;"L";"Non"
2012;"2010327";61.0;"K";"Non"
2012;"2010328";2590.6;"K";"Non"
2012;"2010332";7859.4;"L";"Non"
2012;"2010334";3823.1;"K";"Non"
2012;"2010335";9342.8;"L";"Oui"
2012;"2010340";2374.2;"K";"Oui"
2012;"2010349";276440.2;"L";"Non"
2012;"2010350";17315.0;"L";"Non"
2012;"2010351";112800.1;"K";"Non"
2012;"2010364";0.2;"L";"Non"
2012;"2010374";3708.0;"K";"Non"
2012;"2010377";615.6;"K";"Oui"
2012;"2010378";370.7;"L";"Oui"
2012;"2010398";187196.1;"K";"Non"
2012;"2010406";70.0;"K";"Non"
2012;"2010410";23467.4;"K";"Oui"
2012;"2010415";593025.7;"L";"Non"
2012;"2010416";75.0;"L";"Non"
2012;"2010418";1190.0;"L";"Non"
2012;"2010419";288140.1;"K";"Non"
2012;"2010420";915578.6;"L";"Oui"
2012;"2010425";9110.5;"K";"Non"
2012;"2010426";22149.0;"K";"Non"
2012;"2010427";30593.4;"L";"Non"
2012;"2010429";95.4;"L";"Oui"
2012;"2010430";77.4;"L";"Oui"
2012;"2010432";413.1;"L";"Oui"
2012;"2010434";300.4;"L";"Oui"
2012;"2010436";239.0;"K";"Oui"
2012;"2010438";404.6;"L";"Oui"
2012;"2010439";4769.5;"L";"Oui"
2012;"2010441";89495.0;"L";"Non"
2012;"2010454";284.0;"L";"Non"
2012;"2010469";2134.0;"L";"Non"
2012;"2010475";1905.0;"L";"Non"
2012;"2010478";80324.0;"L";"Non"
2012;"2010479";0.2;"L";"Non"
2012;"2010480";4444.0;"K";"Non"
2012;"2010482";810.0;"L";"Non"
2012;"2010488";2698.0;"K";"Non"
2012;"2010493";30646.1;"K";"Oui"
2012;"2010494";3.8;"L";"Oui"
2012;"2010495";1045816.3;"K";"Non"
2012;"2010498";32417.2;"L";"Non"
2012;"2010499";93685.5;"L";"Non"
2012;"2010502";34388.7;"L";"Non"
2012;"2010504";4545.9;"L";"Non"
2012;"2010507";300.0;"L";"Non"
2012;"2010508";26081.0;"L";"Oui"
2012;"2010509";284738.6;"K";"Oui"
2012;"2010512";487.2;"L";"Oui"
2012;"2010513";13081.2;"K";"Non"
2012;"2010514";0.4;"L";"Non"
2012;"2010516";680.0;"L";"Non"
2012;"2010518";10.4;"K";"Oui"
2012;"2010520";144.3;"K";"Oui"
2012;"2010521";38.0;"L";"Non"
2012;"2010523";44132.0;"L";"Non"
2012;"2010525";19742.6;"K";"Non"
2012;"2010527";28255.1;"L";"Non"
2012;"2010529";18.4;"L";"Oui"
2012;"2010530";9603.6;"L";"Oui"
2012;"2010531";42246.0;"L";"Non"
2012;"2010532";1.5;"L";"Non"
2012;"2010537";501.6;"K";"Non"
2012;"2010552";30765.8;"K";"Non"
2012;"2010559";10760.0;"K";"Non"
2012;"2010564";320.0;"L";"Non"
2012;"2010572";70.0;"L";"Non"
2012;"2010584";21404.0;"L";"Non"
2012;"2010585";9479.0;"L";"Non"
2012;"2010588";12692.2;"L";"Non"
2012;"2010589";2955.0;"L";"Non"
2012;"2010598";8891.0;"L";"Non"
2012;"2010600";35267.0;"K";"Non"
2012;"2010602";136411.0;"K";"Non"
2012;"2010603";180.0;"L";"Non"
2012;"2010604";4196.8;"K";"Oui"
2012;"2010610";41063.6;"L";"Non"
2012;"2010611";22.0;"K";"Non"
2012;"2010612";532096.0;"L";"Oui"
2012;"2010613";71395.0;"L";"Non"
2012;"2010616";330.0;"K";"Non"
2012;"2010617";73215.8;"L";"Non"
2012;"2010618";71078.7;"K";"Oui"
2012;"2010620";52015.0;"L";"Non"
2012;"2010628";7817.0;"K";"Non"
2012;"2010632";13122.0;"K";"Non"
2012;"2010633";6595.0;"L";"Non"
2012;"2010637";658.6;"L";"Oui"
2012;"2010640";9945.0;"K";"Non"
2012;"2010643";614.0;"L";"Non"
2012;"2020001";745.6;"K";"Oui"
2012;"2020002";49.0;"K";"Non"
2012;"2020003";299014.9;"K";"Oui"
2012;"2020008";170.0;"L";"Non"
2012;"2020009";119.2;"L";"Oui"
2012;"2020013";35.0;"L";"Non"
2012;"2020014";54460.0;"L";"Non"
2012;"2020016";5.0;"L";"Non"
2012;"2020020";7192.6;"L";"Oui"
2012;"2020021";8593.0;"L";"Non"
2012;"2020023";2159.5;"L";"Non"
2012;"2020027";24988.7;"K";"Oui"
2012;"2020047";24537.0;"L";"Oui"
2012;"2020048";24599.8;"L";"Oui"
2012;"2020049";109785.3;"K";"Non"
2012;"2020050";48.5;"K";"Non"
2012;"2020052";2.0;"L";"Oui"
2012;"2020054";4858.0;"L";"Non"
2012;"2020062";151816.0;"L";"Non"
2012;"2020063";32.0;"L";"Non"
2012;"2020064";90567.2;"L";"Non"
2012;"2020065";742.1;"K";"Oui"
2012;"2020069";48058.5;"L";"Non"
2012;"2020099";20970.3;"L";"Non"
2012;"2020110";110661.0;"K";"Non"
2012;"2020119";372849.2;"L";"Oui"
2012;"2020123";1.0;"K";"Non"
2012;"2020126";16.0;"L";"Non"
2012;"2020137";4.0;"K";"Non"
2012;"2020144";14.2;"L";"Non"
2012;"2020145";3175.0;"K";"Non"
2012;"2020181";260.0;"L";"Non"
2012;"2020186";20.0;"L";"Non"
2012;"2020199";1.0;"K";"Non"
2012;"2020200";0.2;"L";"Non"
2012;"2020216";26448.0;"L";"Non"
2012;"2020217";731.6;"K";"Oui"
2012;"2020219";941.9;"L";"Non"
2012;"2020220";200.0;"L";"Non"
2012;"2020221";57059.8;"L";"Non"
2012;"2020224";32953.0;"K";"Non"
2012;"2020226";20343.5;"L";"Non"
2012;"2020233";7440.0;"K";"Non"
2012;"2020234";29439.0;"K";"Non"
2012;"2020238";3024.4;"L";"Oui"
2012;"2020241";4023.0;"K";"Non"
2012;"2020246";89.6;"L";"Non"
2012;"2020254";12.0;"L";"Oui"
2012;"2020257";0.4;"K";"Non"
2012;"2020264";8603.5;"L";"Non"
2012;"2020266";44846.0;"L";"Non"
2012;"2020267";36686.0;"K";"Non"
2012;"2020268";835.0;"L";"Non"
2012;"2020269";186716.0;"L";"Non"
2012;"2020271";12.0;"L";"Non"
2012;"2020273";1.4;"L";"Non"
2012;"2020293";13800.0;"L";"Non"
2012;"2020294";82448.8;"L";"Non"
2012;"2020295";11280.0;"L";"Non"
2012;"2020296";45620.0;"L";"Non"
2012;"2020297";38.0;"L";"Oui"
2012;"2020298";2.0;"L";"Oui"
2012;"2020300";1.8;"L";"Oui"
2012;"2020301";4395.5;"L";"Oui"
2012;"2020302";60.0;"K";"Non"
2012;"2020303";1460.0;"L";"Oui"
2012;"2020304";1246.5;"L";"Oui"
2012;"2020305";2.9;"L";"Oui"
2012;"2020306";4795.0;"L";"Non"
2012;"2020318";50285.1;"L";"Oui"
2012;"2020319";2.3;"L";"Oui"
2012;"2020321";22.4;"K";"Oui"
2012;"2020322";56.5;"K";"Oui"
2012;"2020326";5.0;"L";"Non"
2012;"2020328";277527.5;"L";"Non"
2012;"2020329";10.0;"K";"Non"
2012;"2020336";272.6;"K";"Oui"
2012;"2020339";75053.6;"L";"Non"
2012;"2020344";208833.0;"K";"Non"
2012;"2020345";475.0;"L";"Non"
2012;"2020346";44125.0;"L";"Non"
2012;"2020348";17273.0;"L";"Non"
2012;"2020351";0.1;"L";"Oui"
2012;"2020352";3.8;"L";"Oui"
2012;"2020353";0.2;"L";"Oui"
2012;"2020355";903.8;"L";"Oui"
2012;"2020356";10250.0;"K";"Non"
2012;"2020365";175.4;"L";"Oui"
2012;"2020366";38.6;"K";"Non"
2012;"2020368";45.0;"L";"Non"
2012;"2020378";6771.4;"K";"Non"
2012;"2020401";12.0;"K";"Non"
2012;"2020414";135.0;"L";"Non"
2012;"2020417";1.0;"L";"Non"
2012;"2020420";2.0;"K";"Non"
2012;"2020422";303.0;"L";"Non"
2012;"2020425";940.0;"L";"Non"
2012;"2020426";112.0;"L";"Oui"
2012;"2020429";42095.0;"L";"Non"
2012;"2020430";190.0;"L";"Non"
2012;"2020431";2740.0;"L";"Non"
2012;"2020432";120.0;"L";"Non"
2012;"2020436";1314.0;"L";"Oui"
2012;"2020437";1310.0;"L";"Oui"
2012;"2020439";857.0;"K";"Non"
2012;"2020440";32854.0;"L";"Non"
2012;"2020445";38323.5;"L";"Non"
2012;"2020448";157607.2;"L";"Oui"
2012;"2020456";258464.2;"L";"Non"
2012;"2020474";56119.5;"L";"Non"
2012;"2020476";24269.2;"L";"Non"
2012;"2020479";18147.4;"L";"Non"
2012;"2020488";8.1;"L";"Non"
2012;"2020497";7.0;"L";"Non"
2012;"2020499";4.0;"L";"Non"
2012;"2020506";4376.0;"L";"Non"
2012;"2020508";20.1;"K";"Non"
2012;"2030002";23.3;"L";"Non"
2012;"2030010";7580.0;"L";"Non"
2012;"2030011";21487.0;"L";"Non"
2012;"2030019";92920.0;"L";"Non"
2012;"2030026";2720.0;"K";"Non"
2012;"2030033";61.6;"L";"Non"
2012;"2030050";38638.4;"L";"Oui"
2012;"2030054";9040.0;"K";"Non"
2012;"2030055";25.0;"L";"Non"
2012;"2030056";52168.0;"K";"Non"
2012;"2030060";5.3;"K";"Non"
2012;"2030068";13377.4;"L";"Non"
2012;"2030069";23930.0;"K";"Non"
2012;"2030070";410777.6;"K";"Non"
2012;"2030071";247938.0;"K";"Non"
2012;"2030072";172551.0;"K";"Non"
2012;"2030073";341637.3;"K";"Non"
2012;"2030074";210.0;"K";"Non"
2012;"2030075";19172.5;"L";"Non"
2012;"2030076";14538.6;"L";"Non"
2012;"2030086";4.7;"L";"Non"
2012;"2030089";456.0;"L";"Non"
2012;"2030092";37.5;"K";"Non"
2012;"2030099";600.0;"L";"Non"
2012;"2030101";97.5;"K";"Non"
2012;"2030103";175.0;"L";"Non"
2012;"2030104";5.0;"L";"Non"
2012;"2030110";145175.2;"K";"Non"
2012;"2030113";12269.2;"L";"Oui"
2012;"2030119";63.0;"L";"Non"
2012;"2030120";348.0;"L";"Non"
2012;"2030121";1.0;"L";"Non"
2012;"2030123";36552.1;"L";"Non"
2012;"2030125";44952.5;"L";"Oui"
2012;"2030131";528.3;"K";"Non"
2012;"2030134";13.6;"K";"Non"
2012;"2030136";4520.0;"L";"Oui"
2012;"2030144";2.3;"K";"Non"
2012;"2030147";1788.0;"K";"Non"
2012;"2030150";201.7;"L";"Oui"
2012;"2030154";110.0;"L";"Non"
2012;"2030156";100.0;"K";"Non"
2012;"2030159";1420.0;"L";"Non"
2012;"2030169";31050.0;"K";"Non"
2012;"2030170";5.0;"L";"Non"
2012;"2030172";35.3;"L";"Oui"
2012;"2030173";3276.0;"L";"Oui"
2012;"2030174";1229.4;"K";"Non"
2012;"2030175";1.7;"K";"Oui"
2012;"2030176";10.2;"L";"Non"
2012;"2030177";239.0;"L";"Non"
2012;"2030178";909.0;"K";"Oui"
2012;"2030184";610.7;"K";"Oui"
2012;"2030195";5158.0;"L";"Non"
2012;"2030197";75.0;"K";"Non"
2012;"2030209";1525.0;"L";"Non"
2012;"2030226";1670.0;"K";"Non"
2012;"2030233";280.0;"L";"Non"
2012;"2030239";363.7;"K";"Non"
2012;"2030247";2320.0;"L";"Non"
2012;"2030255";87907.9;"L";"Non"
2012;"2030259";1096.0;"L";"Non"
2012;"2030261";2615.0;"L";"Non"
2012;"2030265";262652.0;"L";"Non"
2012;"2030268";1630.8;"L";"Non"
2012;"2030269";75.0;"K";"Oui"
2012;"2030271";217.2;"K";"Oui"
2012;"2030273";5931.5;"L";"Oui"
2012;"2030274";6280.0;"L";"Non"
2012;"2030276";100.0;"L";"Oui"
2012;"2030278";9.0;"K";"Oui"
2012;"2030279";30.0;"L";"Non"
2012;"2030286";3432.8;"L";"Oui"
2012;"2030289";2051.5;"L";"Oui"
2012;"2030290";211374.5;"L";"Non"
2012;"2030292";36855.3;"K";"Non"
2012;"2030293";30.0;"K";"Oui"
2012;"2030294";204.9;"K";"Non"
2012;"2030305";767.0;"K";"Non"
2012;"2030309";20.0;"L";"Non"
2012;"2030321";11255.0;"L";"Oui"
2012;"2030323";768642.6;"L";"Non"
2012;"2030327";3296.0;"L";"Non"
2012;"2030331";390.0;"L";"Oui"
2012;"2030332";85357.8;"L";"Oui"
2012;"2030337";975.0;"L";"Non"
2012;"2030338";10.0;"L";"Non"
2012;"2030341";3.2;"L";"Oui"
2012;"2030342";3700.0;"L";"Non"
2012;"2030375";399.0;"L";"Non"
2012;"2030391";22.0;"L";"Oui"
2012;"2030404";149190.0;"L";"Non"
2012;"2030405";62.0;"K";"Oui"
2012;"2030406";22.5;"K";"Oui"
2012;"2030410";547.0;"K";"Non"
2012;"2030429";18816.1;"K";"Non"
2012;"2030430";596780.6;"K";"Non"
2012;"2030438";88301.0;"L";"Non"
2012;"2030442";460.0;"L";"Non"
2012;"2030446";5365.0;"L";"Non"
2012;"2030456";435.6;"L";"Oui"
2012;"2030457";199.1;"K";"Non"
2012;"2030466";124145.7;"K";"Oui"
2012;"2030469";1750.0;"K";"Non"
2012;"2030471";687.5;"L";"Non"
2012;"2040019";33970.0;"K";"Non"
2012;"2040045";1835.0;"L";"Non"
2012;"2040048";3.9;"K";"Non"
2012;"2040051";7585.0;"L";"Non"
2012;"2040052";828.2;"K";"Non"
2012;"2040053";2140.0;"L";"Non"
2012;"2040057";1.0;"L";"Non"
2012;"2040063";9597.3;"K";"Non"
2012;"2040067";4360.4;"L";"Non"
2012;"2040075";230.0;"L";"Non"
2012;"2040076";10.0;"K";"Oui"
2012;"2040079";419.3;"L";"Oui"
2012;"2040080";8630.8;"K";"Oui"
2012;"2040082";65.6;"L";"Oui"
2012;"2040083";39.8;"K";"Oui"
2012;"2040085";27308.8;"L";"Oui"
2012;"2040086";1006.0;"L";"Oui"
2012;"2040102";6730.0;"K";"Non"
2012;"2040103";569.0;"K";"Non"
2012;"2040109";1686.0;"K";"Non"
2012;"2040121";53.1;"L";"Non"
2012;"2040124";5.0;"L";"Non"
2012;"2040128";24195.0;"L";"Non"
2012;"2040129";37.0;"L";"Non"
2012;"2040140";78.9;"L";"Oui"
2012;"2040141";6839.0;"L";"Oui"
2012;"2040142";12987.5;"L";"Non"
2012;"2040143";32542.0;"L";"Non"
2012;"2040146";120351.2;"L";"Non"
2012;"2040192";57205.0;"L";"Non"
2012;"2040193";19453.0;"L";"Non"
2012;"2040194";6312.0;"L";"Non"
2012;"2040195";66493.8;"L";"Non"
2012;"2040196";7052.5;"K";"Non"
2012;"2040197";5034.4;"L";"Non"
2012;"2040198";41244.9;"L";"Non"
2012;"2040199";22604.5;"K";"Non"
2012;"2040201";3962.0;"L";"Non"
2012;"2040205";20459.0;"K";"Oui"
2012;"2040207";60.0;"K";"Oui"
2012;"2040210";190.0;"L";"Non"
2012;"2040212";30956.0;"K";"Non"
2012;"2040213";35600.0;"K";"Oui"
2012;"2040310";89955.4;"L";"Non"
2012;"2040311";23353.0;"L";"Non"
2012;"2040313";740.0;"K";"Non"
2012;"2040314";26741.0;"K";"Oui"
2012;"2040315";9755.0;"L";"Non"
2012;"2040317";11170.0;"L";"Non"
2012;"2040318";4500.0;"L";"Non"
2012;"2040319";2.6;"L";"Non"
2012;"2040321";35250.4;"K";"Oui"
2012;"2040322";7542.4;"L";"Non"
2012;"2040323";1728.9;"L";"Oui"
2012;"2040324";30.0;"L";"Non"
2012;"2040326";2135.0;"L";"Non"
2012;"2040328";500.0;"K";"Non"
2012;"2040330";121067.7;"K";"Oui"
2012;"2040336";26250.0;"K";"Non"
2012;"2040337";37140.0;"K";"Oui"
2012;"2040338";33206.9;"L";"Non"
2012;"2040348";18494.2;"K";"Non"
2012;"2040349";977.0;"K";"Oui"
2012;"2040350";45.0;"K";"Oui"
2012;"2040351";87.0;"K";"Oui"
2012;"2040352";60.0;"K";"Oui"
2012;"2040354";116.5;"K";"Non"
2012;"2040358";30.0;"L";"Non"
2012;"2040361";3.0;"K";"Non"
2012;"2040363";4137.0;"K";"Non"
2012;"2040371";412.0;"L";"Non"
2012;"2040373";3526.0;"K";"Oui"
2012;"2050001";1322.7;"K";"Non"
2012;"2050005";5.0;"L";"Non"
2012;"2050015";3.0;"L";"Non"
2012;"2050030";168.0;"K";"Non"
2012;"2050031";2246.0;"K";"Non"
2012;"2050033";3572.0;"K";"Non"
2012;"2050037";1585.0;"K";"Oui"
2012;"2050038";522.6;"L";"Oui"
2012;"2050040";34.0;"L";"Oui"
2012;"2050041";734.6;"L";"Oui"
2012;"2050042";12.0;"L";"Oui"
2012;"2050043";748.5;"L";"Oui"
2012;"2050046";19670.7;"K";"Non"
2012;"2050050";57359.3;"L";"Oui"
2012;"2050051";65.0;"L";"Non"
2012;"2050053";51.0;"L";"Non"
2012;"2050059";600.0;"L";"Non"
2012;"2050065";35.0;"L";"Non"
2012;"2050074";925.0;"L";"Non"
2012;"2050075";391482.7;"K";"Non"
2012;"2050076";43184.2;"K";"Non"
2012;"2050077";16670.7;"K";"Oui"
2012;"2050078";28850.0;"L";"Non"
2012;"2050082";130.0;"L";"Non"
2012;"2050083";1920.0;"L";"Non"
2012;"2050086";257180.0;"L";"Non"
2012;"2050098";340.0;"L";"Non"
2012;"2050113";102.5;"K";"Non"
2012;"2050115";555.0;"L";"Non"
2012;"2050116";3800.0;"K";"Non"
2012;"2050118";10.0;"K";"Oui"
2012;"2050125";8.5;"L";"Non"
2012;"2050127";174.0;"L";"Non"
2012;"2050128";1300.0;"L";"Non"
2012;"2050130";35.0;"L";"Non"
2012;"2050131";74.0;"L";"Non"
2012;"2050134";4327.0;"K";"Non"
2012;"2050135";116911.5;"K";"Non"
2012;"2050136";11910.0;"K";"Non"
2012;"2050139";110.6;"L";"Non"
2012;"2050142";3067.9;"K";"Oui"
2012;"2050143";7552.8;"L";"Oui"
2012;"2050144";33545.5;"L";"Oui"
2012;"2050145";196.5;"L";"Oui"
2012;"2050146";1378.6;"L";"Oui"
2012;"2060002";20964.5;"L";"Non"
2012;"2060006";135.0;"K";"Non"
2012;"2060007";625.0;"K";"Oui"
2012;"2060011";40.6;"L";"Oui"
2012;"2060013";3.9;"L";"Non"
2012;"2060026";873.4;"K";"Non"
2012;"2060027";5242.0;"K";"Non"
2012;"2060034";109310.0;"K";"Non"
2012;"2060042";200.0;"L";"Non"
2012;"2060045";12506.8;"K";"Oui"
2012;"2060049";1630.0;"L";"Non"
2012;"2060050";44436.9;"L";"Non"
2012;"2060051";40307.7;"L";"Non"
2012;"2060063";1234.8;"K";"Non"
2012;"2060064";1043.7;"L";"Non"
2012;"2060066";45.0;"L";"Non"
2012;"2060067";55.0;"K";"Non"
2012;"2060068";3077.0;"L";"Non"
2012;"2060069";43.0;"K";"Non"
2012;"2060071";986.1;"K";"Non"
2012;"2060077";31.0;"K";"Non"
2012;"2060079";380.0;"L";"Non"
2012;"2060081";5.0;"L";"Non"
2012;"2060083";5.0;"L";"Non"
2012;"2060084";53446.0;"K";"Non"
2012;"2060085";57325.7;"L";"Non"
2012;"2060086";904.7;"K";"Non"
2012;"2060088";1859800.1;"L";"Non"
2012;"2060090";3569.0;"L";"Non"
2012;"2060091";457295.7;"L";"Non"
2012;"2060094";7261.0;"L";"Non"
2012;"2060095";4017.5;"L";"Non"
2012;"2060096";785.0;"K";"Non"
2012;"2060097";824.0;"L";"Non"
2012;"2060098";13728.5;"L";"Non"
2012;"2060100";1050.0;"L";"Non"
2012;"2060102";1765.0;"L";"Non"
2012;"2060106";45.0;"L";"Non"
2012;"2060109";1210.0;"L";"Non"
2012;"2060110";6783.0;"L";"Non"
2012;"2060111";820.0;"L";"Non"
2012;"2060113";1432.9;"L";"Non"
2012;"2060114";140457.4;"L";"Non"
2012;"2060115";403396.5;"L";"Non"
2012;"2060116";211201.2;"L";"Non"
2012;"2060117";6749.0;"L";"Non"
2012;"2060118";1157478.7;"L";"Non"
2012;"2060119";378.7;"K";"Non"
2012;"2060120";396365.3;"L";"Non"
2012;"2060121";1.5;"L";"Non"
2012;"2060122";550.0;"L";"Non"
2012;"2060127";371165.4;"L";"Non"
2012;"2060128";75821.9;"L";"Non"
2012;"2060129";84000.1;"K";"Oui"
2012;"2060130";4041.5;"L";"Non"
2012;"2060131";225025.8;"L";"Oui"
2012;"2060132";1613.6;"L";"Non"
2012;"2060133";20267.5;"L";"Non"
2012;"2060134";89616.4;"K";"Non"
2012;"2060137";37022.0;"L";"Non"
2012;"2060172";2124.0;"L";"Non"
2012;"2060175";1534623.3;"K";"Oui"
2012;"2060192";1410.6;"K";"Oui"
2012;"2060194";1048011.2;"K";"Non"
2012;"2060208";8503.0;"L";"Non"
2012;"2070041";40.0;"K";"Non"
2012;"2070044";125.0;"L";"Non"
2012;"2070045";355.0;"L";"Non"
2012;"2070052";100.0;"L";"Non"
2012;"2070053";17690.1;"L";"Non"
2012;"2070056";4.0;"K";"Non"
2012;"2070058";60.0;"L";"Non"
2012;"2070066";4240.0;"L";"Non"
2012;"2070069";2825.0;"K";"Non"
2012;"2070077";14120.0;"L";"Non"
2012;"2070087";2264.0;"L";"Non"
2012;"2070089";15275.0;"K";"Non"
2012;"2070091";5205.0;"K";"Non"
2012;"2070092";364677.8;"L";"Non"
2012;"2070093";2540.0;"L";"Non"
2012;"2070104";11919.0;"L";"Non"
2012;"2070107";13985.6;"L";"Non"
2012;"2070108";516.0;"K";"Non"
2012;"2070126";115.0;"L";"Non"
2012;"2070131";100.0;"L";"Non"
2012;"2070133";142522.2;"L";"Non"
2012;"2070136";16990.0;"K";"Oui"
2012;"2070140";376630.0;"L";"Non"
2012;"2070143";660.0;"L";"Non"
2012;"2070149";755.9;"K";"Non"
2012;"2070150";7715.0;"K";"Non"
2012;"2070153";23.1;"K";"Non"
2012;"2070158";150.0;"L";"Non"
2012;"2070162";58.0;"L";"Non"
2012;"2070163";1164.0;"K";"Non"
2012;"2070164";1520.0;"L";"Non"
2012;"2070170";10774.8;"L";"Oui"
2012;"2070184";436149.0;"L";"Non"
2012;"2070185";18856.7;"L";"Non"
2012;"2070190";306.0;"L";"Non"
2012;"2070193";3960.0;"L";"Non"
2012;"2070196";2543.4;"L";"Non"
2012;"2070204";52345.0;"K";"Non"
2012;"2070220";461.9;"L";"Non"
2012;"2070221";150829.8;"L";"Non"
2012;"2070225";550.0;"L";"Non"
2012;"2070230";4180.0;"L";"Non"
2012;"2070235";483.0;"L";"Non"
2012;"2070236";60663.7;"L";"Non"
2012;"2070242";6764.0;"K";"Non"
2012;"2070246";4600.0;"L";"Non"
2012;"2070251";11092.0;"L";"Non"
2012;"2080001";576.8;"K";"Non"
2012;"2080004";1056.0;"K";"Non"
2012;"2080005";2360.0;"L";"Non"
2012;"2080010";194590.0;"L";"Oui"
2012;"2080018";64261.6;"L";"Oui"
2012;"2080019";3467.4;"L";"Oui"
2012;"2080020";3052.0;"K";"Non"
2012;"2080023";21588.0;"K";"Non"
2012;"2080024";40052.3;"K";"Non"
2012;"2080025";59431.0;"L";"Non"
2012;"2080026";192173.7;"L";"Non"
2012;"2080028";11935.0;"L";"Non"
2012;"2080029";63398.5;"L";"Non"
2012;"2080038";13460.0;"L";"Non"
2012;"2080039";48150.0;"L";"Non"
2012;"2080042";68481.5;"L";"Non"
2012;"2080044";40.0;"L";"Non"
2012;"2080045";20.0;"L";"Non"
2012;"2080049";13004.4;"L";"Non"
2012;"2080050";5.0;"K";"Non"
2012;"2080053";117783.8;"L";"Oui"
2012;"2080054";238308.7;"L";"Oui"
2012;"2080055";620.5;"L";"Non"
2012;"2080056";1569.9;"L";"Non"
2012;"2080059";1728.5;"K";"Non"
2012;"2080060";3124.8;"L";"Non"
2012;"2080061";14040.0;"K";"Non"
2012;"2080062";65997.8;"K";"Non"
2012;"2080063";110319.1;"K";"Non"
2012;"2080069";58626.3;"L";"Non"
2012;"2080070";13355.1;"K";"Non"
2012;"2080078";4.0;"L";"Non"
2012;"2080083";56.0;"K";"Non"
2012;"2080084";2184.0;"K";"Non"
2012;"2080085";20.0;"K";"Oui"
2012;"2080088";86183.3;"L";"Non"
2012;"2080089";127049.6;"L";"Oui"
2012;"2080090";46847.5;"L";"Oui"
2012;"2080091";21767.6;"K";"Oui"
2012;"2080092";58509.0;"L";"Non"
2012;"2080094";26054.5;"K";"Non"
2012;"2080097";4913.0;"L";"Non"
2012;"2080098";93722.8;"L";"Oui"
2012;"2080099";94968.6;"K";"Non"
2012;"2080100";200205.1;"K";"Non"
2012;"2080101";13477.9;"K";"Non"
2012;"2080102";53260.0;"L";"Non"
2012;"2080103";190480.1;"L";"Non"
2012;"2080104";47720.0;"K";"Non"
2012;"2080105";7330.0;"L";"Non"
2012;"2080106";30.0;"L";"Non"
2012;"2080107";70352.7;"L";"Non"
2012;"2080109";59145.0;"L";"Non"
2012;"2080111";6.2;"L";"Non"
2012;"2080112";91577.8;"L";"Non"
2012;"2080113";115124.8;"K";"Non"
2012;"2080114";269216.6;"L";"Non"
2012;"2080115";38211.5;"L";"Non"
2012;"2080117";27572.3;"K";"Non"
2012;"2080119";39955.0;"L";"Non"
2012;"2080120";139006.5;"L";"Non"
2012;"2080121";146995.6;"K";"Non"
2012;"2080123";2842.4;"K";"Non"
2012;"2080124";2350.0;"K";"Non"
2012;"2080125";283.8;"K";"Non"
2012;"2080129";163986.4;"L";"Non"
2012;"2080132";515.8;"L";"Oui"
2012;"2080133";55403.9;"L";"Oui"
2012;"2080134";5488.0;"L";"Oui"
2012;"2080136";15977.0;"K";"Non"
2012;"2080144";31.5;"K";"Non"
2012;"2080145";222698.0;"L";"Non"
2012;"2080147";55755.1;"L";"Non"
2012;"2090001";25505.6;"L";"Non"
2012;"2090005";8896.0;"K";"Non"
2012;"2090008";24364.8;"L";"Non"
2012;"2090009";24075.0;"L";"Non"
2012;"2090010";12892.3;"L";"Non"
2012;"2090011";314297.2;"L";"Non"
2012;"2090016";344850.5;"L";"Non"
2012;"2090017";20832.2;"L";"Non"
2012;"2090018";287310.5;"L";"Non"
2012;"2090019";47905.0;"L";"Non"
2012;"2090021";5613.3;"L";"Non"
2012;"2090024";142231.3;"L";"Non"
2012;"2090025";28913.0;"K";"Non"
2012;"2090026";32155.9;"L";"Non"
2012;"2090027";900.0;"L";"Non"
2012;"2090028";20310.0;"L";"Non"
2012;"2090029";12564.3;"L";"Oui"
2012;"2090030";4102.2;"K";"Oui"
2012;"2090031";1418.4;"K";"Oui"
2012;"2090032";6549.3;"L";"Oui"
2012;"2090033";3162.3;"L";"Oui"
2012;"2090034";11702.6;"L";"Oui"
2012;"2090035";16646.0;"L";"Oui"
2012;"2090036";287776.4;"L";"Oui"
2012;"2090037";59797.2;"K";"Non"
2012;"2090038";142906.7;"L";"Non"
2012;"2090039";2455.0;"L";"Non"
2012;"2090040";755.0;"K";"Non"
2012;"2090041";86178.5;"K";"Non"
2012;"2090042";95897.7;"K";"Non"
2012;"2090043";36528.6;"L";"Oui"
2012;"2090044";66927.7;"L";"Oui"
2012;"2090045";6212.7;"L";"Oui"
2012;"2090050";4762614.1;"K";"Non"
2012;"2090051";34843.7;"L";"Non"
2012;"2090052";3690.9;"K";"Non"
2012;"2090053";224578.9;"L";"Non"
2012;"2090054";6840.3;"K";"Non"
2012;"2090055";28715.0;"L";"Non"
2012;"2090056";465.5;"L";"Non"
2012;"2090057";17145.6;"K";"Non"
2012;"2090059";37548.6;"K";"Non"
2012;"2090060";429407.1;"L";"Non"
2012;"2090061";596.8;"K";"Non"
2012;"2090062";775.0;"L";"Non"
2012;"2090063";7298.7;"K";"Non"
2012;"2090064";111068.5;"L";"Non"
2012;"2090065";25240.0;"K";"Non"
2012;"2090067";7910.0;"L";"Non"
2012;"2090068";82402.8;"L";"Non"
2012;"2090069";25745.0;"L";"Non"
2012;"2090070";4246.7;"K";"Non"
2012;"2090071";4245.0;"L";"Non"
2012;"2090072";528.4;"K";"Non"
2012;"2090074";2.0;"L";"Non"
2012;"2090075";89795.0;"K";"Non"
2012;"2090076";100.0;"L";"Non"
2012;"2090077";14855.0;"L";"Non"
2012;"2090078";12018.0;"L";"Oui"
2012;"2090079";51773.9;"L";"Oui"
2012;"2090080";59350.0;"L";"Non"
2012;"2090090";11842.8;"L";"Non"
2012;"2090091";7414.5;"K";"Non"
2012;"2090092";405136.9;"L";"Non"
2012;"2090093";2552873.2;"L";"Non"
2012;"2090094";89835.7;"K";"Non"
2012;"2090095";12017.8;"L";"Non"
2012;"2090096";8375.0;"L";"Non"
2012;"2090098";60.0;"K";"Non"
2012;"2090099";15243.8;"L";"Non"
2012;"2090101";75605.0;"L";"Non"
2012;"2090102";15350.0;"K";"Non"
2012;"2090103";150168.7;"K";"Non"
2012;"2090104";2128.2;"L";"Non"
2012;"2090105";55670.0;"K";"Non"
2012;"2090106";5222.0;"L";"Non"
2012;"2090107";32427.8;"L";"Oui"
2012;"2090109";20.1;"K";"Non"
2012;"2090111";90044.3;"L";"Non"
2012;"2090112";798921.0;"L";"Non"
2012;"2090113";322226.2;"L";"Non"
2012;"2090114";7510.6;"K";"Non"
2012;"2090115";661399.9;"L";"Non"
2012;"2090116";32519.5;"L";"Non"
2012;"2090117";172910.4;"L";"Non"
2012;"2090118";274796.0;"L";"Non"
2012;"2090119";329962.3;"L";"Non"
2012;"2090121";35339.9;"L";"Non"
2012;"2090123";17771.0;"L";"Non"
2012;"2090124";23521.4;"L";"Oui"
2012;"2090126";790279.3;"L";"Non"
2012;"2090127";16300.8;"L";"Non"
2012;"2090128";6650.0;"L";"Non"
2012;"2090129";1883.0;"L";"Non"
2012;"2090130";20850.0;"K";"Non"
2012;"2090132";152300.5;"L";"Non"
2012;"2090133";102483.9;"K";"Non"
2012;"2090134";55500.0;"K";"Non"
2012;"2090135";80501.6;"K";"Non"
2012;"2090136";111652.4;"L";"Non"
2012;"2090137";640.0;"K";"Non"
2012;"2090138";74496.0;"K";"Non"
2012;"2090139";2090.0;"K";"Non"
2012;"2090140";15070.0;"L";"Non"
2012;"2090142";23450.0;"K";"Non"
2012;"2090144";7700.0;"K";"Non"
2012;"2090146";15755.4;"L";"Oui"
2012;"2090152";1288.5;"L";"Non"
2012;"2090153";28701.7;"K";"Non"
2012;"2090157";4077.0;"L";"Non"
2012;"2090158";23930.0;"L";"Non"
2012;"2090159";2532.3;"K";"Non"
2012;"2090160";58371.0;"L";"Non"
2012;"2090161";64400.0;"K";"Non"
2012;"2090162";16997.0;"L";"Non"
2012;"2090163";18105.0;"L";"Non"
2012;"2090164";31864.4;"L";"Oui"
2012;"2090165";3760.0;"L";"Oui"
2012;"2090166";175.0;"L";"Non"
2012;"2090168";1047.0;"K";"Non"
2012;"2090169";310.3;"K";"Non"
2012;"2090170";85118.8;"K";"Non"
2012;"2090171";212835.0;"L";"Non"
2012;"2090172";233963.5;"L";"Non"
2012;"2090173";220862.9;"L";"Non"
2012;"2090174";4610.0;"L";"Non"
2012;"2090175";310.6;"K";"Non"
2012;"2090176";71134.8;"L";"Oui"
2012;"2090177";39525.7;"L";"Oui"
2012;"2090178";29701.8;"L";"Oui"
2012;"2090179";40.0;"L";"Non"
2012;"2090180";38016.0;"L";"Non"
2012;"2090182";602.0;"K";"Non"
2012;"2090183";19808.0;"K";"Non"
2012;"2090185";7845.0;"K";"Non"
2012;"2090186";237582.5;"L";"Non"
2012;"2090187";1950.0;"L";"Non"
2012;"2090188";384389.6;"L";"Non"
2012;"2090189";42728.0;"L";"Non"
2012;"2090190";153069.7;"L";"Non"
2012;"2090191";62772.0;"L";"Non"
2012;"2090195";501.3;"L";"Non"
2012;"2090197";54847.5;"K";"Non"
2012;"2090199";9604.5;"L";"Oui"
2012;"2090200";28063.0;"L";"Oui"
2012;"2090201";5090.0;"L";"Non"
2012;"2100001";64795.0;"L";"Non"
2012;"2100002";33533.4;"L";"Non"
2012;"2100004";179453.3;"L";"Oui"
2012;"2100005";7.5;"L";"Oui"
2012;"2100006";1.0;"L";"Oui"
2012;"2100009";24843.9;"K";"Non"
2012;"2100011";1815.0;"L";"Non"
2012;"2100012";295.0;"L";"Non"
2012;"2100014";7775.9;"K";"Non"
2012;"2100015";573.9;"K";"Non"
2012;"2100016";25.9;"K";"Non"
2012;"2100018";20690.9;"L";"Non"
2012;"2100025";1450.0;"L";"Non"
2012;"2100026";45316.3;"L";"Non"
2012;"2100028";25401.0;"L";"Non"
2012;"2100029";12382.0;"L";"Non"
2012;"2100030";636310.0;"K";"Non"
2012;"2100031";30.0;"L";"Non"
2012;"2100032";750.0;"L";"Non"
2012;"2100034";33685.0;"L";"Non"
2012;"2100035";3105.0;"L";"Non"
2012;"2100036";1920.9;"K";"Non"
2012;"2100037";53602.4;"L";"Non"
2012;"2100038";19253.0;"K";"Non"
2012;"2100040";315148.8;"L";"Non"
2012;"2100041";109299.5;"L";"Non"
2012;"2100044";15.0;"L";"Non"
2012;"2100046";360.0;"L";"Non"
2012;"2100050";540.0;"L";"Non"
2012;"2100051";1047.4;"L";"Non"
2012;"2100052";389587.2;"L";"Non"
2012;"2100053";2488.9;"L";"Non"
2012;"2100056";274000.6;"L";"Non"
2012;"2100057";366059.9;"L";"Non"
2012;"2100058";922.0;"K";"Non"
2012;"2100059";56104.8;"L";"Non"
2012;"2100060";16786.6;"L";"Non"
2012;"2100061";111.0;"K";"Oui"
2012;"2100062";8872.0;"K";"Non"
2012;"2100064";490.8;"K";"Non"
2012;"2100065";7095.0;"K";"Non"
2012;"2100066";1265.1;"K";"Non"
2012;"2100067";1806.5;"K";"Non"
2012;"2100069";962.3;"K";"Non"
2012;"2100071";234132.7;"L";"Non"
2012;"2100075";14088.0;"K";"Non"
2012;"2100078";54018.7;"L";"Oui"
2012;"2100083";46918.7;"L";"Oui"
2012;"2100084";9.0;"L";"Non"
2012;"2100086";50.0;"K";"Non"
2012;"2100087";250.0;"L";"Non"
2012;"2100091";400.0;"L";"Non"
2012;"2100092";483.0;"L";"Non"
2012;"2100095";503991.4;"L";"Non"
2012;"2100098";107423.8;"L";"Non"
2012;"2100099";1.0;"L";"Oui"
2012;"2100100";194063.1;"L";"Oui"
2012;"2100102";35504.5;"L";"Non"
2012;"2100104";2250.0;"K";"Non"
2012;"2100105";30.0;"L";"Non"
2012;"2100106";1838.4;"K";"Non"
2012;"2100107";4070.0;"L";"Non"
2012;"2100108";852434.5;"L";"Non"
2012;"2100110";58615.4;"L";"Non"
2012;"2100111";403937.3;"L";"Non"
2012;"2100112";39460.0;"L";"Non"
2012;"2100113";7620.0;"L";"Non"
2012;"2100114";756.0;"K";"Non"
2012;"2100116";21185.0;"L";"Non"
2012;"2100121";24920.8;"L";"Non"
2012;"2100122";2444.8;"K";"Non"
2012;"2100124";3705.0;"L";"Non"
2012;"2100126";2.0;"K";"Non"
2012;"2100130";602.0;"L";"Non"
2012;"2100132";1630.0;"L";"Non"
2012;"2100133";3650.0;"L";"Non"
2012;"2100135";637.9;"L";"Non"
2012;"2100137";680.0;"L";"Non"
2012;"2100138";842984.5;"L";"Non"
2012;"2100140";174761.9;"L";"Non"
2012;"2100142";19595.0;"L";"Non"
2012;"2100143";230.0;"L";"Non"
2012;"2100144";17134.0;"K";"Non"
2012;"2100147";187.5;"K";"Non"
2012;"2100149";6352.8;"L";"Non"
2012;"2100151";120970.0;"L";"Non"
2012;"2100152";31391.3;"K";"Non"
2012;"2100153";3634.9;"L";"Non"
2012;"2100154";77545.4;"L";"Non"
2012;"2100155";78.8;"L";"Non"
2012;"2100156";15260.0;"L";"Non"
2012;"2100157";22479.0;"L";"Non"
2012;"2100162";19077.0;"K";"Non"
2012;"2100164";210.0;"L";"Non"
2012;"2100165";27832.1;"L";"Oui"
2012;"2100167";32790.0;"K";"Non"
2012;"2100170";425.0;"L";"Non"
2012;"2100173";370.0;"L";"Non"
2012;"2100174";22000.0;"L";"Non"
2012;"2100175";5.2;"L";"Non"
2012;"2100177";27230.7;"K";"Non"
2012;"2100178";70454.7;"K";"Non"
2012;"2100179";80824.1;"L";"Non"
2012;"2100180";23.8;"L";"Non"
2012;"2100181";117675.8;"K";"Non"
2012;"2100182";240143.2;"L";"Non"
2012;"2100183";5608.0;"L";"Non"
2012;"2100184";646.0;"K";"Non"
2012;"2100185";101492.1;"L";"Non"
2012;"2100191";1392.0;"L";"Non"
2012;"2100192";13475.0;"K";"Non"
2012;"2100193";2465.0;"L";"Non"
2012;"2100194";2524.0;"L";"Non"
2012;"2100199";350.0;"L";"Non"
2012;"2100203";123.0;"L";"Oui"
2012;"2100204";60.0;"L";"Non"
2012;"2100205";1245.0;"L";"Non"
2012;"2100206";55670.0;"L";"Non"
2012;"2100207";5.0;"K";"Non"
2012;"2100208";19460.0;"L";"Non"
2012;"2100209";976.2;"K";"Non"
2012;"2100211";19199.0;"L";"Non"
2012;"2100212";1103.0;"K";"Non"
2012;"2100214";7399.7;"L";"Non"
2012;"2100215";88433.4;"L";"Non"
2012;"2100216";966.8;"K";"Non"
2012;"2100218";190528.9;"K";"Non"
2012;"2100219";62594.8;"L";"Oui"
2012;"2100220";131.7;"L";"Oui"
2012;"2100221";324939.1;"K";"Non"
2012;"2100223";195.0;"L";"Non"
2012;"2100226";1065.0;"L";"Non"
2012;"2100227";1575.0;"L";"Non"
2012;"2100229";8500.0;"L";"Non"
2012;"2100230";1450.0;"L";"Non"
2012;"2100231";182628.1;"K";"Non"
2012;"2100234";125264.2;"L";"Non"
2012;"2100235";41920.0;"L";"Non"
2012;"2100240";323.0;"L";"Oui"
2012;"2100241";1739.9;"K";"Non"
2012;"2100244";156113.0;"L";"Non"
2012;"2100245";1045.0;"L";"Non"
2012;"2110001";24.7;"K";"Non"
2012;"2110003";4659.0;"L";"Non"
2012;"2110004";3613.0;"L";"Non"
2012;"2110005";4180.0;"L";"Non"
2012;"2110006";3740.0;"K";"Non"
2012;"2110007";137.7;"K";"Non"
2012;"2110008";7085.0;"L";"Non"
2012;"2110009";31.0;"L";"Non"
2012;"2110010";136.9;"K";"Non"
2012;"2110011";9235.7;"L";"Non"
2012;"2110012";169359.6;"L";"Non"
2012;"2110013";29381.4;"L";"Non"
2012;"2110018";324772.2;"L";"Non"
2012;"2110020";17.0;"L";"Non"
2012;"2110025";4196.0;"L";"Non"
2012;"2110027";1420.0;"K";"Non"
2012;"2110028";270.0;"L";"Non"
2012;"2110029";22.0;"K";"Non"
2012;"2110030";10.8;"L";"Non"
2012;"2110033";22527.1;"L";"Oui"
2012;"2110035";3.0;"L";"Non"
2012;"2110038";251.0;"K";"Non"
2012;"2110040";2109.1;"K";"Oui"
2012;"2110041";8753.0;"L";"Non"
2012;"2110044";322.0;"L";"Non"
2012;"2110045";425.0;"L";"Non"
2012;"2110046";2896.0;"K";"Non"
2012;"2110048";0.2;"K";"Non"
2012;"2110049";695.0;"L";"Non"
2012;"2110050";15485.0;"L";"Non"
2012;"2110052";1375.0;"L";"Non"
2012;"2110054";195.0;"K";"Non"
2012;"2110055";1423.0;"K";"Non"
2012;"2110056";2205.0;"L";"Non"
2012;"2110059";4655.0;"K";"Non"
2012;"2110060";67891.8;"K";"Non"
2012;"2110063";5833.0;"K";"Non"
2012;"2110068";478176.2;"L";"Non"
2012;"2110069";16960.0;"L";"Non"
2012;"2110070";45.0;"L";"Non"
2012;"2110072";109.8;"K";"Non"
2012;"2110073";13944.6;"L";"Non"
2012;"2110074";3850.4;"K";"Non"
2012;"2110076";7461.1;"L";"Non"
2012;"2110077";16392.0;"L";"Non"
2012;"2110078";20299.0;"L";"Non"
2012;"2110080";71.4;"L";"Non"
2012;"2110082";3630.1;"K";"Non"
2012;"2110083";45475.8;"L";"Oui"
2012;"2110084";11160.7;"L";"Oui"
2012;"2110086";44303.0;"L";"Non"
2012;"2110088";1370.0;"L";"Non"
2012;"2110090";20717.5;"L";"Non"
2012;"2110091";225.0;"L";"Non"
2012;"2110095";60310.3;"L";"Non"
2012;"2110096";4314.8;"L";"Non"
2012;"2110097";24495.0;"L";"Non"
2012;"2110098";1375.0;"L";"Non"
2012;"2110101";766.3;"L";"Non"
2012;"2110102";76075.2;"L";"Non"
2012;"2110103";43.7;"K";"Non"
2012;"2110105";28856.8;"L";"Non"
2012;"2110107";14570.0;"L";"Non"
2012;"2110108";2377.8;"L";"Non"
2012;"2110109";284951.4;"L";"Non"
2012;"2110111";130042.8;"L";"Non"
2012;"2110115";2076.0;"L";"Non"
2012;"2110117";18195.0;"L";"Non"
2012;"2110118";178.5;"L";"Non"
2012;"2110121";82.4;"L";"Non"
2012;"2110125";10.0;"L";"Non"
2012;"2110126";297.0;"L";"Non"
2012;"2110128";2850.0;"L";"Non"
2012;"2110134";716.0;"K";"Non"
2012;"2110135";6321.1;"L";"Oui"
2012;"2110137";279.0;"L";"Non"
2012;"2110139";778.0;"L";"Non"
2012;"2110141";71323.0;"L";"Non"
2012;"2110142";1107.4;"L";"Non"
2012;"2110143";2835.0;"L";"Non"
2012;"2110144";4958.0;"L";"Non"
2012;"2110145";50.0;"L";"Non"
2012;"2110146";544.1;"L";"Oui"
2012;"2110147";9824.1;"K";"Non"
2012;"2110149";39058.5;"L";"Oui"
2012;"2110151";45127.0;"L";"Non"
2012;"2110152";6717.0;"L";"Non"
2012;"2110153";14200.0;"L";"Non"
2012;"2110154";360.0;"L";"Non"
2012;"2110156";30.0;"L";"Non"
2012;"2110159";316.8;"L";"Oui"
2012;"2110160";132.6;"L";"Oui"
2012;"2110161";261.0;"L";"Non"
2012;"2110162";18234.9;"L";"Non"
2012;"2110163";300.0;"L";"Non"
2012;"2110164";585.0;"L";"Non"
2012;"2110165";6228.0;"L";"Non"
2012;"2110166";0.3;"L";"Non"
2012;"2110168";19.0;"L";"Non"
2012;"2110170";924787.2;"L";"Non"
2012;"2110173";60468.4;"K";"Non"
2012;"2110174";94.5;"L";"Oui"
2012;"2110177";780271.0;"L";"Non"
2012;"2110178";447410.1;"L";"Non"
2012;"2110179";2547.3;"K";"Non"
2012;"2110180";2.8;"K";"Oui"
2012;"2110181";182887.5;"L";"Non"
2012;"2110187";5570.0;"K";"Non"
2012;"2110188";3895.0;"L";"Non"
2012;"2110191";34275.0;"L";"Non"
2012;"2110194";377170.3;"L";"Non"
2012;"2110195";1.0;"K";"Non"
2012;"2110200";1684.4;"L";"Non"
2012;"2110201";12578.0;"L";"Non"
2012;"2110202";450.0;"L";"Non"
2012;"2120005";76.0;"L";"Non"
2012;"2120012";290.0;"K";"Non"
2012;"2120015";486.1;"L";"Oui"
2012;"2120018";222.1;"L";"Oui"
2012;"2120019";312.0;"L";"Oui"
2012;"2120020";9.0;"L";"Oui"
2012;"2120028";2950.0;"L";"Non"
2012;"2120030";3343.8;"K";"Non"
2012;"2120032";124895.0;"L";"Non"
2012;"2120034";208395.5;"L";"Non"
2012;"2120036";120.0;"L";"Non"
2012;"2120038";330.0;"K";"Non"
2012;"2120041";60.0;"L";"Non"
2012;"2120042";26.0;"K";"Non"
2012;"2120045";81.0;"L";"Non"
2012;"2120048";22.0;"L";"Non"
2012;"2120049";459.0;"L";"Non"
2012;"2120053";15.0;"L";"Non"
2012;"2120054";335.0;"L";"Non"
2012;"2120058";20740.0;"L";"Non"
2012;"2120059";61080.0;"L";"Non"
2012;"2120060";5100.0;"L";"Non"
2012;"2120063";390.5;"L";"Oui"
2012;"2120066";13647.0;"L";"Non"
2012;"2120067";4170.0;"K";"Non"
2012;"2120068";915.0;"L";"Non"
2012;"2120070";6816.0;"L";"Non"
2012;"2120081";821.0;"L";"Non"
2012;"2120086";13154.0;"L";"Non"
2012;"2120087";260.7;"K";"Non"
2012;"2120088";1510.0;"K";"Non"
2012;"2120089";66.0;"L";"Non"
2012;"2120093";1430.0;"L";"Non"
2012;"2120099";2070.0;"L";"Non"
2012;"2120117";1080.0;"L";"Non"
2012;"2120120";948.0;"L";"Non"
2012;"2120128";2.4;"K";"Non"
2012;"2120132";6600.0;"K";"Non"
2012;"2120133";122.8;"L";"Oui"
2012;"2120143";9330.0;"L";"Non"
2012;"2120150";858.0;"L";"Oui"
2012;"2120153";6740.0;"L";"Non"
2012;"2120154";4490.0;"L";"Non"
2012;"2120155";57.1;"L";"Oui"
2012;"2120159";343.5;"L";"Non"
2012;"2120160";15.0;"L";"Non"
2012;"2120168";1250.0;"K";"Non"
2012;"2120170";290.0;"L";"Non"
2012;"2120174";21.8;"L";"Oui"
2012;"2120179";5904.0;"K";"Non"
2012;"2130040";1.0;"L";"Oui"
2012;"4000328";27825.0;"K";"Non"
2012;"4500171";29644.9;"K";"Non"
2012;"5000014";7890.0;"K";"Non"
2012;"5000233";50.0;"K";"Non"
2012;"5100219";2701603.0;"K";"Non"
2012;"5200079";45.3;"K";"Non"
2012;"5400131";8.0;"K";"Non"
2012;"5500179";25978.0;"L";"Non"
2012;"5700194";975.0;"K";"Oui"
2012;"5900316";30.0;"K";"Non"
2012;"5900368";8990.0;"K";"Non"
2012;"6000067";547210.5;"L";"Non"
2012;"6000274";23.0;"L";"Non"
2012;"6000328";7.0;"L";"Oui"
2012;"6100163";231.0;"L";"Non"
2012;"6100363";940.0;"K";"Oui"
2012;"6100386";427.8;"L";"Non"
2012;"6100416";800.0;"K";"Non"
2012;"6200015";4768.0;"K";"Oui"
2012;"6200075";61668.2;"K";"Non"
2012;"6200369";15.0;"K";"Non"
2012;"6200445";200775.0;"K";"Non"
2012;"6300001";36344.5;"K";"Non"
2012;"6400161";620.0;"K";"Non"
2012;"6400243";1000.0;"K";"Non"
2012;"6400401";64555.3;"K";"Non"
2012;"6500193";10442.0;"L";"Non"
2012;"6500395";3572.0;"L";"Non"
2012;"6500400";15.2;"K";"Oui"
2012;"6500402";616685.8;"L";"Non"
2012;"6600031";7045.0;"K";"Non"
2012;"6600074";52.9;"L";"Oui"
2012;"6600112";27.6;"K";"Oui"
2012;"6600289";810.0;"K";"Non"
2012;"6600312";80.0;"L";"Non"
2012;"6600322";4335.0;"L";"Non"
2012;"6600323";4247.0;"L";"Non"
2012;"6600357";16730.0;"L";"Non"
2012;"6600397";500.9;"K";"Oui"
2012;"6600494";2.0;"L";"Non"
2012;"6600499";790.0;"L";"Non"
2012;"6600501";72070.0;"L";"Non"
2012;"6600523";11.0;"K";"Non"
2012;"6700157";650.0;"K";"Non"
2012;"6700240";4500.0;"L";"Non"
2012;"6700241";100.0;"L";"Non"
2012;"6700288";957.5;"L";"Non"
2012;"6700315";50.0;"K";"Non"
2012;"6700350";4499.0;"L";"Non"
2012;"6700395";905545.1;"K";"Non"
2012;"6800258";63143.5;"K";"Non"
2012;"6800301";6259.0;"L";"Non"
2012;"6800310";5.0;"K";"Non"
2012;"6800326";22991.2;"K";"Non"
2012;"6800403";152630.0;"K";"Non"
2012;"6800446";55.0;"K";"Non"
2012;"6900088";75.0;"K";"Non"
2012;"6900268";160.0;"K";"Non"
2012;"6900313";125337.5;"L";"Non"
2012;"6900376";34415.6;"K";"Oui"
2012;"6900381";268.0;"K";"Non"
2012;"6900396";3479.2;"K";"Non"
2012;"6900472";3440.8;"K";"Oui"
2012;"6900486";14707.5;"L";"Oui"
2012;"7000022";5763.0;"L";"Non"
2012;"7000023";4045.0;"L";"Non"
2012;"7000041";184.1;"L";"Non"
2012;"7000083";227.0;"L";"Non"
2012;"7000102";3607.1;"L";"Oui"
2012;"7000117";100.0;"K";"Non"
2012;"7000169";133.3;"K";"Non"
2012;"7000338";66.0;"K";"Non"
2012;"7000387";98098.5;"L";"Non"
2012;"7000391";25757.5;"L";"Non"
2012;"7100057";421.0;"L";"Non"
2012;"7100280";167134.5;"L";"Non"
2012;"7100322";4875.0;"K";"Non"
2012;"7100334";410272.2;"K";"Non"
2012;"7100336";80.0;"K";"Non"
2012;"7100402";43427.0;"L";"Non"
2012;"7200137";1100.0;"K";"Non"
2012;"7200150";2160.0;"K";"Non"
2012;"7200170";188.3;"K";"Oui"
2012;"7200224";14.1;"L";"Oui"
2012;"7300097";7200.0;"K";"Non"
2012;"7300134";5.0;"K";"Oui"
2012;"7300140";0.4;"L";"Non"
2012;"7300221";205833.0;"L";"Non"
2012;"7300358";13440.0;"K";"Non"
2012;"7300416";35705.0;"K";"Non"
2012;"7300448";4.0;"L";"Non"
2012;"7400057";324563.7;"L";"Non"
2012;"7400115";233202.0;"L";"Non"
2012;"7400177";16184.0;"K";"Non"
2012;"7400367";420.0;"L";"Non"
2012;"7400610";210.2;"L";"Oui"
2012;"7400619";26167.4;"K";"Non"
2012;"7400634";390.2;"K";"Oui"
2012;"7400636";135.5;"K";"Non"
2012;"7400648";122.0;"K";"Non"
2012;"7400649";1928.3;"K";"Non"
2012;"7400650";1653.0;"L";"Non"
2012;"7400657";15900.0;"K";"Non"
2012;"7400660";9120.0;"K";"Non"
2012;"7400677";583.0;"L";"Non"
2012;"7400755";33900.0;"K";"Non"
2012;"7400758";13.0;"L";"Non"
2012;"7400815";1299921.3;"L";"Non"
2012;"7500004";4646.3;"L";"Oui"
2012;"7500037";927.7;"K";"Non"
2012;"7500071";739357.7;"K";"Non"
2012;"7500239";501.2;"K";"Oui"
2012;"7500242";2.0;"K";"Oui"
2012;"7500277";10.0;"K";"Oui"
2012;"7500373";452.0;"K";"Non"
2012;"7500401";8701.0;"L";"Non"
2012;"7500464";12.8;"K";"Oui"
2012;"7500518";1049445.0;"L";"Non"
2012;"7500524";115463.5;"K";"Non"
2012;"7500540";18774.6;"K";"Oui"
2012;"7500569";18844.4;"K";"Non"
2012;"7500589";52741.9;"K";"Oui"
2012;"7500612";670.0;"K";"Non"
2012;"7500716";299517.2;"K";"Non"
2012;"7600008";39114.0;"L";"Non"
2012;"7600116";124232.0;"L";"Non"
2012;"7600137";1212.7;"L";"Non"
2012;"7600146";11.5;"K";"Oui"
2012;"7600156";6.0;"L";"Oui"
2012;"7600237";40.0;"K";"Non"
2012;"7600246";195.1;"K";"Non"
2012;"7600285";51.6;"L";"Non"
2012;"7600310";325435.0;"K";"Non"
2012;"7600426";6.0;"L";"Non"
2012;"7600465";1015.0;"K";"Non"
2012;"7600471";119405.9;"K";"Non"
2012;"7600487";2280.0;"K";"Non"
2012;"7600557";42885.0;"L";"Non"
2012;"7700078";422822.5;"L";"Non"
2012;"7700216";353662.3;"L";"Non"
2012;"7700220";20974.0;"K";"Non"
2012;"7700326";80.0;"K";"Non"
2012;"7700568";5525.0;"K";"Oui"
2012;"7700681";5550.0;"K";"Non"
2012;"7700703";428931.7;"L";"Non"
2012;"7700706";299737.6;"K";"Oui"
2012;"7700788";3.3;"K";"Oui"
2012;"7800132";50301.1;"L";"Non"
2012;"7800305";25825.0;"K";"Non"
2012;"7800427";2130.0;"L";"Non"
2012;"7800481";10.0;"L";"Oui"
2012;"7800520";5.0;"K";"Non"
2012;"7800536";23428.0;"L";"Non"
2012;"7800547";70.0;"K";"Non"
2012;"7800575";10510.0;"L";"Non"
2012;"7800586";47.3;"K";"Non"
2012;"7800609";3.0;"L";"Non"
2012;"7800656";2345.0;"L";"Non"
2012;"7800790";1440.0;"L";"Non"
2012;"7900043";20.0;"K";"Non"
2012;"7900160";25.0;"L";"Non"
2012;"7900200";18115.9;"K";"Oui"
2012;"7900323";4910.0;"L";"Non"
2012;"7900379";35.0;"K";"Oui"
2012;"7900435";330.5;"L";"Oui"
2012;"7900590";5.0;"L";"Non"
2012;"7900708";189862.0;"L";"Non"
2012;"7900721";7777.0;"L";"Non"
2012;"7900732";33996.0;"K";"Non"
2012;"7900753";28406.6;"L";"Non"
2012;"7900754";3068.0;"L";"Non"
2012;"8000014";1570.0;"K";"Non"
2012;"8000045";39775.5;"L";"Non"
2012;"8000084";126585.5;"L";"Non"
2012;"8000108";85.0;"L";"Non"
2012;"8000144";30211.0;"K";"Non"
2012;"8000150";1175.0;"K";"Non"
2012;"8000156";4651.0;"L";"Non"
2012;"8000169";1515.3;"K";"Oui"
2012;"8000193";2.7;"K";"Non"
2012;"8000273";25.0;"K";"Non"
2012;"8000319";0.9;"K";"Non"
2012;"8000330";1040.0;"L";"Non"
2012;"8000350";1450.0;"K";"Non"
2012;"8000374";3980.0;"L";"Non"
2012;"8000624";151.6;"K";"Oui"
2012;"8100006";10113.1;"L";"Non"
2012;"8100071";1656.0;"K";"Non"
2012;"8100164";6516.0;"L";"Non"
2012;"8100198";110341.5;"K";"Non"
2012;"8100226";0.6;"K";"Oui"
2012;"8100236";1152.3;"K";"Oui"
2012;"8100268";2915.0;"L";"Non"
2012;"8100283";49390.4;"L";"Non"
2012;"8100287";170.0;"L";"Non"
2012;"8100291";40231.5;"L";"Non"
2012;"8100342";156.4;"L";"Non"
2012;"8100345";13570.6;"K";"Non"
2012;"8100444";2580.0;"L";"Non"
2012;"8100460";12208.0;"K";"Oui"
2012;"8100462";13579.9;"K";"Oui"
2012;"8100463";376.3;"K";"Non"
2012;"8100472";7274.0;"L";"Non"
2012;"8100516";35.5;"K";"Oui"
2012;"8100548";408.5;"K";"Oui"
2012;"8200024";1630.0;"K";"Non"
2012;"8200029";4065.2;"K";"Non"
2012;"8200060";4960.0;"L";"Non"
2012;"8200068";705.0;"L";"Non"
2012;"8200124";33330.0;"L";"Non"
2012;"8200198";1390.0;"K";"Non"
2012;"8200199";10774.0;"L";"Non"
2012;"8200216";3500.0;"L";"Non"
2012;"8200295";82.0;"K";"Oui"
2012;"8200307";89485.0;"L";"Non"
2012;"8200346";39.0;"K";"Oui"
2012;"8200385";31250.0;"L";"Non"
2012;"8200389";1120.0;"K";"Non"
2012;"8200396";60.0;"L";"Non"
2012;"8200404";299000.1;"L";"Non"
2012;"8200422";1.0;"L";"Non"
2012;"8200489";784.8;"L";"Non"
2012;"8200538";28116.2;"L";"Non"
2012;"8200575";38986.9;"L";"Non"
2012;"8300025";17902.0;"L";"Oui"
2012;"8300032";16183.1;"L";"Oui"
2012;"8300053";22.0;"K";"Oui"
2012;"8300063";51769.9;"L";"Non"
2012;"8300092";4000.0;"L";"Non"
2012;"8300214";10.7;"L";"Non"
2012;"8300243";293697.0;"L";"Non"
2012;"8300270";160020.0;"L";"Non"
2012;"8300348";2280.0;"L";"Non"
2012;"8300377";10.0;"L";"Non"
2012;"8300378";2167.9;"K";"Non"
2012;"8300403";3970.0;"K";"Non"
2012;"8300429";11410.0;"L";"Non"
2012;"8300436";57.0;"K";"Non"
2012;"8300451";4561.0;"L";"Non"
2012;"8300455";426.5;"L";"Non"
2012;"8300464";17.1;"L";"Oui"
2012;"8300489";50.0;"K";"Non"
2012;"8400005";674.6;"K";"Non"
2012;"8400032";8.4;"K";"Oui"
2012;"8400055";94164.0;"L";"Non"
2012;"8400091";129.6;"L";"Non"
2012;"8400096";177540.6;"L";"Non"
2012;"8400098";4300.6;"L";"Oui"
2012;"8400108";15466.3;"L";"Oui"
2012;"8400145";644.7;"K";"Oui"
2012;"8400155";7350.0;"K";"Non"
2012;"8400171";7150.0;"K";"Non"
2012;"8400175";75.0;"K";"Non"
2012;"8400190";9859.5;"L";"Non"
2012;"8400214";150.0;"K";"Non"
2012;"8400215";164685.7;"K";"Non"
2012;"8400239";4.0;"L";"Non"
2012;"8400242";988064.0;"L";"Non"
2012;"8400249";815.0;"L";"Non"
2012;"8400255";5631.0;"K";"Non"
2012;"8400276";83.7;"K";"Oui"
2012;"8400278";273.9;"L";"Oui"
2012;"8400358";54.0;"K";"Non"
2012;"8400364";435.0;"L";"Oui"
2012;"8400425";60042.0;"K";"Non"
2012;"8400447";70383.2;"K";"Non"
2012;"8400448";1036.2;"L";"Oui"
2012;"8400475";255.3;"K";"Non"
2012;"8400477";53587.9;"K";"Non"
2012;"8400491";82.0;"L";"Non"
2012;"8400499";29947.0;"K";"Non"
2012;"8400520";2536.0;"K";"Non"
2012;"8400521";5619.0;"L";"Non"
2012;"8400528";182870.5;"L";"Non"
2012;"8400537";2404.3;"K";"Non"
2012;"8400539";7.0;"K";"Non"
2012;"8400549";7040.4;"K";"Oui"
2012;"8400567";110.6;"L";"Oui"
2012;"8400574";517987.8;"L";"Non"
2012;"8400600";41459.4;"L";"Non"
2012;"8500011";285674.5;"L";"Non"
2012;"8500023";133402.0;"K";"Non"
2012;"8500038";8.0;"L";"Non"
2012;"8500076";20.0;"L";"Non"
2012;"8500093";230.0;"L";"Non"
2012;"8500160";123124.2;"L";"Non"
2012;"8500166";13.0;"L";"Oui"
2012;"8500174";27683.5;"L";"Non"
2012;"8500183";9853.6;"K";"Oui"
2012;"8500194";18481.3;"L";"Non"
2012;"8500198";277.1;"L";"Oui"
2012;"8500216";350.0;"K";"Oui"
2012;"8500219";100.0;"K";"Non"
2012;"8500277";3975.0;"L";"Non"
2012;"8500278";2735.0;"L";"Non"
2012;"8500289";2.0;"L";"Non"
2012;"8500290";4.0;"L";"Non"
2012;"8500295";35570.0;"L";"Non"
2012;"8500319";34077.7;"L";"Non"
2012;"8500321";6157.0;"K";"Non"
2012;"8500347";20660.3;"K";"Oui"
2012;"8500348";9747.6;"K";"Oui"
2012;"8500350";473.5;"L";"Non"
2012;"8500351";42796.0;"K";"Oui"
2012;"8500352";316.3;"K";"Non"
2012;"8500354";70.0;"K";"Non"
2012;"8500408";4450.0;"L";"Non"
2012;"8500412";18040.0;"K";"Non"
2012;"8500426";225.0;"K";"Non"
2012;"8500455";185.0;"K";"Non"
2012;"8500469";8668.5;"K";"Non"
2012;"8500470";126000.0;"L";"Non"
2012;"8500493";382221.3;"L";"Non"
2012;"8500616";434.4;"L";"Non"
2012;"8500683";181455.8;"L";"Non"
2012;"8500689";92314.0;"L";"Non"
2012;"8500699";9767.0;"L";"Non"
2012;"8500700";295.6;"L";"Non"
2012;"8500703";219.0;"K";"Non"
2012;"8500704";225.0;"K";"Non"
2012;"8600003";5455.0;"K";"Non"
2012;"8600014";1.0;"K";"Oui"
2012;"8600023";3.4;"L";"Non"
2012;"8600027";53719.4;"K";"Non"
2012;"8600028";21819.0;"L";"Non"
2012;"8600031";310270.0;"L";"Non"
2012;"8600051";20.4;"L";"Oui"
2012;"8600063";6179.3;"K";"Oui"
2012;"8600068";100483.4;"L";"Non"
2012;"8600073";7689.5;"K";"Non"
2012;"8600083";305.0;"L";"Non"
2012;"8600106";128.0;"L";"Non"
2012;"8600110";4.0;"K";"Oui"
2012;"8600196";6527.1;"L";"Non"
2012;"8600232";137990.1;"L";"Non"
2012;"8600241";0.1;"K";"Oui"
2012;"8600243";720560.0;"L";"Oui"
2012;"8600244";1785.0;"L";"Non"
2012;"8600262";5115.1;"K";"Oui"
2012;"8600269";105.0;"L";"Non"
2012;"8600301";17063.0;"L";"Non"
2012;"8600313";195102.0;"L";"Non"
2012;"8600330";2215.0;"L";"Non"
2012;"8600349";6861.8;"K";"Oui"
2012;"8600380";437.8;"K";"Oui"
2012;"8600389";15760.0;"L";"Non"
2012;"8600395";14510.5;"K";"Oui"
2012;"8600404";3.8;"K";"Oui"
2012;"8600419";2.4;"K";"Non"
2012;"8600420";14.1;"L";"Non"
2012;"8600470";150.0;"K";"Non"
2012;"8600519";10.6;"L";"Oui"
2012;"8600526";2.5;"K";"Oui"
2012;"8600539";13.0;"L";"Non"
2012;"8600540";180.0;"L";"Non"
2012;"8600562";3262.0;"L";"Non"
2012;"8600564";1.0;"K";"Non"
2012;"8600622";240.7;"L";"Oui"
2012;"8600644";2.2;"K";"Oui"
2012;"8600646";0.8;"K";"Oui"
2012;"8600659";28.4;"K";"Oui"
2012;"8600664";202285.7;"K";"Non"
2012;"8700002";243823.5;"L";"Non"
2012;"8700012";106126.3;"L";"Non"
2012;"8700013";3133.0;"L";"Non"
2012;"8700015";24.0;"K";"Non"
2012;"8700019";250.0;"L";"Non"
2012;"8700020";421147.6;"L";"Non"
2012;"8700035";14934.0;"L";"Non"
2012;"8700073";3.6;"L";"Oui"
2012;"8700102";67539.0;"L";"Non"
2012;"8700107";325664.8;"K";"Non"
2012;"8700111";6239.7;"K";"Oui"
2012;"8700117";1700.0;"K";"Non"
2012;"8700118";145514.0;"L";"Non"
2012;"8700155";538.5;"K";"Oui"
2012;"8700166";1120.0;"K";"Non"
2012;"8700174";126.0;"L";"Non"
2012;"8700177";79339.0;"K";"Non"
2012;"8700185";33.9;"L";"Oui"
2012;"8700194";38.0;"K";"Non"
2012;"8700196";6834.0;"L";"Non"
2012;"8700210";611.0;"K";"Oui"
2012;"8700240";162232.0;"L";"Non"
2012;"8700258";31074.8;"K";"Non"
2012;"8700300";266.0;"L";"Non"
2012;"8700304";2820378.1;"K";"Non"
2012;"8700305";10465.0;"K";"Non"
2012;"8700319";25.0;"K";"Non"
2012;"8700357";5.0;"L";"Non"
2012;"8700408";162495.5;"L";"Non"
2012;"8700444";4354.0;"L";"Non"
2012;"8700449";34448.0;"L";"Non"
2012;"8700457";40.0;"K";"Non"
2012;"8700458";3630.1;"L";"Non"
2012;"8700462";968422.2;"L";"Non"
2012;"8700472";391.6;"L";"Non"
2012;"8700485";0.2;"K";"Oui"
2012;"8700506";7603.1;"L";"Oui"
2012;"8700525";58961.0;"K";"Non"
2012;"8700530";11931.2;"L";"Non"
2012;"8700542";199437.5;"L";"Non"
2012;"8700544";30.0;"K";"Oui"
2012;"8700571";15700.0;"L";"Non"
2012;"8700621";17455.3;"L";"Oui"
2012;"8700627";395.0;"L";"Non"
2012;"8700638";60.0;"L";"Non"
2012;"8700670";256.1;"K";"Oui"
2012;"8700687";38114.0;"L";"Non"
2012;"8700702";113036.0;"K";"Non"
2012;"8700724";870.0;"L";"Non"
2012;"8700737";400.0;"L";"Non"
2012;"8700746";5331.0;"K";"Non"
2012;"8700749";152.0;"L";"Non"
2012;"8700752";50.0;"L";"Non"
2012;"8720669";5099.0;"K";"Oui"
2012;"8800001";500.3;"K";"Oui"
2012;"8800006";26282.5;"L";"Non"
2012;"8800011";385062.6;"L";"Non"
2012;"8800028";121205.7;"L";"Non"
2012;"8800029";470167.0;"L";"Non"
2012;"8800035";2724.0;"L";"Non"
2012;"8800061";169321.0;"L";"Non"
2012;"8800101";23.0;"K";"Non"
2012;"8800108";5950.2;"L";"Non"
2012;"8800140";2400.0;"L";"Non"
2012;"8800142";292549.9;"L";"Non"
2012;"8800161";166035.9;"L";"Non"
2012;"8800171";132.0;"K";"Non"
2012;"8800191";2317.0;"L";"Non"
2012;"8800199";33678.2;"L";"Non"
2012;"8800287";5502.3;"L";"Oui"
2012;"8800312";6.0;"L";"Non"
2012;"8800322";20.0;"L";"Non"
2012;"8800335";2573.8;"L";"Oui"
2012;"8800365";11.2;"L";"Non"
2012;"8800395";438274.3;"L";"Non"
2012;"8800417";40050.0;"L";"Non"
2012;"8800423";11579.0;"K";"Non"
2012;"8800425";39.5;"L";"Oui"
2012;"8800445";37.8;"K";"Oui"
2012;"8800469";7319.2;"L";"Oui"
2012;"8800488";313245.4;"L";"Non"
2012;"8800493";540.0;"L";"Non"
2012;"8800494";10230.0;"L";"Non"
2012;"8800498";3786.0;"K";"Non"
2012;"8800499";238.3;"K";"Oui"
2012;"8800501";167.0;"L";"Non"
2012;"8800502";152.0;"K";"Non"
2012;"8800504";26123.7;"L";"Non"
2012;"8800519";19954.1;"K";"Oui"
2012;"8800531";93928.9;"K";"Non"
2012;"8800532";40504.0;"L";"Non"
2012;"8800534";389457.3;"K";"Oui"
2012;"8800535";960.0;"K";"Non"
2012;"8800550";941.6;"L";"Non"
2012;"8800552";712.6;"K";"Non"
2012;"8800558";187.4;"K";"Oui"
2012;"8800567";61.4;"K";"Non"
2012;"8800591";5.0;"L";"Non"
2012;"8800603";397510.5;"L";"Non"
2012;"8800633";658.0;"K";"Non"
2012;"8800647";15.0;"L";"Non"
2012;"8800648";770.0;"L";"Non"
2012;"8800650";1515.5;"L";"Non"
2012;"8800651";50.0;"L";"Non"
2012;"8800671";63846.0;"K";"Non"
2012;"8800677";4762.0;"K";"Non"
2012;"8800692";35.0;"L";"Non"
2012;"8800710";948.2;"K";"Non"
2012;"8800711";1.0;"L";"Non"
2012;"8800756";4.5;"L";"Non"
2012;"8800777";28.2;"K";"Oui"
2012;"8800805";75.0;"K";"Non"
2012;"8800809";52.0;"L";"Non"
2012;"8800816";30.0;"L";"Non"
2012;"8800818";343.3;"L";"Oui"
2012;"8800823";1880.0;"L";"Non"
2012;"8800827";76233.0;"L";"Non"
2012;"8800841";40723.4;"L";"Oui"
2012;"8800843";283.9;"K";"Non"
2012;"8800846";30.0;"K";"Oui"
2012;"8800847";107985.0;"K";"Non"
2012;"8800848";29071.0;"K";"Non"
2012;"8800852";85318.8;"L";"Non"
2012;"8800893";97821.9;"L";"Non"
2012;"8800903";7920.0;"K";"Non"
2012;"8800939";216899.0;"L";"Non"
2012;"8800941";613957.5;"K";"Non"
2012;"8820359";7709.5;"K";"Oui"
2012;"8820680";315208.1;"K";"Oui"
2012;"8900007";34796.0;"K";"Non"
2012;"8900008";20244.1;"K";"Non"
2012;"8900013";573.0;"K";"Non"
2012;"8900042";651.0;"K";"Non"
2012;"8900045";21.0;"K";"Oui"
2012;"8900077";760.0;"K";"Non"
2012;"8900119";128.5;"L";"Oui"
2012;"8900124";273.0;"K";"Non"
2012;"8900130";0.4;"L";"Non"
2012;"8900131";19.0;"K";"Non"
2012;"8900132";12.9;"L";"Oui"
2012;"8900133";155.0;"L";"Non"
2012;"8900137";29040.0;"L";"Non"
2012;"8900143";385.0;"K";"Oui"
2012;"8900153";30741.6;"L";"Non"
2012;"8900156";924976.0;"L";"Non"
2012;"8900204";1425.0;"L";"Non"
2012;"8900208";127.0;"L";"Non"
2012;"8900229";2675.0;"L";"Non"
2012;"8900231";22.8;"K";"Oui"
2012;"8900237";3.5;"K";"Non"
2012;"8900261";690.0;"L";"Non"
2012;"8900275";526.0;"L";"Non"
2012;"8900277";74.1;"L";"Oui"
2012;"8900291";38.0;"L";"Non"
2012;"8900304";3845.0;"K";"Non"
2012;"8900338";381.9;"K";"Non"
2012;"8900349";22.3;"L";"Oui"
2012;"8900376";12425.0;"K";"Non"
2012;"8900388";8507.0;"L";"Non"
2012;"8900401";16.5;"K";"Oui"
2012;"8900439";2.0;"L";"Non"
2012;"8900450";3924.0;"K";"Non"
2012;"8900500";37937.8;"K";"Non"
2012;"8900563";189455.0;"L";"Non"
2012;"8900564";88760.4;"L";"Non"
2012;"8900565";44.0;"L";"Non"
2012;"8900597";290.0;"K";"Non"
2012;"8900618";2982.1;"K";"Oui"
2012;"8900619";4489.5;"K";"Oui"
2012;"8900641";1632.5;"L";"Non"
2012;"8900643";4725.0;"L";"Non"
2012;"8900669";72756.0;"L";"Non"
2012;"8900676";33345.0;"L";"Non"
2012;"8900677";13307.0;"K";"Non"
2012;"8900681";240447.3;"L";"Non"
2012;"8900685";10879.9;"K";"Non"
2012;"8900692";369617.8;"K";"Non"
2012;"8900700";81226.0;"K";"Oui"
2012;"8900705";3465.0;"L";"Non"
2012;"8900715";5.4;"K";"Non"
2012;"8900716";1.0;"K";"Oui"
2012;"8900728";10.0;"L";"Non"
2012;"8920634";61.5;"K";"Oui"
2012;"8920639";37343.0;"K";"Oui"
2012;"9000001";1.3;"K";"Non"
2012;"9000040";117.5;"L";"Non"
2012;"9000069";27605.2;"L";"Non"
2012;"9000099";8447.4;"L";"Oui"
2012;"9000100";230.0;"L";"Non"
2012;"9000107";58.0;"K";"Oui"
2012;"9000127";2.8;"L";"Oui"
2012;"9000128";748.0;"L";"Non"
2012;"9000144";142510.8;"L";"Non"
2012;"9000150";0.6;"L";"Non"
2012;"9000160";2.4;"L";"Oui"
2012;"9000163";3007.1;"K";"Non"
2012;"9000171";1021.5;"L";"Oui"
2012;"9000184";2264928.1;"L";"Non"
2012;"9000197";2920.0;"K";"Non"
2012;"9000198";497623.0;"L";"Non"
2012;"9000222";501372.5;"L";"Non"
2012;"9000259";4518.1;"K";"Non"
2012;"9000266";147.4;"K";"Non"
2012;"9000276";24.0;"L";"Non"
2012;"9000277";136363.0;"K";"Non"
2012;"9000282";593243.0;"L";"Non"
2012;"9000319";1714.9;"K";"Non"
2012;"9000321";6.5;"L";"Non"
2012;"9000353";475.7;"K";"Non"
2012;"9000359";494.5;"K";"Oui"
2012;"9000360";3545.5;"K";"Oui"
2012;"9000361";9061.6;"K";"Oui"
2012;"9000362";2314.0;"K";"Non"
2012;"9000383";960.0;"L";"Oui"
2012;"9000435";247.8;"K";"Oui"
2012;"9000440";295.2;"K";"Oui"
2012;"9000446";8076.8;"L";"Non"
2012;"9000450";129530.0;"K";"Non"
2012;"9000451";17760.0;"L";"Non"
2012;"9000453";5960.0;"K";"Non"
2012;"9000471";1103669.7;"L";"Non"
2012;"9000489";108.0;"K";"Oui"
2012;"9000490";356628.1;"L";"Non"
2012;"9000507";516.0;"K";"Non"
2012;"9000510";161.2;"K";"Non"
2012;"9000523";18880.0;"L";"Non"
2012;"9000539";1.2;"L";"Oui"
2012;"9000541";1200.0;"K";"Non"
2012;"9000569";19412.0;"K";"Oui"
2012;"9000575";5.7;"K";"Non"
2012;"9000594";1.0;"K";"Non"
2012;"9000595";4.0;"K";"Oui"
2012;"9000600";10.5;"K";"Oui"
2012;"9000605";2185.0;"L";"Non"
2012;"9000606";895.0;"L";"Non"
2012;"9000619";191475.0;"L";"Non"
2012;"9000645";370.0;"L";"Non"
2012;"9000647";3016.2;"L";"Oui"
2012;"9000669";497.8;"L";"Non"
2012;"9000673";2057.2;"K";"Oui"
2012;"9000676";20043.7;"K";"Non"
2012;"9000678";43231.1;"L";"Non"
2012;"9000691";10292.9;"L";"Non"
2012;"9000738";0.5;"L";"Non"
2012;"9000741";9267.0;"L";"Non"
2012;"9000743";1137.8;"L";"Non"
2012;"9000753";109211.0;"K";"Non"
2012;"9000767";118.5;"L";"Non"
2012;"9000799";58.0;"L";"Non"
2012;"9000833";1226590.8;"L";"Non"
2012;"9000834";44692.0;"L";"Non"
2012;"9000837";11.0;"L";"Oui"
2012;"9000844";2.0;"L";"Non"
2012;"9000858";590.0;"L";"Non"
2012;"9010016";29.0;"K";"Non"
2012;"9020381";100.0;"K";"Non"
2012;"9100020";82.0;"K";"Non"
2012;"9100021";0.5;"L";"Non"
2012;"9100034";83630.0;"L";"Non"
2012;"9100046";174967.9;"L";"Non"
2012;"9100053";8.8;"L";"Oui"
2012;"9100065";78802.0;"L";"Non"
2012;"9100066";357.0;"L";"Non"
2012;"9100071";18.0;"L";"Non"
2012;"9100096";4.3;"K";"Non"
2012;"9100154";250974.3;"L";"Oui"
2012;"9100155";15992.0;"L";"Non"
2012;"9100156";50677.3;"L";"Non"
2012;"9100162";62.4;"K";"Oui"
2012;"9100163";13.3;"K";"Oui"
2012;"9100165";54.0;"L";"Non"
2012;"9100231";634829.1;"K";"Oui"
2012;"9100234";25.0;"K";"Oui"
2012;"9100239";52.0;"L";"Oui"
2012;"9100259";174.6;"L";"Oui"
2012;"9100261";2.8;"L";"Oui"
2012;"9100262";12265.4;"K";"Oui"
2012;"9100266";1176066.7;"L";"Non"
2012;"9100290";14182.0;"K";"Non"
2012;"9100291";5435.0;"K";"Non"
2012;"9100296";218657.0;"L";"Non"
2012;"9100297";40081.7;"L";"Non"
2012;"9100303";34962.0;"L";"Non"
2012;"9100353";410.0;"L";"Non"
2012;"9100370";44000.0;"L";"Non"
2012;"9100372";12448.3;"L";"Non"
2012;"9100409";48710.7;"L";"Non"
2012;"9100418";111034.4;"L";"Non"
2012;"9100423";107.0;"L";"Non"
2012;"9100438";219568.1;"L";"Non"
2012;"9100439";10.0;"L";"Non"
2012;"9100479";7010.0;"L";"Non"
2012;"9100482";39725.0;"L";"Non"
2012;"9100495";30.0;"L";"Non"
2012;"9100504";50182.8;"L";"Non"
2012;"9100505";401412.8;"L";"Oui"
2012;"9100525";7163.6;"K";"Oui"
2012;"9100537";897004.7;"L";"Non"
2012;"9100538";1796.5;"L";"Non"
2012;"9100554";999.0;"K";"Non"
2012;"9100557";54974.1;"L";"Non"
2012;"9100613";5.0;"L";"Non"
2012;"9100624";7235.0;"L";"Non"
2012;"9100630";64.0;"L";"Non"
2012;"9100633";1480.0;"L";"Non"
2012;"9100637";18536.6;"K";"Oui"
2012;"9100639";4090.0;"K";"Oui"
2012;"9100645";78030.2;"L";"Non"
2012;"9100650";165793.8;"L";"Oui"
2012;"9100653";72.1;"K";"Oui"
2012;"9100659";51079.1;"L";"Non"
2012;"9100666";4.8;"L";"Oui"
2012;"9100702";1.1;"L";"Non"
2012;"9100704";46.7;"L";"Oui"
2012;"9100706";112.8;"L";"Oui"
2012;"9100711";255.0;"L";"Non"
2012;"9100717";23.0;"K";"Non"
2012;"9120180";2136.0;"K";"Oui"
2012;"9120277";1138.5;"K";"Oui"
2012;"9120616";189676.2;"K";"Oui"
2012;"9200018";149979.4;"L";"Non"
2012;"9200020";115739.4;"L";"Non"
2012;"9200022";200458.2;"L";"Non"
2012;"9200024";369640.0;"L";"Non"
2012;"9200056";28.5;"K";"Non"
2012;"9200057";1.0;"K";"Non"
2012;"9200058";155.0;"K";"Non"
2012;"9200060";332.3;"K";"Non"
2012;"9200061";592.6;"K";"Non"
2012;"9200062";279.3;"K";"Non"
2012;"9200066";1.0;"K";"Non"
2012;"9200072";165.2;"K";"Oui"
2012;"9200073";17491.7;"K";"Non"
2012;"9200078";210301.8;"L";"Non"
2012;"9200091";632639.9;"L";"Non"
2012;"9200110";63.6;"L";"Oui"
2012;"9200119";675414.0;"L";"Non"
2012;"9200135";120535.7;"K";"Oui"
2012;"9200142";21387.0;"L";"Non"
2012;"9200145";1164.9;"L";"Oui"
2012;"9200151";2.0;"L";"Non"
2012;"9200155";15798.0;"L";"Non"
2012;"9200159";58945.0;"L";"Non"
2012;"9200178";23873.4;"L";"Non"
2012;"9200193";220.9;"L";"Non"
2012;"9200196";13.0;"L";"Non"
2012;"9200213";3.0;"L";"Non"
2012;"9200214";335706.9;"K";"Non"
2012;"9200215";179187.6;"K";"Non"
2012;"9200227";10.7;"L";"Oui"
2012;"9200235";4.6;"L";"Non"
2012;"9200248";4991.0;"L";"Non"
2012;"9200262";109898.5;"L";"Non"
2012;"9200265";77.1;"L";"Oui"
2012;"9200271";152.5;"L";"Oui"
2012;"9200283";711.1;"L";"Non"
2012;"9200293";1566.0;"L";"Non"
2012;"9200297";8810.6;"L";"Non"
2012;"9200298";330.0;"L";"Non"
2012;"9200306";12185.5;"L";"Non"
2012;"9200310";850.0;"L";"Non"
2012;"9200313";3313.5;"L";"Non"
2012;"9200317";96978.0;"L";"Non"
2012;"9200328";315.0;"L";"Non"
2012;"9200331";81060.0;"L";"Non"
2012;"9200333";9.9;"L";"Oui"
2012;"9200349";30.0;"L";"Non"
2012;"9200352";1015.0;"K";"Non"
2012;"9200359";14625.0;"K";"Non"
2012;"9200360";120.0;"K";"Non"
2012;"9200370";1535.0;"L";"Non"
2012;"9200374";446.0;"L";"Non"
2012;"9200375";153563.5;"L";"Non"
2012;"9200379";4762.6;"L";"Non"
2012;"9200380";16770.0;"K";"Non"
2012;"9200383";90804.4;"K";"Non"
2012;"9200392";41233.9;"L";"Non"
2012;"9200394";2.0;"L";"Non"
2012;"9200416";80.0;"K";"Non"
2012;"9200436";159193.7;"L";"Non"
2012;"9200457";2.5;"K";"Non"
2012;"9200458";126.4;"K";"Non"
2012;"9200460";5.0;"L";"Non"
2012;"9200461";251770.6;"L";"Non"
2012;"9200482";25638.9;"K";"Oui"
2012;"9200493";88479.7;"K";"Non"
2012;"9200494";18619.1;"L";"Non"
2012;"9200511";1952.1;"L";"Oui"
2012;"9200512";5471.7;"L";"Oui"
2012;"9200532";14978.1;"L";"Oui"
2012;"9200541";389.0;"L";"Non"
2012;"9200543";12183.6;"L";"Non"
2012;"9200548";100093.9;"L";"Non"
2012;"9220043";209918.7;"K";"Oui"
2012;"9220045";129400.0;"K";"Oui"
2012;"9300005";26630.0;"K";"Non"
2012;"9300009";20525.6;"K";"Non"
2012;"9300020";20037.8;"L";"Non"
2012;"9300027";48314.6;"L";"Oui"
2012;"9300030";270.8;"K";"Non"
2012;"9300032";6096.0;"L";"Non"
2012;"9300034";265.6;"L";"Non"
2012;"9300050";30867.4;"L";"Oui"
2012;"9300055";700.0;"K";"Non"
2012;"9300065";89265.0;"L";"Non"
2012;"9300076";200133.5;"L";"Non"
2012;"9300077";40620.3;"L";"Non"
2012;"9300082";6932.0;"K";"Non"
2012;"9300084";80.0;"L";"Non"
2012;"9300093";25.2;"K";"Non"
2012;"9300094";11370.0;"K";"Non"
2012;"9300108";149546.0;"K";"Non"
2012;"9300111";5980.5;"L";"Oui"
2012;"9300113";12672.0;"L";"Non"
2012;"9300116";28480.0;"L";"Non"
2012;"9300127";30.1;"K";"Oui"
2012;"9300143";59618.0;"K";"Non"
2012;"9300145";25263.0;"L";"Oui"
2012;"9300186";20410.0;"K";"Non"
2012;"9300189";95608.7;"L";"Oui"
2012;"9300194";4847.2;"L";"Non"
2012;"9300214";442.2;"L";"Oui"
2012;"9300216";15.0;"L";"Non"
2012;"9300229";1.0;"L";"Oui"
2012;"9300233";550.0;"L";"Non"
2012;"9300236";43.6;"L";"Non"
2012;"9300240";45.9;"L";"Non"
2012;"9300241";158493.4;"L";"Oui"
2012;"9300244";244260.5;"L";"Non"
2012;"9300254";3.0;"L";"Oui"
2012;"9300255";20.2;"L";"Oui"
2012;"9300257";87829.2;"L";"Non"
2012;"9300270";23056.2;"L";"Non"
2012;"9300279";1337.8;"K";"Non"
2012;"9300284";79.0;"L";"Non"
2012;"9300285";10734.0;"L";"Non"
2012;"9300286";750.0;"L";"Non"
2012;"9300287";50.0;"L";"Non"
2012;"9300299";1108.6;"L";"Oui"
2012;"9300300";3270.7;"L";"Oui"
2012;"9300301";80738.3;"L";"Oui"
2012;"9300304";2.7;"K";"Oui"
2012;"9300305";163213.2;"L";"Non"
2012;"9300306";226.0;"L";"Non"
2012;"9300309";47331.1;"L";"Non"
2012;"9300322";53925.0;"L";"Non"
2012;"9300326";68055.1;"K";"Oui"
2012;"9300334";6704.0;"K";"Non"
2012;"9300335";23175.0;"L";"Non"
2012;"9300338";10411.0;"L";"Non"
2012;"9300374";14110.0;"L";"Non"
2012;"9300379";46.2;"K";"Oui"
2012;"9300381";2.4;"K";"Non"
2012;"9300395";40.0;"L";"Non"
2012;"9300396";329668.0;"L";"Non"
2012;"9300401";181.4;"L";"Non"
2012;"9300409";3.9;"L";"Non"
2012;"9300412";38934.1;"K";"Non"
2012;"9300413";550.7;"K";"Oui"
2012;"9300414";30.0;"L";"Non"
2012;"9300452";8.3;"K";"Non"
2012;"9300470";237.8;"K";"Non"
2012;"9300487";173532.8;"L";"Non"
2012;"9300488";10.4;"L";"Non"
2012;"9300490";1900.0;"K";"Non"
2012;"9300500";225.0;"K";"Non"
2012;"9300504";397992.0;"L";"Non"
2012;"9300533";7951.1;"L";"Non"
2012;"9300557";35190.0;"L";"Non"
2012;"9300564";550.0;"L";"Non"
2012;"9300571";79259.8;"K";"Oui"
2012;"9320048";22.5;"K";"Oui"
2012;"9320473";20.0;"K";"Non"
2012;"9400001";5.0;"K";"Non"
2012;"9400007";1720.5;"L";"Oui"
2012;"9400008";30065.0;"L";"Non"
2012;"9400012";30112.7;"L";"Non"
2012;"9400034";6.0;"K";"Non"
2012;"9400038";16.7;"K";"Non"
2012;"9400039";46900.8;"L";"Oui"
2012;"9400052";36850.0;"L";"Non"
2012;"9400057";12839.6;"K";"Non"
2012;"9400061";245.5;"L";"Non"
2012;"9400062";0.9;"L";"Non"
2012;"9400067";16253.9;"K";"Non"
2012;"9400080";1651.2;"L";"Non"
2012;"9400083";21.3;"L";"Non"
2012;"9400085";3431.0;"L";"Non"
2012;"9400095";136753.1;"K";"Non"
2012;"9400106";422.2;"L";"Oui"
2012;"9400108";2.3;"K";"Non"
2012;"9400109";48363.0;"K";"Oui"
2012;"9400130";5.0;"L";"Non"
2012;"9400133";284553.7;"L";"Non"
2012;"9400134";61117.0;"L";"Non"
2012;"9400145";9582.0;"L";"Non"
2012;"9400148";556.1;"L";"Non"
2012;"9400162";748890.7;"L";"Non"
2012;"9400174";28413.5;"L";"Non"
2012;"9400177";1223.0;"K";"Non"
2012;"9400196";61.2;"K";"Non"
2012;"9400202";1927.0;"K";"Non"
2012;"9400203";420.0;"L";"Non"
2012;"9400208";235.8;"K";"Non"
2012;"9400210";1922.1;"K";"Oui"
2012;"9400212";9495.0;"L";"Non"
2012;"9400216";1.5;"L";"Non"
2012;"9400227";84.0;"L";"Oui"
2012;"9400235";5128.9;"L";"Oui"
2012;"9400246";65.1;"L";"Oui"
2012;"9400247";2175.0;"L";"Non"
2012;"9400278";45213.2;"L";"Non"
2012;"9400280";54848.8;"K";"Non"
2012;"9400286";21580.0;"L";"Oui"
2012;"9400311";82408.7;"L";"Non"
2012;"9400327";234.0;"L";"Oui"
2012;"9400336";138905.0;"L";"Non"
2012;"9400345";12980.0;"K";"Oui"
2012;"9400346";4176.0;"K";"Oui"
2012;"9400350";18480.0;"K";"Non"
2012;"9400354";869379.1;"L";"Non"
2012;"9400355";1.0;"L";"Non"
2012;"9400367";156022.7;"L";"Non"
2012;"9400384";7132.0;"L";"Non"
2012;"9400389";31686.0;"L";"Non"
2012;"9400393";5.5;"L";"Oui"
2012;"9400398";7.4;"L";"Non"
2012;"9400401";17.5;"K";"Non"
2012;"9400406";3825.7;"L";"Non"
2012;"9400409";5134.8;"L";"Oui"
2012;"9400410";16969.0;"L";"Non"
2012;"9400411";41996.9;"L";"Non"
2012;"9400416";1016.0;"L";"Oui"
2012;"9400417";225.0;"K";"Non"
2012;"9400433";19046.0;"K";"Oui"
2012;"9400456";1488079.8;"K";"Oui"
2012;"9400458";96128.2;"K";"Non"
2012;"9400459";64410.2;"K";"Non"
2012;"9400460";91115.3;"K";"Non"
2012;"9400462";37701.6;"K";"Non"
2012;"9400465";1035.0;"L";"Non"
2012;"9400479";165724.9;"L";"Non"
2012;"9400482";4040.2;"L";"Non"
2012;"9400483";53032.0;"K";"Non"
2012;"9400484";17640.0;"K";"Non"
2012;"9400485";164944.9;"L";"Non"
2012;"9400492";103.5;"K";"Non"
2012;"9400494";204933.1;"L";"Non"
2012;"9400495";46134.0;"L";"Oui"
2012;"9400496";64655.0;"L";"Oui"
2012;"9400510";2620.0;"L";"Non"
2012;"9400525";30025.0;"L";"Non"
2012;"9400531";180.0;"L";"Non"
2012;"9400535";153334.0;"L";"Non"
2012;"9400555";8085.0;"L";"Non"
2012;"9400556";64.2;"L";"Non"
2012;"9420112";4542.0;"K";"Oui"
2012;"9420113";136538.0;"K";"Oui"
2012;"9500002";140414.0;"L";"Oui"
2012;"9500003";21.4;"L";"Non"
2012;"9500005";405.0;"L";"Non"
2012;"9500011";137512.0;"L";"Non"
2012;"9500013";13720.0;"L";"Non"
2012;"9500016";58897.5;"L";"Non"
2012;"9500018";25060.5;"L";"Non"
2012;"9500019";13852.0;"L";"Non"
2012;"9500037";3610.0;"K";"Oui"
2012;"9500038";1300.3;"K";"Oui"
2012;"9500039";2029.4;"K";"Non"
2012;"9500040";130227.6;"L";"Non"
2012;"9500043";760.0;"K";"Non"
2012;"9500050";1274094.0;"L";"Non"
2012;"9500054";3381.0;"L";"Non"
2012;"9500069";154.6;"L";"Oui"
2012;"9500071";6.0;"L";"Non"
2012;"9500088";4365.6;"L";"Non"
2012;"9500106";58522.6;"L";"Non"
2012;"9500107";36162.0;"L";"Non"
2012;"9500122";1044.3;"K";"Oui"
2012;"9500126";34568.8;"L";"Non"
2012;"9500135";245375.5;"K";"Oui"
2012;"9500140";106.3;"K";"Oui"
2012;"9500143";1177.4;"K";"Oui"
2012;"9500147";25476.5;"K";"Oui"
2012;"9500148";7797.5;"K";"Oui"
2012;"9500150";9208.3;"L";"Oui"
2012;"9500152";73132.0;"L";"Non"
2012;"9500157";2.0;"L";"Non"
2012;"9500158";0.9;"L";"Non"
2012;"9500159";399187.5;"L";"Oui"
2012;"9500161";74592.5;"L";"Oui"
2012;"9500165";249.5;"L";"Non"
2012;"9500167";176.2;"L";"Non"
2012;"9500180";10505.0;"L";"Non"
2012;"9500199";9528.3;"L";"Oui"
2012;"9500205";2920.4;"K";"Non"
2012;"9500213";49323.2;"L";"Non"
2012;"9500219";18821.3;"L";"Non"
2012;"9500222";666.0;"L";"Non"
2012;"9500223";297838.2;"L";"Non"
2012;"9500227";8170.7;"K";"Oui"
2012;"9500229";61232.5;"K";"Oui"
2012;"9500234";10781.0;"L";"Non"
2012;"9500238";8464.0;"L";"Non"
2012;"9500239";1985.0;"L";"Non"
2012;"9500244";194945.8;"L";"Oui"
2012;"9500249";280.0;"K";"Non"
2012;"9500269";11111.5;"K";"Oui"
2012;"9500279";26.0;"K";"Non"
2012;"9500281";252033.2;"K";"Oui"
2012;"9500296";735.8;"K";"Oui"
2012;"9500302";230793.7;"K";"Oui"
2012;"9500303";2.0;"K";"Non"
2012;"9500307";3560.0;"L";"Non"
2012;"9500311";69939.6;"L";"Non"
2012;"9500321";16398.0;"K";"Non"
2012;"9500323";1573.0;"K";"Non"
2012;"9500324";140.7;"K";"Non"
2012;"9500326";42.1;"K";"Non"
2012;"9500327";3661.0;"K";"Non"
2012;"9500328";1081.1;"K";"Non"
2012;"9500339";19364.0;"L";"Non"
2012;"9500341";27587.6;"K";"Oui"
2012;"9500347";1817.0;"K";"Non"
2012;"9500348";31178.0;"K";"Non"
2012;"9500349";26510.0;"L";"Non"
2012;"9500351";3715.6;"L";"Oui"
2012;"9500355";20.0;"K";"Non"
2012;"9500356";2056.0;"K";"Non"
2012;"9500361";120060.0;"K";"Non"
2012;"9500364";47487.1;"L";"Oui"
2012;"9500381";30.0;"K";"Non"
2012;"9500394";7.0;"L";"Non"
2012;"9500404";52.5;"K";"Oui"
2012;"9500413";98.9;"L";"Oui"
2012;"9500414";4531.9;"L";"Oui"
2012;"9500415";208.3;"K";"Oui"
2012;"9500425";100.1;"L";"Non"
2012;"9500427";260.0;"L";"Non"
2012;"9500430";26.8;"K";"Non"
2012;"9500432";8098.0;"L";"Non"
2012;"9500434";1153.7;"L";"Oui"
2012;"9500452";943771.6;"K";"Oui"
2012;"9500467";263.1;"K";"Non"
2012;"9500469";4015.0;"L";"Non"
2012;"9500480";294302.5;"K";"Non"
2012;"9500484";28590.4;"L";"Oui"
2012;"9500485";60814.3;"L";"Oui"
2012;"9500491";561.0;"L";"Oui"
2012;"9500506";103725.0;"L";"Non"
2012;"9500514";7.5;"L";"Oui"
2012;"9500515";1.2;"L";"Oui"
2012;"9500516";866.1;"L";"Oui"
2012;"9500519";15.6;"L";"Non"
2012;"9500531";12.8;"L";"Oui"
2012;"9500536";3255.0;"L";"Non"
2012;"9500551";110795.0;"L";"Non"
2012;"9500556";114.0;"L";"Oui"
2012;"9500560";15311.0;"L";"Non"
2012;"9500561";15143.6;"L";"Oui"
2012;"9500562";24162.0;"L";"Oui"
2012;"9500568";114789.4;"K";"Oui"
2012;"9500572";399.3;"L";"Oui"
2012;"9500574";140.0;"K";"Non"
2012;"9500581";109688.7;"L";"Non"
2012;"9500587";60.0;"K";"Non"
2012;"9500595";11623.4;"L";"Non"
2012;"9500605";9350.0;"K";"Non"
2012;"9500624";923.5;"K";"Non"
2012;"9500628";73214.8;"K";"Non"
2012;"9500629";12048.0;"K";"Non"
2012;"9500637";27611.1;"L";"Non"
2012;"9500642";612876.0;"L";"Non"
2012;"9500645";12500.0;"L";"Non"
2012;"9500648";1195.0;"L";"Non"
2012;"9500649";654723.9;"K";"Non"
2012;"9500651";1350.0;"L";"Non"
2012;"9510034";4.0;"K";"Non"
2012;"9600001";568427.1;"K";"Non"
2012;"9600005";485.0;"L";"Non"
2012;"9600009";14.4;"K";"Oui"
2012;"9600016";327.0;"L";"Oui"
2012;"9600017";15.0;"K";"Non"
2012;"9600018";3793.0;"L";"Non"
2012;"9600021";0.2;"L";"Non"
2012;"9600022";5254.1;"L";"Oui"
2012;"9600025";37313.9;"K";"Non"
2012;"9600049";17.5;"L";"Oui"
2012;"9600051";0.1;"L";"Oui"
2012;"9600052";31.9;"L";"Oui"
2012;"9600056";1159.7;"K";"Non"
2012;"9600075";71655.0;"L";"Non"
2012;"9600079";2233.8;"K";"Non"
2012;"9600081";53.2;"K";"Oui"
2012;"9600091";55694.6;"K";"Oui"
2012;"9600093";307066.3;"L";"Non"
2012;"9600096";185.0;"L";"Non"
2012;"9600097";9531.5;"L";"Oui"
2012;"9600103";337192.5;"K";"Non"
2012;"9600111";7765.0;"L";"Non"
2012;"9600112";5.0;"L";"Non"
2012;"9600113";3376.7;"L";"Non"
2012;"9600114";21793.2;"L";"Non"
2012;"9600116";8010.0;"K";"Non"
2012;"9600120";86639.5;"K";"Non"
2012;"9600121";4742.0;"L";"Non"
2012;"9600123";1.0;"L";"Non"
2012;"9600134";3.3;"K";"Non"
2012;"9600136";180.0;"L";"Non"
2012;"9600138";3930.4;"K";"Non"
2012;"9600141";5229.5;"L";"Oui"
2012;"9600145";5352.0;"L";"Non"
2012;"9600147";945.8;"L";"Non"
2012;"9600148";34771.9;"L";"Non"
2012;"9600173";5.0;"L";"Non"
2012;"9600178";5.0;"K";"Non"
2012;"9600184";5207.0;"L";"Non"
2012;"9600191";22.6;"K";"Oui"
2012;"9600194";1020.0;"L";"Non"
2012;"9600195";12136.0;"L";"Non"
2012;"9600196";115.7;"K";"Non"
2012;"9600197";5159.0;"K";"Non"
2012;"9600199";115882.0;"K";"Non"
2012;"9600201";43581.5;"L";"Non"
2012;"9600217";120.0;"L";"Non"
2012;"9600223";198.8;"K";"Non"
2012;"9600224";384.0;"L";"Oui"
2012;"9600225";26006.0;"L";"Non"
2012;"9600229";11832.0;"L";"Non"
2012;"9600231";5096.5;"L";"Non"
2012;"9600232";69127.2;"L";"Non"
2012;"9600233";122785.0;"L";"Non"
2012;"9600241";114.2;"L";"Oui"
2012;"9600248";172570.0;"K";"Non"
2012;"9600252";1145.0;"L";"Non"
2012;"9600273";14322.0;"L";"Non"
2012;"9600293";45803.7;"L";"Non"
2012;"9600299";116149.5;"K";"Oui"
2012;"9600300";112.1;"L";"Non"
2012;"9600312";15.0;"L";"Non"
2012;"9600318";26757.6;"L";"Oui"
2012;"9600319";40727.6;"L";"Oui"
2012;"9600320";1324.6;"L";"Oui"
2012;"9600321";656.5;"L";"Non"
2012;"9600325";24.0;"K";"Oui"
2012;"9600331";6.0;"L";"Non"
2012;"9600332";17636.0;"L";"Non"
2012;"9600339";17061.0;"K";"Non"
2012;"9600341";49770.6;"L";"Non"
2012;"9600344";55.0;"L";"Non"
2012;"9600352";1730.0;"L";"Non"
2012;"9600361";30.0;"K";"Non"
2012;"9600364";840.0;"L";"Non"
2012;"9600368";502165.2;"K";"Non"
2012;"9600370";143435.0;"L";"Non"
2012;"9600371";75698.6;"K";"Non"
2012;"9600376";2850.0;"L";"Non"
2012;"9600377";2329.4;"L";"Oui"
2012;"9600385";531.2;"L";"Oui"
2012;"9600386";7776.7;"K";"Oui"
2012;"9600387";443.2;"K";"Oui"
2012;"9600390";113205.0;"L";"Oui"
2012;"9600392";248022.0;"L";"Non"
2012;"9600395";174448.0;"K";"Non"
2012;"9600396";30.0;"L";"Non"
2012;"9600398";3395.7;"K";"Non"
2012;"9600400";103.0;"L";"Non"
2012;"9600404";2414.6;"L";"Oui"
2012;"9600407";897.0;"L";"Non"
2012;"9600418";20.0;"L";"Non"
2012;"9600431";1920.0;"K";"Non"
2012;"9600432";41953.0;"K";"Non"
2012;"9600433";146088.5;"K";"Non"
2012;"9600434";72963.0;"K";"Non"
2012;"9600466";39284.8;"K";"Oui"
2012;"9600474";52.8;"K";"Oui"
2012;"9600476";308.8;"L";"Non"
2012;"9600486";585.0;"L";"Non"
2012;"9600488";67636.9;"K";"Oui"
2012;"9600491";36719.9;"L";"Non"
2012;"9600508";119.0;"L";"Non"
2012;"9600509";2281.4;"K";"Non"
2012;"9600510";122035.4;"K";"Non"
2012;"9600512";406126.0;"K";"Non"
2012;"9600515";15.5;"L";"Non"
2012;"9600516";217879.1;"K";"Non"
2012;"9600518";28575.0;"K";"Non"
2012;"9600526";66.7;"K";"Non"
2012;"9600528";899.0;"K";"Non"
2012;"9600529";192.0;"K";"Non"
2012;"9600534";199.0;"L";"Non"
2012;"9600538";50102.7;"L";"Non"
2012;"9600541";2146.2;"K";"Non"
2012;"9600542";980.0;"K";"Non"
2012;"9600543";40147.0;"K";"Non"
2012;"9600545";725.0;"K";"Non"
2012;"9600546";7689.0;"K";"Non"
2012;"9600548";103228.5;"L";"Non"
2012;"9600550";310507.6;"L";"Non"
2012;"9700002";0.1;"K";"Non"
2012;"9700007";0.5;"L";"Oui"
2012;"9700009";76806.5;"L";"Non"
2012;"9700027";2434.7;"K";"Non"
2012;"9700028";18727.5;"L";"Non"
2012;"9700032";197.0;"K";"Oui"
2012;"9700038";5429.5;"L";"Oui"
2012;"9700039";2423.3;"K";"Non"
2012;"9700040";47.0;"K";"Oui"
2012;"9700042";56190.0;"L";"Non"
2012;"9700055";550.0;"L";"Non"
2012;"9700058";33.0;"L";"Non"
2012;"9700060";142.0;"L";"Non"
2012;"9700065";32670.5;"L";"Non"
2012;"9700067";95640.0;"K";"Non"
2012;"9700070";381.4;"K";"Non"
2012;"9700088";0.3;"K";"Non"
2012;"9700096";7.5;"L";"Oui"
2012;"9700100";0.2;"L";"Oui"
2012;"9700111";3.2;"K";"Non"
2012;"9700114";50.0;"K";"Non"
2012;"9700118";3012.4;"K";"Non"
2012;"9700123";228.1;"K";"Non"
2012;"9700124";6062.6;"L";"Oui"
2012;"9700125";385.0;"L";"Non"
2012;"9700126";8.0;"L";"Non"
2012;"9700127";7.7;"K";"Non"
2012;"9700129";190.0;"L";"Non"
2012;"9700136";1286.0;"L";"Non"
2012;"9700137";474.0;"L";"Non"
2012;"9700139";17470.0;"L";"Non"
2012;"9700159";863.0;"L";"Oui"
2012;"9700164";9415.0;"K";"Non"
2012;"9700166";2.0;"L";"Non"
2012;"9700167";180.8;"L";"Oui"
2012;"9700173";191748.1;"L";"Non"
2012;"9700175";1.2;"K";"Oui"
2012;"9700179";678.2;"K";"Non"
2012;"9700180";5.7;"L";"Non"
2012;"9700181";65095.0;"L";"Non"
2012;"9700182";103560.0;"L";"Non"
2012;"9700185";50805.0;"K";"Non"
2012;"9700188";1860.0;"L";"Non"
2012;"9700192";98251.0;"K";"Non"
2012;"9700204";1135.0;"K";"Non"
2012;"9700205";390.0;"K";"Non"
2012;"9700206";1440.0;"K";"Non"
2012;"9700210";228.5;"L";"Non"
2012;"9700211";170.0;"L";"Oui"
2012;"9700213";145.1;"K";"Non"
2012;"9700214";32170.2;"K";"Non"
2012;"9700216";8140.5;"L";"Oui"
2012;"9700223";319.3;"K";"Oui"
2012;"9700229";14063.0;"L";"Oui"
2012;"9700230";2391.5;"L";"Oui"
2012;"9700232";61.0;"K";"Oui"
2012;"9700233";421.6;"K";"Oui"
2012;"9700234";19.2;"K";"Oui"
2012;"9700235";1151.8;"L";"Oui"
2012;"9700259";61083.5;"L";"Oui"
2012;"9700277";20000.0;"L";"Non"
2012;"9700278";32069.7;"K";"Non"
2012;"9700282";133080.5;"L";"Non"
2012;"9700293";575.0;"K";"Oui"
2012;"9700303";50145.0;"K";"Non"
2012;"9700320";130.0;"L";"Non"
2012;"9700328";3.1;"L";"Non"
2012;"9700329";82694.6;"L";"Non"
2012;"9700332";63559.7;"L";"Oui"
2012;"9700338";153842.0;"L";"Non"
2012;"9700343";69360.0;"K";"Non"
2012;"9700344";42.0;"L";"Non"
2012;"9700346";4465.0;"L";"Non"
2012;"9700349";320.5;"L";"Non"
2012;"9700350";19588.4;"L";"Non"
2012;"9700353";632.0;"L";"Non"
2012;"9700354";16600.7;"K";"Oui"
2012;"9700355";2549.0;"L";"Non"
2012;"9700357";548.5;"L";"Non"
2012;"9700358";37739.1;"K";"Oui"
2012;"9700362";91828.0;"K";"Non"
2012;"9700368";189.2;"L";"Non"
2012;"9700369";270225.0;"L";"Non"
2012;"9700374";16791.1;"K";"Non"
2012;"9700376";20910.0;"L";"Non"
2012;"9700388";1571.5;"L";"Non"
2012;"9700389";7335.0;"L";"Non"
2012;"9700392";10098.4;"K";"Non"
2012;"9700395";85414.9;"L";"Non"
2012;"9700396";3929.0;"L";"Non"
2012;"9700399";19.1;"K";"Oui"
2012;"9700401";99794.0;"K";"Non"
2012;"9700402";5.0;"L";"Non"
2012;"9700404";12110.0;"K";"Non"
2012;"9700409";5.1;"L";"Oui"
2012;"9700411";27339.0;"K";"Oui"
2012;"9700412";6725.0;"L";"Non"
2012;"9700414";108.2;"L";"Oui"
2012;"9700420";98748.5;"L";"Non"
2012;"9700425";9390.5;"L";"Non"
2012;"9700429";10.0;"L";"Non"
2012;"9700440";159445.0;"K";"Non"
2012;"9700442";39470.7;"L";"Non"
2012;"9700446";153831.7;"L";"Non"
2012;"9700447";169.0;"L";"Non"
2012;"9700448";157476.3;"K";"Non"
2012;"9700449";480647.8;"K";"Non"
2012;"9700450";6732.4;"L";"Non"
2012;"9700452";28618.5;"K";"Non"
2012;"9700453";16.0;"L";"Oui"
2012;"9700454";79601.6;"K";"Non"
2012;"9700455";420.0;"K";"Non"
2012;"9700458";735.0;"L";"Oui"
2012;"9700463";126856.7;"K";"Non"
2012;"9700467";69760.5;"L";"Non"
2012;"9700468";12784.0;"L";"Non"
2012;"9700471";28.4;"L";"Non"
2012;"9700484";28815.0;"L";"Non"
2012;"9700500";7.8;"L";"Non"
2012;"9700512";86358.6;"L";"Non"
2012;"9700517";2.0;"L";"Non"
2012;"9700519";173820.0;"L";"Non"
2012;"9700521";25005.9;"L";"Oui"
2012;"9700532";0.2;"L";"Non"
2012;"9700534";1.0;"L";"Non"
2012;"9700539";44435.0;"K";"Non"
2012;"9700541";4.0;"K";"Non"
2012;"9700542";293.5;"L";"Non"
2012;"9700551";12160.0;"K";"Non"
2012;"9700552";649.0;"L";"Oui"
2012;"9700554";41687.0;"L";"Non"
2012;"9700556";9.1;"K";"Non"
2012;"9700557";19795.0;"K";"Non"
2012;"9700558";37049.0;"L";"Non"
2012;"9700561";34.5;"K";"Oui"
2012;"9700562";1709604.7;"L";"Non"
2012;"9700574";428.0;"K";"Non"
2012;"9700578";26470.0;"K";"Non"
2012;"9700587";80885.8;"L";"Non"
2012;"9700588";11791.2;"K";"Non"
2012;"9700591";153.4;"K";"Oui"
2012;"9700592";5.4;"L";"Non"
2012;"9800003";89.0;"K";"Non"
2012;"9800005";33.7;"L";"Oui"
2012;"9800006";0.3;"L";"Oui"
2012;"9800007";20.0;"L";"Oui"
2012;"9800018";1795878.5;"L";"Non"
2012;"9800023";0.4;"K";"Non"
2012;"9800027";910.0;"L";"Non"
2012;"9800028";228786.8;"L";"Non"
2012;"9800036";874.5;"L";"Oui"
2012;"9800037";1504.5;"L";"Oui"
2012;"9800038";658.9;"L";"Non"
2012;"9800042";208.3;"L";"Non"
2012;"9800054";197203.1;"K";"Non"
2012;"9800076";9988.0;"L";"Oui"
2012;"9800085";39798.1;"L";"Non"
2012;"9800088";65.0;"L";"Non"
2012;"9800091";783.0;"K";"Non"
2012;"9800092";1239.1;"L";"Non"
2012;"9800093";184575.0;"L";"Non"
2012;"9800094";4351.7;"K";"Non"
2012;"9800095";44.0;"L";"Non"
2012;"9800096";20552.4;"L";"Oui"
2012;"9800097";231.0;"K";"Oui"
2012;"9800098";107101.9;"K";"Non"
2012;"9800100";285240.0;"L";"Non"
2012;"9800106";12664.1;"K";"Non"
2012;"9800107";118318.7;"L";"Oui"
2012;"9800120";5820.0;"L";"Non"
2012;"9800124";330.0;"L";"Non"
2012;"9800125";6.3;"L";"Non"
2012;"9800126";33184.7;"K";"Oui"
2012;"9800129";74310.0;"K";"Non"
2012;"9800132";2004.5;"K";"Oui"
2012;"9800133";15.0;"L";"Non"
2012;"9800144";20342.5;"K";"Non"
2012;"9800147";11.0;"L";"Non"
2012;"9800148";0.1;"L";"Non"
2012;"9800168";75.7;"L";"Non"
2012;"9800171";105.0;"L";"Non"
2012;"9800172";2.0;"L";"Oui"
2012;"9800175";135.9;"K";"Oui"
2012;"9800178";5.0;"L";"Non"
2012;"9800181";235.5;"K";"Non"
2012;"9800182";419903.6;"L";"Non"
2012;"9800183";43.0;"K";"Non"
2012;"9800185";141.0;"K";"Non"
2012;"9800186";3.0;"K";"Non"
2012;"9800187";66093.0;"L";"Non"
2012;"9800193";90304.1;"K";"Non"
2012;"9800194";5049.1;"L";"Oui"
2012;"9800198";14812.5;"L";"Non"
2012;"9800201";178114.5;"L";"Non"
2012;"9800203";918.1;"K";"Oui"
2012;"9800205";60.0;"K";"Non"
2012;"9800207";2675049.3;"K";"Non"
2012;"9800210";288490.0;"L";"Non"
2012;"9800211";4488.0;"L";"Non"
2012;"9800212";66675.0;"K";"Non"
2012;"9800213";9268.5;"L";"Non"
2012;"9800215";31171.1;"K";"Oui"
2012;"9800217";1551.7;"K";"Oui"
2012;"9800219";26063.0;"L";"Non"
2012;"9800221";661.4;"K";"Oui"
2012;"9800231";164.1;"K";"Oui"
2012;"9800233";8.3;"K";"Oui"
2012;"9800235";13121.0;"L";"Non"
2012;"9800236";15857.0;"L";"Non"
2012;"9800238";1028.6;"L";"Oui"
2012;"9800241";10.0;"L";"Non"
2012;"9800242";5.0;"L";"Non"
2012;"9800244";48001.1;"K";"Oui"
2012;"9800245";2558023.8;"K";"Non"
2012;"9800251";182947.4;"L";"Oui"
2012;"9800252";4060.5;"L";"Oui"
2012;"9800253";0.6;"L";"Non"
2012;"9800254";3176.5;"L";"Non"
2012;"9800255";23.1;"L";"Oui"
2012;"9800256";2220.0;"K";"Non"
2012;"9800258";7138.0;"L";"Non"
2012;"9800259";308122.6;"L";"Non"
2012;"9800262";935.7;"K";"Non"
2012;"9800277";36887.7;"L";"Non"
2012;"9800280";13719.5;"L";"Non"
2012;"9800289";6722.0;"L";"Non"
2012;"9800292";1860.0;"L";"Non"
2012;"9800293";30768.0;"L";"Non"
2012;"9800294";1382137.0;"L";"Non"
2012;"9800300";14.2;"K";"Non"
2012;"9800302";2755.0;"L";"Oui"
2012;"9800304";605.0;"L";"Non"
2012;"9800307";5.0;"L";"Non"
2012;"9800320";4040.2;"K";"Non"
2012;"9800321";22853.9;"L";"Oui"
2012;"9800322";622.0;"L";"Non"
2012;"9800326";47207.2;"L";"Non"
2012;"9800327";11889.5;"L";"Non"
2012;"9800328";150.0;"L";"Non"
2012;"9800329";6903.0;"L";"Non"
2012;"9800330";42869.3;"K";"Non"
2012;"9800331";2126.5;"K";"Non"
2012;"9800332";876.6;"K";"Oui"
2012;"9800334";83.9;"L";"Oui"
2012;"9800336";200820.1;"L";"Non"
2012;"9800337";84952.5;"L";"Non"
2012;"9800339";5088.0;"L";"Non"
2012;"9800342";2042.5;"L";"Non"
2012;"9800343";214918.8;"L";"Non"
2012;"9800344";62394.3;"L";"Non"
2012;"9800347";41861.0;"L";"Non"
2012;"9800349";2860.0;"K";"Non"
2012;"9800350";8888.0;"L";"Oui"
2012;"9800357";7.2;"K";"Oui"
2012;"9800358";21511.4;"K";"Oui"
2012;"9800362";5685.0;"L";"Non"
2012;"9800365";65285.0;"K";"Non"
2012;"9800374";1422.1;"K";"Non"
2012;"9800384";8817.0;"L";"Non"
2012;"9800386";0.6;"K";"Non"
2012;"9800392";112049.0;"L";"Non"
2012;"9800393";80.6;"L";"Oui"
2012;"9800394";792.2;"L";"Oui"
2012;"9800395";141778.5;"K";"Non"
2012;"9800396";69.1;"L";"Oui"
2012;"9800398";460.0;"K";"Non"
2012;"9800399";62504.5;"K";"Non"
2012;"9800400";192187.0;"K";"Non"
2012;"9800401";908.6;"L";"Oui"
2012;"9800402";4440.8;"L";"Oui"
2012;"9800412";13903.8;"L";"Non"
2012;"9800413";12069.7;"L";"Non"
2012;"9800414";7480.0;"L";"Non"
2012;"9800420";120863.8;"L";"Non"
2012;"9800421";107146.9;"L";"Non"
2012;"9800422";10.0;"L";"Non"
2012;"9800423";5.0;"K";"Non"
2012;"9800425";84.1;"L";"Oui"
2012;"9800431";255.0;"L";"Non"
2012;"9800432";10964.5;"L";"Oui"
2012;"9800437";115.0;"L";"Non"
2012;"9800452";20362.0;"L";"Non"
2012;"9800453";107873.5;"L";"Non"
2012;"9800455";0.7;"K";"Oui"
2012;"9800458";28194.0;"L";"Non"
2012;"9800462";1545.0;"L";"Non"
2012;"9800467";1010.0;"L";"Non"
2012;"9800474";878144.3;"K";"Non"
2012;"9800477";125580.8;"L";"Non"
2012;"9800480";12.0;"K";"Non"
2012;"9800481";61709.7;"L";"Oui"
2012;"9800482";270.4;"K";"Non"
2012;"9800483";13744.6;"K";"Non"
2012;"9800484";1061.0;"L";"Non"
2012;"9800496";24272.0;"L";"Non"
2012;"9800497";5.0;"L";"Non"
2012;"9800499";628733.0;"L";"Non"
2012;"9800506";2619.4;"K";"Non"
2012;"9800508";12845.0;"L";"Non"
2012;"9800509";292.0;"L";"Oui"
2012;"9800510";164.0;"K";"Oui"
2012;"9800511";2770.0;"K";"Oui"
2012;"9800514";1993.8;"K";"Non"
2012;"9800522";25.9;"K";"Oui"
2012;"9800523";613.3;"K";"Oui"
2012;"9800524";65062.4;"L";"Oui"
2012;"9800526";108.0;"K";"Non"
2012;"9800528";138077.2;"L";"Non"
2012;"9800532";0.2;"L";"Non"
2012;"9800548";19.0;"L";"Non"
2012;"9800555";166346.2;"L";"Non"
2012;"9800556";22.1;"K";"Oui"
2012;"9800557";35.8;"K";"Oui"
2012;"9800558";0.4;"K";"Oui"
2012;"9800566";480.0;"K";"Non"
2012;"9800571";7820.0;"L";"Non"
2012;"9900002";38195.0;"L";"Non"
2012;"9900003";21.0;"K";"Non"
2012;"9900004";400.9;"K";"Non"
2012;"9900009";34527.5;"K";"Non"
2012;"9900013";70545.0;"K";"Non"
2012;"9900014";7865.9;"L";"Oui"
2012;"9900016";74634.7;"L";"Non"
2012;"9900018";13.3;"K";"Oui"
2012;"9900019";11.1;"K";"Oui"
2012;"9900023";934.0;"L";"Non"
2012;"9900036";904.0;"L";"Non"
2012;"9900037";17298.3;"K";"Non"
2012;"9900038";80.0;"L";"Non"
2012;"9900039";242632.2;"L";"Oui"
2012;"9900041";3802.0;"L";"Non"
2012;"9900042";12755.0;"K";"Non"
2012;"9900047";610354.5;"L";"Non"
2012;"9900050";574.0;"L";"Non"
2012;"9900075";63355.0;"L";"Non"
2012;"9900078";29465.0;"L";"Non"
2012;"9900079";706.0;"L";"Non"
2012;"9900081";15688.0;"K";"Non"
2012;"9900087";32725.0;"K";"Non"
2012;"9900088";16930.0;"K";"Non"
2012;"9900092";2040.0;"L";"Non"
2012;"9900093";74562.1;"L";"Oui"
2012;"9900094";582.2;"L";"Oui"
2012;"9900096";6.0;"L";"Non"
2012;"9900098";288.1;"L";"Oui"
2012;"9900103";42370.9;"L";"Oui"
2012;"9900104";498538.3;"L";"Non"
2012;"9900106";198704.3;"L";"Non"
2012;"9900108";200038.9;"L";"Non"
2012;"9900113";250.0;"K";"Non"
2012;"9900114";6935.0;"L";"Non"
2012;"9900119";29537.8;"K";"Oui"
2012;"9900123";816.5;"K";"Non"
2012;"9900125";0.1;"L";"Oui"
2012;"9900127";1189.5;"L";"Oui"
2012;"9900133";42012.8;"L";"Non"
2012;"9900134";4730.2;"L";"Oui"
2012;"9900135";27305.0;"K";"Non"
2012;"9900137";33166.8;"K";"Non"
2012;"9900138";7111.0;"L";"Non"
2012;"9900139";3365.0;"K";"Non"
2012;"9900140";1.1;"L";"Non"
2012;"9900141";84362.1;"L";"Non"
2012;"9900143";13933.6;"L";"Oui"
2012;"9900145";60.0;"L";"Oui"
2012;"9900147";190.0;"L";"Non"
2012;"9900148";6565.0;"L";"Non"
2012;"9900154";4664.2;"K";"Non"
2012;"9900158";155562.5;"L";"Non"
2012;"9900162";220.0;"L";"Non"
2012;"9900184";5008.8;"L";"Non"
2012;"9900189";58870.6;"K";"Non"
2012;"9900191";93199.7;"L";"Non"
2012;"9900193";915.0;"K";"Non"
2012;"9900194";0.1;"L";"Non"
2012;"9900199";36125.0;"L";"Non"
2012;"9900200";11457.8;"L";"Oui"
2012;"9900201";40663.0;"L";"Non"
2012;"9900202";6796.1;"K";"Non"
2012;"9900203";35327.4;"L";"Non"
2012;"9900206";120695.8;"L";"Non"
2012;"9900212";22792.0;"L";"Non"
2012;"9900213";5.0;"L";"Non"
2012;"9900222";19467.0;"K";"Non"
2012;"9900227";128072.8;"L";"Non"
2012;"9900232";2.0;"L";"Oui"
2012;"9900235";45.0;"L";"Non"
2012;"9900238";363.0;"L";"Non"
2012;"9900242";747652.8;"K";"Non"
2012;"9900245";25550.0;"K";"Non"
2012;"9900247";4033.0;"L";"Non"
2012;"9900250";583.0;"L";"Non"
2012;"9900251";269890.4;"L";"Non"
2012;"9900252";175.0;"K";"Non"
2012;"9900254";26822.1;"L";"Oui"
2012;"9900255";162320.0;"L";"Oui"
2012;"9900257";185998.7;"K";"Oui"
2012;"9900262";715.2;"K";"Non"
2012;"9900263";111573.7;"L";"Non"
2012;"9900268";124.0;"L";"Non"
2012;"9900269";447477.7;"L";"Non"
2012;"9900273";95.0;"L";"Non"
2012;"9900276";2512.8;"K";"Non"
2012;"9900277";493.0;"K";"Non"
2012;"9900281";5.0;"L";"Non"
2012;"9900282";9285.8;"L";"Oui"
2012;"9900285";2.0;"K";"Non"
2012;"9900287";1367.0;"L";"Non"
2012;"9900289";30927.7;"K";"Non"
2012;"9900300";18.3;"L";"Non"
2012;"9900316";78110.0;"L";"Non"
2012;"9900321";563.9;"K";"Oui"
2012;"9900324";16324.0;"K";"Oui"
2012;"9900326";25040.0;"K";"Non"
2012;"9900327";460.0;"K";"Non"
2012;"9900328";426.0;"K";"Non"
2012;"9900329";25168.0;"L";"Non"
2012;"9900331";33692.0;"L";"Non"
2012;"9900333";21.9;"K";"Oui"
2012;"9900340";69211.5;"L";"Non"
2012;"9900350";74844.4;"L";"Non"
2012;"9900352";128.7;"K";"Oui"
2012;"9900353";16998.0;"K";"Non"
2012;"9900354";177310.8;"K";"Non"
2012;"9900360";65041.5;"K";"Oui"
2012;"9900361";356614.4;"L";"Oui"
2012;"9900366";25.0;"L";"Non"
2012;"9900369";1595.0;"L";"Non"
2012;"9900371";38663.5;"K";"Oui"
2012;"9900372";42.5;"K";"Oui"
2012;"9900373";50.6;"L";"Oui"
2012;"9900374";1660.0;"K";"Non"
2012;"9900376";13600.0;"K";"Non"
2012;"9900378";117135.0;"K";"Non"
2012;"9900380";4.0;"L";"Non"
2012;"9900383";23825.9;"K";"Non"
2012;"9900384";6700.0;"L";"Non"
2012;"9900387";57109.6;"L";"Non"
2012;"9900390";62928.0;"L";"Non"
2012;"9900396";47386.5;"L";"Oui"
2012;"9900398";51366.9;"K";"Non"
2012;"9900401";34584.0;"L";"Non"
2012;"9900404";17740.0;"L";"Non"
2012;"9900405";8121.9;"L";"Oui"
2012;"9900406";60963.0;"L";"Non"
2012;"9900409";108.5;"L";"Non"
2012;"9900411";10661.0;"L";"Non"
2012;"9900412";69765.9;"L";"Non"
2012;"9900413";25.0;"L";"Non"
2012;"9900414";282.1;"K";"Non"
2012;"9900429";26.0;"L";"Non"
2012;"9900431";200.0;"L";"Non"
2012;"9900440";1275.0;"K";"Oui"
2012;"9900444";8665.0;"L";"Non"
2012;"9900446";53328.8;"K";"Non"
2012;"9900451";4.2;"L";"Oui"
