substance_id_eupbd;substance_eupbd;status_reg_1107_2019;date_approbation;date_expiration_approbation;candidat_substitution;substance_basique;risque_bas;autorisations_pays;autorisation_france;substance_bnvd;cas_bnvd
360;(E)-5-Decen-1-ol;Approuvée;;;;;;EL, ES, IT;Non;e-5-decen-1-ol;56578-18-8
1330;(E)-5-Decen-1-yl acetate;Approuvée;09/01/2022;30/08/2037;;;Oui;EL, ES, IT;Non;(e)-5-decen-1-yl acetate;38421-90-8
361;(E)-8-Dodecen-1-yl acetate;Approuvée;09/01/2022;30/08/2037;;;Oui;AT, AT, AT, BG, CZ, DE, EL, ES, IT, LU, NL, PT, SI;Non;acetate de e-8-dodecenyle;38363-29-0
352;(E,E)-7,9-Dodecadien-1-yl acetate;Approuvée;09/01/2022;30/08/2037;;;Oui;CZ, EL, ES, IT;Non;e7,e/z9-dodecadienyl acetate + n-dodecanyl acetate;
362;(E,E)-8,10-Dodecadien-1-ol;Approuvée;;;;;;AT, AT, AT, BE, BG, CZ, DE, DK, EE, EL, ES, FI, HR, HU, IT, LU, NL, PL, PT, SE, SI;Non;e8,e10-dodecadiene-1-ol;33956-49-9
362;(E,E)-8,10-Dodecadien-1-ol;Approuvée;;;;;;AT, AT, AT, BE, BG, CZ, DE, DK, EE, EL, ES, FI, HR, HU, IT, LU, NL, PL, PT, SE, SI;Non;e8,e10-dodécadiène-1-ol + tétradécylacétate;
349;(E,Z)-2,13-Octadecadien-1-yl acetate;Approuvée;;;;;Oui;AT, AT, AT, BE, BG, ES, IT, PL;Non;(e,z)-2,13-octadecadienyl acetate;86252-65-5
1328;(E,Z)-7,9-Dodecadien-1-yl acetate;Approuvée;;;;;Oui;AT, AT, AT, CY, CZ, DE, EL, ES, HU, IT, LU, MT, PT, SI, SK;Non;e7,z9-dodecadienylacetate;54364-62-4
364;(E,Z)-8-Dodecen-1-yl acetate;Approuvée;09/01/2009;31/08/2023;;;;ES, IT;Non;e,z-8-dodecen-1-yl acetate + z-8-dodecen-1-ol;
364;(E,Z)-8-Dodecen-1-yl acetate;Approuvée;09/01/2009;31/08/2023;;;;ES, IT;Non;e/z8 acetate de dodecenyle;37338-40-2
1331;(E,Z)-9-Dodecen-1-yl acetate;Approuvée;09/01/2009;31/08/2023;;;;AT, AT, CZ;Non;e/z9-dodecenyl acetate;16974-34-8
1017;(Z)-11-Hexadecenal;Approuvée;;;;;;AT, BE, DE, IT, NL, PT;Non;(z)-11-hexadecenal;53939-28-9
1017;(Z)-11-Hexadecenal;Approuvée;;;;;;AT, BE, DE, IT, NL, PT;Non;z/e-11 hexadecenal;53939-28-9
368;(Z)-11-Tetradecen-1-yl acetate;Approuvée;;;;;Oui;AT, AT, AT, BE, BG, CZ, DK, EE, EL, ES, FI, HU, IT, NL, PL, SE, UK;Non;z-11-tetradecenyl acetate;20711-10-8
1341;(Z)-13-Octadecenal;Approuvée;;;;;;ES;Non;(z)-13-octadecenal;58594-45-9
373;(Z)-8-Dodecen-1-ol;Approuvée;;;;;;AT, AT, AT, BG, CZ, DE, EL, ES, HU, IT, NL, PT, SI;Non;(z)-8-dodecenol;40642-40-8
374;(Z)-8-Dodecen-1-yl acetate;Approuvée;09/01/2022;30/08/2037;;;Oui;AT, AT, AT, BG, CZ, DE, EL, ES, HU, IT, LU, NL, SI;Non;acetate de z-8-dodecenyle;28079-04-1
375;(Z)-9-Dodecen-1-yl acetate;Approuvée;09/01/2022;30/08/2037;;;Oui;AT, AT, AT, CZ, DE, HU, IT, LU, SI, SK;Non;(z)-9-dodecenylacetate;16974-11-1
376;(Z)-9-Hexadecenal;Approuvée;;;;;;ES;Non;(z)-9-hexadecenal;56219-04-6
377;(Z)-9-Tetradecen-1-yl acetate;Approuvée;09/01/2022;30/08/2037;;;Oui;AT, AT, AT, BE, BG, CZ, DK, EL, ES, HU, IT, PL;Non;z-9-tetradecenyl acetate;16725-53-4
384;1,3-Dichloropropene;Non approuvée;;;;;;;;1,3-dichloropropene;542-75-6
1203;1,4-Dimethylnaphthalene;Approuvée;07/01/2014;30/06/2025;;;;AT, AT, AT, BE, BG, CY, CZ, DE, DK, ES, FI, FR, FR, FR, HR, IE, LT, LU, LV, NL, PL, RO, SE;Oui;1,4-dimethylnaphtalene;571-58-4
826;1-Decanol;Approuvée;06/01/2011;31/08/2024;;;;BE, DE, EL, ES, FR, FR, FR, HR, HU, IT, PL, PT, RO;Oui;decane-1-ol;112-30-1
391;1-Naphthylacetamide (1-NAD);Approuvée;01/01/2012;31/12/2023;;;;AT, AT, AT, BE, CY, ES, FR, FR, FR, HR, IT, PL, PT, SI;Oui;alpha naphtyl acetamide (nad);86-86-2
380;1-Naphthylacetic acid (1-NAA);Approuvée;01/01/2012;31/12/2023;;;;AT, AT, AT, BE, BG, CY, CZ, DE, EL, ES, FR, FR, FR, HR, IE, IT, LT, LV, MT, NL, PL, PT, RO, SI, SK, UK;Oui;acide alpha naphtylacetique (ana);86-87-3
390;1-methylcyclopropene;Approuvée;08/01/2019;31/07/2034;;;;AT, AT, AT, BE, BG, CZ, DE, DK, EE, EL, ES, FR, FR, FR, HR, HU, IE, IT, LT, LU, NL, PL, PT, RO, SI, SK, UK;Oui;1-methylcyclopropene (1-mcp);3100-04-7
394;2,4-D;Approuvée;01/01/2016;31/12/2030;;;;AT, AT, AT, BE, BG, CY, CZ, DE, DK, EE, EL, ES, FI, FR, FR, FR, HR, HU, IE, IT, LT, LU, LV, MT, NL, PL, PT, RO, SE, SI, SK, UK;Oui;2,4-d;94-75-7
395;2,4-DB;Approuvée;11/01/2017;31/10/2032;;;;ES, IE, NL, UK;Non;2,4-db;94-82-6
617;2,5-Dichlorobenzoic acid methylester;Approuvée;09/01/2009;31/08/2023;;;;AT, AT, AT, DE, FR, FR, FR, IT;Oui;acide 2,5-dichlorobenzoique;50-79-3
405;2-Methyl-3-buten-2-ol;Non approuvée;;;;;;;;methyl-butenol;115-18-4
1013;2-Phenylphenol (incl. sodium salt orthophenyl phenol);Approuvée;01/01/2010;31/12/2023;;;;CY, EL, ES, HR, PT;Non;2 phenyl-phenol;90-43-7
1013;2-Phenylphenol (incl. sodium salt orthophenyl phenol);Approuvée;01/01/2010;31/12/2023;;;;CY, EL, ES, HR, PT;Non;orthophenylphenate de sodium;132-27-4
1013;2-Phenylphenol (incl. sodium salt orthophenyl phenol);Approuvée;01/01/2010;31/12/2023;;;;CY, EL, ES, HR, PT;Non;orthophenylphenol;90-43-7
1033;2-Propanol;Non approuvée;;;;;;;;alcool isopropylique;67-63-0
1040;4,6,6-Trimethyl-bicyclo[3.1.1]hept-3-en-ol,((S)-cis-verbenol);Non approuvée;;;;;;;;s-6-verbenol;18881-04-4
1044;6-Benzyladenine;Approuvée;06/01/2011;31/08/2024;;;;AT, AT, AT, BE, CZ, DE, DK, EE, EL, ES, FI, FR, FR, FR, HR, HU, IE, IT, LU, NL, PL, PT, SE, SI, SK, UK;Oui;6-benzyladenine;1214-39-7
1047;8-Hydroxyquinoline incl. oxyquinoleine;Approuvée;01/01/2012;31/12/2023;;;;AT, AT, AT, BE, BG, CY, DE, EL, FR, FR, FR, HU, MT, PT, SI;Oui;8-hydroxiquinoline;148-24-3
1048;Abamectin (aka avermectin);Approuvée;04/01/2023;31/03/2038;;;;AT, AT, AT, BE, BG, CY, CZ, DE, DK, EE, EL, ES, FI, FR, FR, FR, HR, HU, IE, IT, LT, LU, LV, MT, NL, PL, PT, RO, SE, SI, SK, UK;Oui;abamectine;71751-41-2
1209;Acequinocyl;Approuvée;09/01/2014;30/11/2024;;;;AT, AT, AT, BE, CY, CZ, DE, EL, ES, FR, FR, FR, HR, IT, LU, NL, PL, PT, RO, SI, UK;Oui;acequinocyl;57960-19-7
1050;Acetamiprid;Approuvée;03/01/2018;28/02/2033;;;;AT, AT, AT, BE, BG, CY, CZ, DE, DK, EE, EL, ES, FI, FR, FR, HR, HU, IE, IT, LT, LU, LV, MT, NL, PL, PT, RO, SE, SI, SK, UK;Oui;acetamipride;135410-20-7
1051;Acetic acid;Approuvée;09/01/2009;31/08/2023;;;;AT, AT, AT, BE, CZ, DE, DK, FI, FR, FR, FR, IE, LU, NL, PL, PT, SE, UK;Oui;acide acetique;64-19-7
1052;Acetochlor;Non approuvée;;;;;;;;acetochlore;34256-82-1
1053;Acibenzolar-S-methyl (benzothiadiazole);Approuvée;04/01/2016;31/03/2031;;;;AT, AT, BE, BG, CY, EL, ES, FR, FR, FR, HU, IT, NL, PT, RO;Oui;acibenzolar-s-methyl;135158-54-2
1054;Aclonifen;Approuvée;08/01/2009;31/07/2023;;;;AT, AT, AT, BE, BG, CY, CZ, DE, DK, EE, EL, ES, FI, FR, FR, FR, HR, HU, IE, IT, LT, LU, LV, NL, PL, PT, RO, SE, SI, SK, UK;Oui;aclonifen;74070-46-5
1056;Acrinathrin;Non approuvée;01/01/2012;31/12/2021;;;;CY, EL, MT, PT;Non;acrinathrine;101007-06-1
863;Adoxophyes orana GV strain BV-0001;Non approuvée;02/01/2013;31/01/2023;;;;AT, BE, DE, DK, FR, FR, FR, IT, PL, UK;Oui;adoxophyes orana granulovirus souche bv-0001;
265;Akanthomyces muscarius Ve6 (formerly Lecanicillium muscarium strain Ve6);Approuvée;03/01/2021;29/02/2036;;;Oui;BE, DK, ES, IT, NL, UK;Non;lecanicillium muscarium souche ve6;67892-35-7
325;Alpha-Cypermethrin (aka alphamethrin);Non approuvée;11/01/2019;06/07/2021;;;;BE, CY, EL, FI, HR, HU, MT, PT, SE, UK;Non;alphamethrine;67375-30-8
1015;Aluminium phosphide;Approuvée;;;;;;AT, AT, AT, BE, BG, CY, CZ, DE, DK, EE, EL, ES, FI, FR, FR, FR, HR, HU, IE, IT, LT, LU, LV, MT, NL, PL, PT, RO, SE, SI, SK, UK;Oui;phosphure d'aluminium;20859-73-8
327;Aluminium silicate (aka kaolin);Approuvée;09/01/2009;31/08/2023;;;;AT, AT, AT, BE, CY, EL, ES, FR, FR, FR, HU, NL;Oui;kaolin;1332-58-7
705;Ametoctradin;Approuvée;08/01/2013;31/07/2023;;;;AT, AT, AT, BE, BG, CY, CZ, DE, EE, EL, ES, FR, FR, FR, HR, HU, IE, IT, LT, LU, LV, MT, NL, PL, PT, SI, SK, UK;Oui;ametoctradine;865318-97-4
330;Amidosulfuron;Approuvée;01/01/2009;31/12/2023;;;;AT, AT, AT, BE, BG, CZ, DE, EE, EL, ES, FI, FR, FR, FR, HR, HU, IE, IT, LT, LU, LV, NL, PL, PT, RO, SE, SI, SK, UK;Oui;amidosulfuron;120923-37-7
865;Aminopyralid;Approuvée;01/01/2015;31/12/2024;;;;AT, AT, AT, BE, BG, CZ, DE, DK, EE, EL, ES, FI, FR, FR, FR, HR, HU, IE, IT, LT, LU, LV, NL, PL, PT, RO, SE, SI, SK, UK;Oui;aminopyralid;150114-71-9
335;Amisulbrom;Approuvée;07/01/2014;30/09/2024;;;;AT, AT, AT, BE, BG, CY, CZ, DE, EE, EL, ES, FI, FR, FR, FR, HR, HU, IE, IT, LT, LU, LV, NL, PL, PT, RO, SE, SI, SK, UK;Oui;amisulbrom;348635-87-0
337;Amitrole (aminotriazole);Non approuvée;;;;;;NL;Non;aminotriazole;61-82-5
337;Amitrole (aminotriazole);Non approuvée;;;;;;NL;Non;amitrole;61-82-5
338;Ammonium acetate;Non approuvée;;;;;;EL, PT;Non;acetate d'ammonium;631-61-8
340;Ammonium carbonate;Non approuvée;;;;;;;;carbonate d'ammonium;506-87-6
344;Ammonium thiocyanate;Substance pas encore évaluée au niveau européen;;;;;;;;thiocyanate d'ammonium;1761-95-4
344;Ammonium thiocyanate;Substance pas encore évaluée au niveau européen;;;;;;;;thiocyanate d'ammonium;1762-95-4
345;Ampelomyces quisqualis strain AQ10;Approuvée;08/01/2018;08/01/2033;;;Oui;BE, CY, DE, EL, ES, FR, FR, FR, IE, IT, LU, NL, SI, SK, UK;Oui;ampelomyces quisqualis souche aq10;
1217;Anthraquinone;Non approuvée;;;;;;;;anthraquinone;84-65-1
417;Aureobasidium pullulans (strains DSM 14940 and DSM 14941);Approuvée;02/01/2014;31/01/2025;;;;AT, AT, AT, BE, DE, EL, ES, FR, FR, FR, HU, IT, LU, NL, PL, PT, RO, SI, SK, UK;Oui;aureobasidium pullulans souche dsm 14940;67891-88-7
417;Aureobasidium pullulans (strains DSM 14940 and DSM 14941);Approuvée;02/01/2014;31/01/2025;;;;AT, AT, AT, BE, DE, EL, ES, FR, FR, FR, HU, IT, LU, NL, PL, PT, RO, SI, SK, UK;Oui;aureobasidium pullulans souche dsm 14941;67891-88-7
420;Azadirachtin (Margosa extract);Approuvée;06/01/2011;31/08/2024;;;;AT, AT, AT, BE, BG, CY, CZ, DE, DK, EE, EL, ES, FR, FR, FR, HR, HU, IT, LT, LU, LV, NL, PL, PT, RO, SE, SI, SK, UK;Oui;azadirachtine;11141-17-6
423;Azimsulfuron;Non approuvée;01/01/2012;31/12/2021;;;;EL, HU, PT, RO;Non;azimsulfuron;120162-55-2
427;Azocyclotin;Non approuvée;;;;;;;;azocyclotin;41083-11-8
428;Azoxystrobin;Approuvée;01/01/2012;31/12/2024;;;;AT, AT, AT, BE, BG, CY, CZ, DE, DK, EE, EL, ES, FI, FR, FR, FR, HR, HU, IE, IT, LT, LU, LV, MT, NL, PL, PT, RO, SE, SI, SK, UK;Oui;azoxystrobine;131860-33-8
1198;Bacillus amyloliquefaciens MBI 600;Approuvée;16/09/2016;16/09/2026;;;;AT, AT, AT, BE, CY, CZ, DE, DK, EL, ES, FI, FR, FR, FR, HU, IT, LT, NL, PL, PT, RO, SE, UK;Oui;bacillus amyloliquefaciens souche mbi 600;NC
1197;Bacillus amyloliquefaciens strain FZB24;Approuvée;06/01/2017;06/01/2032;;;Oui;AT, AT, AT, BE, BG, CY, CZ, DE, EL, ES, FR, FR, FR, HU, IT, NL, PL, RO, SI, SK, UK;Oui;bacillus amyloliquefaciens souche fzb24;NC
1078;Bacillus amyloliquefaciens subsp. plantarum D747;Approuvée;04/01/2015;31/03/2025;;;;AT, AT, AT, BE, CY, CZ, DE, DK, EL, ES, FR, FR, FR, HU, IE, IT, NL, PL, SE, SI, UK;Oui;bacillus amyloliquefaciens subsp plantarum d747;
992;Bacillus firmus I-1582;Approuvée;10/01/2013;30/09/2023;;;;BE, BG, CZ, DE, DK, EL, ES, FR, FR, FR, IT, NL, PT, RO, SE, SI, UK;Oui;bacillus firmus i-1582;
1079;Bacillus pumilus QST 2808;Approuvée;09/01/2014;31/08/2025;;;;BG, CY, CZ, EL, ES, FR, FR, FR, HR, IE, IT, NL, RO, SI, SK, UK;Oui;bacillus pumilus souche qst 2808;
1269;Bacillus thuringiensis subsp. Aizawai strain ABTS-1857;Approuvée;05/01/2009;30/04/2023;;;;EL, ES, IT, PL;Non;bacillus thuringiensis ssp aizawai souche abts-1857;68038-71-1
861;Bacillus thuringiensis subsp. Israeliensis (serotype H-14) strain AM65-52;Approuvée;05/01/2009;30/04/2023;;;;AT, AT, AT, BE, DE, DK, ES, NL, SE, UK;Non;bacillus thuringiensis serotype h 14;68038-71-1
1270;Bacillus thuringiensis subsp. Kurstaki strain ABTS 351;Approuvée;05/01/2009;30/04/2023;;;;AT, AT, AT, BG, CY, EL, ES, IT, LU, LV, PL, RO, SE;Non;bacillus thuringiensis ssp kurstaki souche abts-351;68038-71-1
1271;Bacillus thuringiensis subsp. Kurstaki strain EG 2348;Approuvée;05/01/2009;30/04/2023;;;;AT, AT, AT, BG, CZ, EL, ES, HR, IT, MT, PL, SK;Non;bacillus thuringiensis ssp kurstaki souche eg 2348;68038-71-1
1273;Bacillus thuringiensis subsp. Kurstaki strain SA 11;Approuvée;05/01/2009;30/04/2023;;;;AT, AT, AT, CZ, EL, HU, IT, NL, PL;Non;bacillus thuringiensis ssp kurstaki souche sa-11;68038-71-1
432;Bacillus thuringiensis subsp. Kurstaki strains ABTS 351, PB 54, SA 11, SA12 and EG 2348;Approuvée;05/01/2009;30/04/2023;;;;BE, CY, DE, DK, ES, FR, FR, FR, HR, HU, IE, IT, LT, LU, PT, SI, UK;Oui;bacillus thuringiensis ssp kurstaki;68038-71-1
433;Bacillus thuringiensis subsp. Tenebrionis strain NB 176 (TM 14 1);Non approuvée;05/01/2009;30/04/2019;;;;;;bacillus thuringiensis sp. tenebrionis;68038-71-1
1336;Beauveria bassiana 203;Approuvée;19/04/2022;18/04/2032;;;;;;beauveria bassiana souche 203;63428-82-0
1183;Beauveria bassiana strain 147;Approuvée;06/06/2017;06/06/2027;;;;CY, EL, ES, FR, FR, FR, IT, PT;Oui;spores de beauveria bassiana 147;
1275;Beauveria bassiana strain ATCC 74040;Approuvée;05/01/2009;30/04/2023;;;;AT, AT, BG, EL, ES, FR, FR, FR, IT, LU, MT, NL, PL, SI;Oui;beauveria bassiana souche atcc 74040;63428-82-0
1339;Beauveria bassiana strain GHA;Approuvée;05/01/2009;30/04/2023;;;;CZ, DK, EL, ES, FI, FR, FR, FR, HU, IT, MT, NL, SE, SI;Oui;beauveria bassiana souche gha;63428-82-0
1184;Beauveria bassiana strain NPP111B005;Approuvée;06/07/2017;06/07/2027;;;;CY, EL, ES, FR, FR, FR, IT, PT;Oui;beauveria bassiana souche npp111b005;
440;Beflubutamid;Approuvée;12/01/2007;31/07/2023;;;;AT, AT, BE, BG, CZ, DE, EL, ES, FR, FR, FR, IT, LU, PL, RO;Oui;beflubutamide;113614-08-7
1345;Benalaxyl;Non approuvée;03/01/2005;10/05/2020;;;;EL, ES, HU, IE, MT, PT, UK;Non;benalaxyl;71626-11-4
441;Benalaxyl-M;Approuvée;05/01/2014;30/04/2025;;;;AT, AT, AT, CZ, DE, EL, ES, FR, FR, FR, HR, HU, IT, MT, NL, PT, RO, SK;Oui;benalaxyl-m;98243-83-5
444;Benfluralin;Non approuvée;03/01/2009;02/12/2023;;;;BE, BG, CY, EL, FR, FR, FR, HU, IE, IT, PL, RO;Oui;benfluraline;1861-40-1
445;Benfuracarb;Non approuvée;;;;;;;;benfuracarbe;82560-54-1
448;Benoxacor;Substance pas encore évaluée au niveau européen;;;;;;EL, PT;Non;benoxacor;98730-04-2
1019;Bensulfuron;Approuvée;11/01/2009;31/10/2023;;;;AT, AT, AT, BG, CY, EL, FR, FR, FR, HR, HU, IT, MT, NL, PL, PT, RO, SI;Oui;bensulfuron methyl;83055-99-6
451;Bentazone;Approuvée;06/01/2018;31/05/2025;;;;BE, BG, CY, CZ, DK, EE, EL, ES, FI, FR, FR, FR, HR, HU, IE, IT, LT, LU, LV, NL, PL, PT, RO, SE, SI, SK, UK;Oui;bentazone;25057-89-0
452;Benthiavalicarb;Approuvée;08/01/2008;31/07/2023;;;;AT, AT, AT, BE, BG, CZ, DE, EE, EL, ES, FR, FR, FR, HU, IE, IT, LT, LU, LV, NL, PL, PT, RO, SE, SI, SK, UK;Oui;benthiavalicarbe;177406-68-7
454;Benzobicyclon;En attente d'évaluation;;;;;;;;benzobicyclon;156963-66-5
455;Benzoic acid;Approuvée;09/01/2017;31/08/2032;;;;AT, AT, AT, BE, DE, ES, FI, FR, FR, FR, HR, HU, IT, LT, LU, LV, NL, PL, PT, UK;Oui;acide benzoique;65-85-0
1204;Benzovindiflupyr;Approuvée;03/02/2016;03/02/2024;;;;AT, AT, AT, BE, BG, CY, CZ, DE, EE, EL, ES, FI, FR, FR, FR, HR, HU, IE, IT, LT, LU, LV, NL, PL, PT, RO, SE, SI, SK, UK;Oui;benzovindiflupyr;1072957-71-1
458;Beta-Cyfluthrin;Non approuvée;01/01/2004;20/07/2020;;;;ES, HU, NL, UK;Non;betacyfluthrine;68359-37-5
1349;Bifenazate;Approuvée;07/01/2022;30/06/2037;;;;AT, AT, AT, BE, BG, CY, CZ, DE, DK, EE, EL, ES, FI, FR, FR, FR, HR, HU, IE, IT, MT, NL, PL, PT, RO, SE, UK;Oui;bifenazate;149877-41-8
866;Bifenox;Approuvée;01/01/2009;31/12/2023;;;;AT, AT, AT, BE, BG, CZ, DE, EE, ES, FI, FR, FR, FR, HU, IT, LT, LU, LV, NL, PL, RO, SE, SK, UK;Oui;bifenox;42576-02-3
460;Bifenthrin;Non approuvée;08/01/2012;31/07/2019;;;;;;bifenthrine;82657-04-3
462;Bioallethrin;Non approuvée;;;;;;;;bioallethrine;584-79-2
1393;Bitertanol;Non approuvée;01/01/2012;29/08/2013;;;;NL;Non;bitertanol;55179-31-2
675;Bixafen;Approuvée;10/01/2013;31/05/2025;;;;AT, AT, AT, BE, BG, CZ, DE, EE, ES, FI, FR, FR, FR, HR, HU, IE, IT, LT, LU, LV, NL, PL, PT, RO, SE, SI, SK, UK;Oui;bixafen;581809-46-3
468;Blood meal;Approuvée;04/01/2021;31/03/2036;;;Oui;AT, AT, AT, BE, DE, EE, FR, FR, FR, LT, LV, SE;Oui;farine de sang;
469;Bone Oil;Non approuvée;;;;;;;;huile d'os;8001-85-2
472;Boscalid (formerly nicobifen);Approuvée;08/01/2008;31/07/2023;;;;AT, AT, AT, BE, BG, CY, CZ, DE, DK, EE, EL, ES, FI, FR, FR, FR, HR, HU, IE, IT, LT, LU, LV, MT, NL, PL, PT, RO, SE, SI, SK, UK;Oui;boscalid;188425-85-6
476;Bromadiolone;Non approuvée;06/01/2011;31/05/2021;;;;NL;Non;bromadiolone;28772-56-7
483;Bromoxynil;Non approuvée;03/01/2005;17/09/2020;;;;ES, FI, HU, IE, MT, UK;Non;bromoxynil;1689-84-5
483;Bromoxynil;Non approuvée;03/01/2005;17/09/2020;;;;ES, FI, HU, IE, MT, UK;Non;bromoxynil octanoate;1689-99-2
484;Bromuconazole;Approuvée;02/01/2011;31/01/2024;;;;AT, AT, AT, BE, BG, CZ, DE, ES, FR, FR, FR, HU, IE, IT, LU, PL, RO, SK, UK;Oui;bromuconazole;116255-48-2
485;Bupirimate;Approuvée;06/01/2011;31/08/2024;;;;AT, AT, AT, BE, CY, DE, EL, ES, FR, FR, FR, HR, HU, IE, IT, MT, NL, PL, PT, RO, SK, UK;Oui;bupirimate;41483-43-6
486;Buprofezin;Approuvée;02/01/2011;31/01/2024;;;;AT, AT, AT, BE, CZ, DE, DK, FI, FR, FR, FR, IT, NL, PT, SI, UK;Oui;buprofezine;69327-76-0
490;Butralin;Non approuvée;;;;;;;;butraline;33629-47-9
1185;COS-OGA;Approuvée;22/04/2015;22/04/2030;;;Oui;AT, AT, AT, BE, BG, CY, DE, EL, FR, FR, FR, IT, LU, NL, PL, PT, RO, SI, UK;Oui;cos-oga;
497;Calcium hydroxide;Approuvée;;;;Oui;;;;fleur de chaux (chaux eteinte);1305-62-0
500;Calcium phosphide;Non approuvée;09/01/2009;12/01/2020;;;;CZ, HU;Non;phosphure de calcium;1305-99-3
501;Candida oleophila strain O;Approuvée;10/01/2013;31/12/2024;;;;AT, AT, AT, BE, EL, ES, FR, FR, FR, HU, IT, NL, PL, UK;Oui;candida oleophila souche o;
502;Capric acid (CAS 334-48-5);Approuvée;09/01/2009;31/08/2023;;;;AT, AT, AT, CZ, DK, ES, FI, FR, FR, FR, IT, NL, SE, SK;Oui;acide decanoique;334-48-5
503;Caprylic acid (CAS 124-07-2);Approuvée;09/01/2009;31/08/2023;;;;AT, AT, AT, CZ, FI, IT, SE, SK;Non;acide octanoique;124-07-2
505;Captan;Approuvée;10/01/2007;31/07/2023;;;;AT, AT, AT, BE, BG, CY, CZ, DE, EE, EL, ES, FR, FR, FR, HR, HU, IE, IT, LT, LU, LV, NL, PL, PT, RO, SI, SK, UK;Oui;captane;133-06-2
832;Carbaryl;Non approuvée;;;;;;;;carbaryl;63-25-2
506;Carbendazim;Non approuvée;;;;;;;;carbendazime;10605-21-7
507;Carbetamide;Non approuvée;06/01/2011;31/05/2021;;;;AT, BE, NL, UK;Non;carbetamide;16118-49-3
508;Carbofuran;Non approuvée;;;;;;;;carbofuran;1563-66-2
509;Carbon dioxide (active substance);Approuvée;05/01/2022;30/04/2037;;;;AT, AT, AT, DE, UK;Non;dioxyde de carbone;124-38-9
513;Carbosulfan;Non approuvée;;;;;;;;carbosulfan;55285-14-8
515;Carfentrazone-ethyl;Approuvée;08/01/2018;31/07/2033;;;;AT, AT, AT, BE, CZ, DE, EE, EL, ES, FI, FR, FR, FR, HU, IE, IT, LT, LU, LV, MT, NL, PL, PT, SE, SK, UK;Oui;carfentrazone ethyl;128639-02-1
1065;Cerevisane;Approuvée;23/04/2015;23/04/2030;;;Oui;AT, AT, AT, BE, DE, EL, ES, FR, FR, FR, IT, NL, PL, PT, UK;Oui;cerevisane;
524;Chloralose;Non approuvée;;;;;;;;alphachloralose;15879-93-3
524;Chloralose;Non approuvée;;;;;;;;alpha-chloralose;15879-93-3
526;Chlorantraniliprole;Approuvée;05/01/2014;31/12/2024;;;;AT, AT, AT, BE, BG, CY, CZ, DE, EL, ES, FR, FR, FR, HR, HU, IE, LT, LU, LV, MT, NL, PL, PT, RO, SI, SK, UK;Oui;chlorantraniliprole;500008-45-7
538;Chloridazon (aka pyrazone);Non approuvée;;;;;;HU, NL, PL, UK;Non;chloridazone;1698-60-8
1354;Chlormephos;Non approuvée;;;;;;IT;Non;chlormephos;24934-91-6
539;Chlormequat;Approuvée;12/01/2009;30/11/2023;;;;AT, AT, AT, BE, BG, CZ, DE, DK, EL, ES, FI, FR, FR, FR, HR, HU, IE, LT, LU, LV, NL, PL, PT, RO, SE, SI, SK, UK;Oui;chlormequat chlorure;999-81-5
541;Chlorophacinone;Non approuvée;;;;;;;;chlorophacinone;3691-35-8
542;Chlorophylline;Non approuvée;;;;;;;;chlorophylline (sels cuprosodiques);11006-34-1
544;Chlorothalonil;Non approuvée;03/01/2006;20/05/2019;;;;IT, UK;Non;chlorothalonil;1897-45-6
545;Chlorotoluron;Approuvée;03/01/2006;31/10/2023;;;;AT, AT, AT, BE, BG, CZ, DE, EE, EL, ES, FR, FR, FR, HR, HU, IE, LV, PL, PT, RO, SI, SK, UK;Oui;chlorotoluron;15545-48-9
1356;Chlorpropham;Non approuvée;02/01/2005;07/08/2019;;;;EE, UK;Non;chlorprophame;101-21-3
548;Chlorpyrifos;Non approuvée;07/01/2006;16/01/2020;;;;ES, IT;Non;chlorpyriphos-ethyl;2921-88-2
549;Chlorpyrifos-methyl;Non approuvée;07/01/2006;16/01/2020;;;;;;chlorpyriphos-methyl;5598-13-0
550;Chlorsulfuron;Non approuvée;01/01/2010;31/12/2019;;;;;;chlorsulfuron;64902-72-3
551;Chlorthal-dimethyl;Non approuvée;;;;;;;;chlorthal;2136-79-0
1021;Choline chloride;Non approuvée;;;;;;;;chlorure de choline;67-48-1
555;Cinidon ethyl;Non approuvée;;;;;;NL;Non;cinidon-ethyl;142891-20-1
561;Clethodim;Approuvée;06/01/2011;31/05/2023;;;;AT, AT, AT, BE, BG, CY, CZ, DE, EE, EL, ES, FI, FR, FR, FR, HR, HU, IE, IT, LT, LU, LV, NL, PL, PT, RO, SE, SI, SK, UK;Oui;clethodime;99129-21-2
562;Clodinafop;Approuvée;02/01/2007;30/04/2023;;;;BG, CY, DE, DK, EL, ES, FR, FR, FR, HR, IE, NL, PL, PT, RO, UK;Oui;clodinafop-propargyl;105512-06-9
564;Clofentezine;Approuvée;01/01/2009;31/12/2023;;;;BE, BG, CY, DE, EL, ES, HR, IE, IT, LU, NL, PL, PT, RO, SI, SK, UK;Non;clofentezine;74115-24-5
565;Clomazone;Approuvée;11/01/2008;31/10/2023;;;;AT, AT, AT, BE, BG, CY, CZ, DE, DK, EE, EL, ES, FR, FR, FR, HR, HU, IE, LT, LU, LV, MT, NL, PL, PT, RO, SE, SI, SK, UK;Oui;clomazone;81777-89-1
766;Clonostachys rosea strain J1446 (Gliocladium catenulatum strain J1446);Approuvée;04/01/2019;31/03/2034;;;Oui;AT, AT, AT, BE, CY, DE, DK, EE, ES, FI, FR, FR, FR, IE, IT, LT, LU, NL, PL, SE, SI, UK;Oui;clonostachys rosea j1446 (anciennement gliocladium catenulatum);
566;Clopyralid;Approuvée;10/01/2021;30/09/2036;;;;AT, AT, AT, BE, BG, CY, CZ, DE, DK, EE, EL, ES, FI, FR, FR, FR, HR, HU, IE, IT, LT, LU, LV, NL, PL, PT, RO, SE, SI, SK, UK;Oui;clopyralid;1702-17-6
566;Clopyralid;Approuvée;10/01/2021;30/09/2036;;;;AT, AT, AT, BE, BG, CY, CZ, DE, DK, EE, EL, ES, FI, FR, FR, FR, HR, HU, IE, IT, LT, LU, LV, NL, PL, PT, RO, SE, SI, SK, UK;Oui;clopyralid (sous forme de sel de monoethanolamine);57754-85-5
567;Cloquintocet mexyl;Substance pas encore évaluée au niveau européen;;;;;;BE, BG, DE, EE, EL, HU, LU, PT, RO, SK, UK;Non;cloquintocet-mexyl;99607-70-2
867;Clothianidin;Non approuvée;08/01/2006;31/01/2019;;;;HU, NL;Non;clothianidine;210880-92-5
569;Coniothyrium minitans Strain CON/M/91-08 (DSM 9660);Approuvée;08/01/2017;31/07/2032;;;Oui;AT, AT, AT, BE, BG, CZ, DE, DK, EL, ES, FI, FR, FR, FR, HU, IE, LU, NL, PL, PT, SE, SK, UK;Oui;coniothyrium minitans souche con/m/91-08;
1221;Copper compounds;Approuvée;01/01/2019;31/12/2025;;;;AT, AT, AT, BG, CY, FR, FR, FR, HR, HU, IT, LU, PL, PT, RO;Oui;cuivre du sulfate de cuivre;7758-98-7
1221;Copper compounds;Approuvée;01/01/2019;31/12/2025;;;;AT, AT, AT, BG, CY, FR, FR, FR, HR, HU, IT, LU, PL, PT, RO;Oui;cuivre du sulfate de cuivre;8011-63-0
1221;Copper compounds;Approuvée;01/01/2019;31/12/2025;;;;AT, AT, AT, BG, CY, FR, FR, FR, HR, HU, IT, LU, PL, PT, RO;Oui;cuivre du sulfate tetracuivrique et tricalcique;8011-63-0
1221;Copper compounds;Approuvée;01/01/2019;31/12/2025;;;;AT, AT, AT, BG, CY, FR, FR, FR, HR, HU, IT, LU, PL, PT, RO;Oui;cuivre du sulfate tribasique;12527-76-3
571;Copper hydroxide;Approuvée;01/01/2019;31/12/2025;;;;BE, BG, CY, CZ, DE, EL, ES, HR, HU, IT, LT, LU, LV, MT, PL, PT, RO, SI, SK;Non;cuivre de l'hydroxyde de cuivre;20427-59-2
580;Copper oxide;Approuvée;01/01/2019;31/12/2025;;;;BG, CY, EL, ES, HR, HU, IT, PL, PT, SI;Non;cuivre de l'oxyde cuivreux;1317-39-1
572;Copper oxychloride;Approuvée;01/01/2019;31/12/2025;;;;BE, BG, CY, CZ, DE, EL, ES, HR, HU, IE, LU, MT, PL, PT, RO, SI, SK, UK;Non;cuivre de l'oxychlorure de cuivre;1332-40-7
572;Copper oxychloride;Approuvée;01/01/2019;31/12/2025;;;;BE, BG, CY, CZ, DE, EL, ES, HR, HU, IE, LU, MT, PL, PT, RO, SI, SK, UK;Non;cuivre de l'oxychlorure de cuivre;1332-65-6
576;Cresylic acid;Non approuvée;;;;;;;;cresol;95-48-7
581;Cyanamide (H & Ca cyanamide);Non approuvée;;;;;;;;cyanamide de calcium;156-62-7
581;Cyanamide (H & Ca cyanamide);Non approuvée;;;;;;;;cyanamide hydrogene;420-04-2
1083;Cyantraniliprole;Approuvée;14/09/2016;14/09/2026;;;;AT, AT, AT, BE, BG, CY, CZ, DE, DK, EL, ES, FI, FR, FR, FR, HU, IE, IT, LT, LV, NL, PL, PT, RO, SE, SI, SK, UK;Oui;cyantraniliprole;736994-63-1
583;Cyazofamid;Approuvée;08/01/2021;31/07/2036;;;;AT, AT, AT, BE, BG, CY, CZ, DE, DK, EE, EL, ES, FI, FR, FR, FR, HR, HU, IE, LT, LU, LV, MT, NL, PL, PT, RO, SE, SI, SK, UK;Oui;cyazofamide;120116-88-3
586;Cycloxydim;Approuvée;06/01/2011;31/05/2023;;;;AT, AT, AT, BE, BG, CY, CZ, DE, DK, EE, EL, ES, FI, FR, FR, FR, HR, HU, IE, LT, LU, LV, NL, PL, PT, RO, SE, SI, SK, UK;Oui;cycloxydime;101205-02-1
588;Cydia pomonella Granulovirus (CpGV);Approuvée;05/01/2009;30/04/2023;;;;AT, AT, AT, BE, BG, CZ, DE, DK, EL, ES, FI, FR, FR, FR, HR, HU, IE, LT, LU, LV, NL, PL, PT, RO, SE, SI, SK, UK;Oui;cydia pomonella granulosis, isolat m (cpvg m);
588;Cydia pomonella Granulovirus (CpGV);Approuvée;05/01/2009;30/04/2023;;;;AT, AT, AT, BE, BG, CZ, DE, DK, EL, ES, FI, FR, FR, FR, HR, HU, IE, LT, LU, LV, NL, PL, PT, RO, SE, SI, SK, UK;Oui;cydia pomonella granulovirus;
588;Cydia pomonella Granulovirus (CpGV);Approuvée;05/01/2009;30/04/2023;;;;AT, AT, AT, BE, BG, CZ, DE, DK, EL, ES, FI, FR, FR, FR, HR, HU, IE, LT, LU, LV, NL, PL, PT, RO, SE, SI, SK, UK;Oui;cydia pomonella granulovirus, isolat r5 (cpgv-r5);
588;Cydia pomonella Granulovirus (CpGV);Approuvée;05/01/2009;30/04/2023;;;;AT, AT, AT, BE, BG, CZ, DE, DK, EL, ES, FI, FR, FR, FR, HR, HU, IE, LT, LU, LV, NL, PL, PT, RO, SE, SI, SK, UK;Oui;virus de la granulose;
833;Cyflufenamid;Approuvée;04/01/2010;31/03/2024;;;;AT, AT, AT, BE, BG, CY, CZ, DE, EE, EL, ES, FR, FR, FR, HR, HU, IE, IT, LT, LU, LV, NL, PL, PT, RO, SE, SI, SK, UK;Oui;cyflufenamid;180409-60-3
589;Cyfluthrin;Non approuvée;;;;;;IT;Non;cyfluthrine;68359-37-5
590;Cyhalofop-butyl;Approuvée;07/01/2017;30/06/2032;;;;BG, EL, ES, FR, FR, FR, PT;Oui;cyhalofop butyl;122008-85-9
592;Cyhexatin;Non approuvée;;;;;;IT;Non;cyhexatin;13121-70-5
593;Cymoxanil;Approuvée;09/01/2009;31/08/2023;;;;AT, AT, AT, BE, BG, CY, CZ, DE, DK, EL, ES, FI, FR, FR, FR, HR, HU, IE, IT, LU, MT, NL, PL, PT, RO, SE, SI, SK, UK;Oui;cymoxanil;57966-95-7
834;Cypermethrin;Approuvée;02/01/2022;31/01/2029;;;;AT, AT, AT, BE, BG, CY, CZ, DE, DK, EE, EL, ES, FI, FR, FR, FR, HR, HU, IE, LT, LU, LV, MT, NL, PL, PT, RO, SE, SI, SK, UK;Oui;cypermethrine;52315-07-8
594;Cyproconazole;Non approuvée;06/01/2011;31/05/2021;;;;BE, EL, FI, HR, HU, IE, IT, LT, MT, PL, PT, UK;Non;cyproconazole;94361-06-5
1023;Cyprodinil;Approuvée;05/01/2007;30/04/2023;;;;AT, AT, AT, BE, BG, CY, CZ, DE, DK, EE, EL, ES, FI, FR, FR, FR, HR, HU, IE, LT, LU, LV, MT, NL, PL, PT, RO, SE, SI, SK, UK;Oui;cyprodinyl;121552-61-2
1251;Cyprosulfamide;Substance pas encore évaluée au niveau européen;;;;;;BE, EE, EL, HU, LU, PT;Non;cyprosulfamide;221667-31-8
596;Cyromazine;Non approuvée;01/01/2010;31/12/2019;;;;EL, NL, PT;Non;cyromazine;66215-27-8
599;Daminozide;Approuvée;03/01/2006;31/10/2023;;;;AT, AT, AT, BE, CY, CZ, DE, DK, EL, ES, FI, FR, FR, FR, HU, IE, IT, NL, PL, PT, SE, SI, UK;Oui;daminozide;1596-84-5
835;Dazomet;Approuvée;06/01/2011;31/05/2023;;;;AT, AT, AT, BE, BG, CZ, DE, EL, HR, HU, IT, LU, NL, PL, PT, RO, SI, SK, UK;Non;dazomet;533-74-4
602;Deltamethrin;Approuvée;11/01/2003;31/10/2023;;;;AT, AT, AT, BE, BG, CY, CZ, DE, DK, EE, EL, ES, FI, FR, FR, FR, HR, HU, IE, LT, LU, LV, MT, NL, PL, PT, RO, SE, SI, SK, UK;Oui;deltamethrine;52918-63-5
836;Denathonium benzoate;Non approuvée;09/01/2009;12/01/2020;;;;HU;Non;benzoate de denatonium;3734-33-6
605;Desmedipham;Non approuvée;;;;;;UK;Non;desmediphame;13684-56-5
607;Di-1-p-menthene B470;Non approuvée;;;;;;ES;Non;di-1-p-menthene;34363-01-4
612;Diazinon;Non approuvée;;;;;;IT;Non;diazinon;333-41-5
613;Dicamba;Approuvée;01/01/2009;31/12/2023;;;;AT, AT, AT, BE, BG, CY, CZ, DE, DK, EE, EL, ES, FI, FR, FR, FR, HR, HU, IE, LT, LU, LV, MT, NL, PL, PT, RO, SI, SK, UK;Oui;dicamba;1918-00-9
614;Dichlobenil;Non approuvée;;;;;;;;dichlobenil;1194-65-6
619;Dichlorprop-P;Approuvée;06/01/2007;30/04/2023;;;;AT, AT, AT, BE, BG, CY, CZ, DE, DK, EE, EL, FI, FR, FR, FR, HR, HU, IE, LT, LU, LV, PT, SK, UK;Oui;dichlorprop-p;15165-67-0
620;Dichlorvos;Non approuvée;;;;;;;;dichlorvos;62-73-7
622;Diclofop;Approuvée;06/01/2011;31/05/2023;;;;EL, ES, PT;Non;diclofop methyl;51338-27-3
1360;Dicofol;Non approuvée;;;;;;;;dicofol;115-32-2
631;Difenoconazole;Approuvée;01/01/2009;31/12/2023;;;;AT, AT, AT, BE, BG, CY, CZ, DE, DK, EE, EL, ES, FI, FR, FR, FR, HR, HU, IE, LT, LU, LV, MT, NL, PL, PT, RO, SE, SI, SK, UK;Oui;difenoconazole;119446-68-3
633;Difethialone;Non approuvée;;;;;;;;difethialone;104653-34-1
634;Diflubenzuron;Non approuvée;01/01/2009;31/12/2020;;;;BE, CY, CZ, EL, ES, HR, IT, NL, PL, UK;Non;diflubenzuron;35367-38-5
635;Diflufenican;Approuvée;01/01/2009;31/12/2023;;;;AT, AT, AT, BE, BG, CY, CZ, DE, DK, EE, EL, ES, FI, FR, FR, FR, HR, HU, IE, LT, LU, LV, MT, NL, PL, PT, RO, SE, SI, SK, UK;Oui;diflufenicanil;83164-33-4
639;Dimethachlor;Approuvée;01/01/2010;31/12/2023;;;;AT, AT, AT, BG, CZ, DE, EE, FR, FR, FR, HR, HU, IE, LT, LV, PL, RO, SI, SK, UK;Oui;dimethachlore;50563-36-5
640;Dimethenamid;Non approuvée;;;;;;IT;Non;dimethenamide;87674-68-8
641;Dimethenamid-P;Approuvée;09/01/2019;31/08/2034;;;;AT, AT, AT, BE, BG, CY, CZ, DE, EL, ES, FI, FR, FR, FR, HR, HU, IE, LT, LU, LV, NL, PL, PT, RO, SE, SI, SK, UK;Oui;dimethenamide-p (dmta-p);163515-14-8
1214;Dimethoate;Non approuvée;10/01/2007;30/06/2019;;;;BE, IT, UK;Non;dimethoate;60-51-5
644;Dimethomorph;Approuvée;10/01/2007;31/07/2023;;;;AT, AT, AT, BE, BG, CY, CZ, DE, DK, EE, EL, ES, FI, FR, FR, FR, HR, HU, IE, LT, LU, LV, MT, NL, PL, PT, RO, SE, SI, SK, UK;Oui;dimethomorphe;110488-70-5
988;Dimethyl disulphide;En attente d'évaluation;;;;;;;;disulfure de dimethyle (dmds);624-92-0
868;Dimoxystrobin;Approuvée;10/01/2006;31/01/2024;;;;AT, AT, AT, BE, BG, CZ, DE, EE, FR, FR, FR, HR, HU, LT, LU, LV, PL, RO, SK, UK;Oui;dimoxystrobine;149961-52-4
650;Dinocap;Non approuvée;;;;;;;;dinocap;39300-45-3
658;Diphenylamine;Non approuvée;;;;;;;;diphenylamine;122-39-4
659;Diquat;Non approuvée;01/01/2002;14/11/2018;;;;UK;Non;diquat;85-00-7
690;Disodium phosphonate;Approuvée;02/01/2014;31/01/2026;;;;AT, AT, AT, BG, CZ, DE, ES, FR, FR, FR, LU, PT, RO, SK;Oui;phosphonate de disodium;13708-85-5
691;Dithianon;Approuvée;06/01/2011;31/08/2024;;;;AT, AT, AT, BE, BG, CY, CZ, DE, DK, EE, EL, ES, FI, FR, FR, FR, HR, HU, IE, LT, LU, LV, MT, NL, PL, RO, SE, SI, SK, UK;Oui;dithianon;3347-22-6
692;Diuron;Non approuvée;10/01/2008;30/09/2020;;;;IT;Non;diuron;330-54-1
1064;Dodecan-1-ol;Approuvée;09/01/2022;30/08/2037;;;;AT, AT, AT, BE, BG, CZ, DK, EL, ES, HU, IT, NL, PL, PT, SI;Non;1-dodecanol;112-53-8
694;Dodemorph;Approuvée;09/01/2009;31/08/2023;;;;DE, EE, EL, IT, NL;Non;dodemorphe acetate;31717-87-0
695;Dodine;Approuvée;06/01/2011;31/08/2024;;;;AT, BE, BG, CY, CZ, DE, DK, EE, EL, ES, FI, FR, FR, FR, HR, HU, IE, LT, LU, LV, NL, PL, PT, RO, SE, SI, SK, UK;Oui;dodine;2439-10-3
838;Emamectin;Approuvée;05/01/2014;30/11/2024;;;;AT, AT, AT, BE, BG, CY, EL, ES, FR, FR, FR, HR, HU, NL, PL, PT, RO, SI;Oui;emamectine benzoate;155569-91-8
701;Epoxiconazole;Non approuvée;05/01/2009;30/04/2020;;;;HU, IE, NL, PL, PT, UK;Non;epoxiconazole;133855-98-8
84;Esfenvalerate;Approuvée;01/01/2016;31/12/2023;;;;AT, AT, AT, BE, BG, CY, CZ, DE, EL, ES, FI, FR, FR, FR, HR, HU, IE, LU, NL, PL, PT, RO, SE, SK, UK;Oui;esfenvalerate;66230-04-4
86;Ethanedial (glyoxal);Non approuvée;;;;;;;;glyoxal;107-22-2
88;Ethanol;Non approuvée;;;;;;IT, UK;Non;alcool denature;64-17-5
88;Ethanol;Non approuvée;;;;;;IT, UK;Non;alcool ethylique;64-17-5
88;Ethanol;Non approuvée;;;;;;IT, UK;Non;ethanol;64-17-5
89;Ethephon;Approuvée;08/01/2007;31/07/2023;;;;AT, AT, AT, BE, BG, CY, CZ, DE, DK, EE, EL, ES, FI, FR, FR, FR, HR, HU, IE, LT, LU, LV, NL, PL, RO, SE, SI, SK, UK;Oui;ethephon;16672-87-0
94;Ethofumesate;Approuvée;11/01/2016;31/10/2031;;;;AT, AT, AT, BE, BG, CZ, DE, DK, EL, ES, FI, FR, FR, FR, HR, HU, IE, LT, LU, LV, NL, PL, PT, RO, SE, SK, UK;Oui;ethofumesate;26225-79-6
95;Ethoprophos;Non approuvée;10/01/2007;21/03/2019;;;;;;ethoprophos;13194-48-4
96;Ethoxyquin;Non approuvée;;;;;;;;ethoxyquine;91-53-2
98;Ethylene;Approuvée;09/01/2009;31/08/2023;;;;AT, AT, AT, BE, CZ, DE, EE, ES, FR, FR, FR, HU, IE, LT, LV, NL, PL, PT, RO, SE, SI, SK, UK;Oui;ethylene;74-85-1
101;Etofenprox;Approuvée;01/01/2010;31/12/2023;;;;AT, AT, AT, BG, CY, CZ, DE, EL, ES, FR, FR, FR, HU, IT, MT, PL, RO, SK, UK;Oui;etofenprox;80844-07-1
102;Etoxazole;Approuvée;02/01/2021;31/01/2028;;;;BE, BG, CY, EL, HR, HU, IE, NL, PL, PT, UK;Non;etoxazole;153233-91-1
301;Eugenol;Approuvée;12/01/2013;30/11/2023;;;;BG, CY, EL, ES, FR, FR, FR, HU, MT, PT, RO;Oui;eugenol;97-53-0
118;FEN 560 (Fenugreek seed powder);Non approuvée;11/01/2010;31/10/2020;;;;IT;Non;extrait de fenugrec;
109;Famoxadone;Non approuvée;10/01/2002;09/09/2021;;;;BE, CY, DE, EL, ES, HR, HU, MT, PT, SK, UK;Non;famoxadone;131807-57-3
113;Fatty acids C7 to C20 (Pelargonic acid (CAS 112-05-0));Approuvée;09/01/2009;31/08/2023;;;;BE, BG, DE, EE, HU, IE, IT, LU, NL, PL, PT, RO, SI, SK, UK;Non;sels de potassium d'acides gras;10124-65-9
846;"Fatty acids C7-C18 and C18 unsaturated potassium salts (CAS 67701-09-1) (Capric acid (CAS 334-48-5); Caprylic acid (CAS 124-07-2); Lauric acid (CAS 143-07-7); Oleic acid (CAS 112-80-1))";Approuvée;09/01/2009;31/08/2023;;;;BE, CY, CZ, DE, DK, EL, ES, FI, HU, IE, PT, RO, SE, SK, UK;Non;sels de potassium d'acides gras (c8-c18);67701-09-1
117;Fatty alcohols / Aliphatic alcohols;Non approuvée;;;;;;;;alcools gras;85566-12-7
119;Fenamidone;Non approuvée;10/01/2003;14/08/2018;;;;PT, UK;Non;fenamidone;161326-34-7
124;Fenazaquin;Approuvée;06/01/2011;31/05/2023;;;;ES, FR, FR, FR, HR, PL, PT, UK;Oui;fenazaquin;120928-09-8
125;Fenbuconazole;Non approuvée;05/01/2011;30/04/2021;;;;EL, ES, HR, MT, PT;Non;fenbuconazole;114369-43-6
1194;Fenbutatin oxide;Non approuvée;;;;;;;;fenbutatin oxyde;13356-08-6
4;Fenhexamid;Approuvée;01/01/2016;31/12/2030;;;;AT, AT, AT, BE, CY, CZ, DK, EL, ES, FI, FR, FR, FR, HR, HU, IE, LU, MT, NL, PL, PT, RO, SE, SI, SK, UK;Oui;fenhexamid;126833-17-8
5;Fenitrothion;Non approuvée;;;;;;;;fenitrothion;122-14-5
9;Fenoxaprop-P;Approuvée;01/01/2009;31/12/2023;;;;AT, AT, AT, BE, BG, CY, CZ, DE, DK, EE, EL, ES, FI, FR, FR, FR, HR, HU, IE, LT, LU, LV, NL, PL, PT, RO, SE, SK, UK;Oui;fenoxaprop-p-ethyl;71283-80-2
10;Fenoxycarb;Non approuvée;06/01/2011;31/05/2021;;;;BE, CY, EL, ES, HR, HU, NL, PT;Non;fenoxycarbe;72490-01-8
1286;Fenpicoxamid (formerly: Lyserphenvalpyr);Approuvée;10/11/2018;10/11/2028;;;;AT, AT, AT, BE, BG, DE, ES, FR, FR, FR, HU, LU, NL;Oui;fenpicoxamide;517875-34-2
13;Fenpropidin;Approuvée;01/01/2009;31/12/2023;;;;AT, AT, AT, BE, BG, CZ, DE, EE, EL, ES, FR, FR, FR, HU, IE, IT, LT, LV, NL, PL, PT, RO, SE, SI, SK, UK;Oui;fenpropidine;67306-00-7
817;Fenpropimorph;Non approuvée;05/01/2009;30/04/2019;;;;IT, NL, UK;Non;fenpropimorphe;67564-91-4
683;Fenpyrazamine;Approuvée;01/01/2013;31/12/2023;;;;AT, AT, AT, BE, BG, CY, CZ, DE, DK, EL, FI, FR, FR, FR, HU, IE, IT, LT, LU, LV, NL, PL, PT, RO, SE, SI, SK, UK;Oui;fenpyrazamine;473798-59-3
14;Fenpyroximate;Approuvée;05/01/2009;30/04/2023;;;;AT, AT, AT, BG, CY, CZ, DE, EL, ES, FR, FR, FR, HU, PL, PT, RO, SE, SI, SK;Oui;fenpyroximate;111812-58-9
23;Ferric phosphate;Approuvée;01/01/2016;31/12/2030;;;Oui;AT, AT, AT, BE, CY, CZ, DE, DK, EE, EL, ES, FI, FR, FR, FR, HR, IE, LT, LU, LV, NL, PL, PT, RO, SE, SI, SK, UK;Oui;phosphate ferrique;10045-86-0
23;Ferric phosphate;Approuvée;01/01/2016;31/12/2030;;;Oui;AT, AT, AT, BE, CY, CZ, DE, DK, EE, EL, ES, FI, FR, FR, FR, HR, IE, LT, LU, LV, NL, PL, PT, RO, SE, SI, SK, UK;Oui;phosphate ferrique dihydrate;14567-75-0
1002;Fipronil;Non approuvée;;;;;;;;fipronil;120068-37-3
819;Flazasulfuron;Approuvée;08/01/2017;31/07/2032;;;;AT, AT, AT, BE, BG, CY, CZ, DE, EL, ES, FR, FR, FR, HR, HU, IE, LU, MT, PL, PT, RO, SK, UK;Oui;flazasulfuron;104040-78-0
27;Flonicamid (IKI-220);Approuvée;09/01/2010;31/08/2023;;;;AT, AT, AT, BE, BG, CY, CZ, DE, DK, EE, EL, FI, FR, FR, FR, HR, HU, IE, IT, LT, LU, LV, MT, NL, PL, PT, RO, SE, SI, UK;Oui;flonicamide;158062-67-0
28;Florasulam;Approuvée;01/01/2016;31/12/2030;;;;AT, AT, AT, BE, BG, CY, CZ, DE, DK, EE, EL, ES, FI, FR, FR, FR, HR, HU, IE, IT, LT, LU, LV, MT, NL, PL, PT, RO, SE, SI, SK, UK;Oui;florasulame;145701-23-1
1414;Florpyrauxifen-benzyl;Approuvée;24/07/2019;24/07/2029;;;;BG, EL, ES, FR, FR, FR;Oui;florpyrauxifen-benzyl;1390661-72-9
31;Fluazifop-P;Approuvée;01/01/2012;31/12/2023;;;;AT, AT, AT, BE, BG, CY, CZ, DE, EE, EL, ES, FI, FR, FR, FR, HR, HU, IE, IT, LT, LU, LV, NL, PL, PT, RO, SE, SI, SK, UK;Oui;fluazifop-p-butyl;79241-46-6
32;Fluazinam;Approuvée;03/01/2009;29/02/2024;;;;AT, AT, AT, BE, BG, CY, CZ, DE, DK, EE, EL, ES, FI, FR, FR, FR, HR, HU, IE, LT, LU, LV, MT, NL, PL, PT, RO, SE, SI, SK, UK;Oui;fluazinam;79622-59-6
37;Fludioxonil;Approuvée;11/01/2008;31/10/2023;;;;AT, AT, AT, BE, BG, CY, CZ, DE, DK, EE, EL, ES, FI, FR, FR, FR, HR, HU, IE, IT, LT, LU, LV, MT, NL, PL, PT, RO, SE, SI, SK, UK;Oui;fludioxonil;131341-86-1
1313;Flufenacet (formerly fluthiamide);Approuvée;01/01/2004;31/10/2023;;;;AT, AT, AT, BE, BG, CY, CZ, DE, EE, EL, ES, FR, FR, FR, HR, HU, IE, LT, LU, LV, MT, NL, PL, PT, RO, SI, SK, UK;Oui;flufenacet;142459-58-3
38;Flufenoxuron;Non approuvée;;;;;;;;flufenoxuron;101463-69-8
720;Flumioxazin;Approuvée;03/01/2022;28/02/2037;;;;AT, AT, AT, BE, BG, CZ, DE, EL, ES, HR, HU, IE, LV, NL, RO, UK;Non;flumioxazine;103361-09-7
722;Fluopicolide;Approuvée;06/01/2010;31/05/2023;;;;AT, AT, AT, BE, BG, CY, CZ, DE, EE, EL, ES, FI, FR, FR, FR, HR, HU, IE, IT, LT, LU, LV, MT, NL, PL, PT, RO, SE, SI, SK, UK;Oui;fluopicolide;239110-15-7
723;Fluopyram;Approuvée;02/01/2014;31/01/2024;;;;AT, AT, AT, BE, BG, CY, CZ, DE, DK, EE, EL, ES, FI, FR, FR, FR, HR, HU, IE, LT, LU, LV, NL, PL, PT, RO, SE, SI, SK, UK;Oui;fluopyram;658066-35-4
726;Fluoxastrobin;Approuvée;08/01/2008;31/07/2023;;;;AT, AT, AT, BE, BG, CZ, DE, EE, EL, ES, FR, FR, FR, HR, HU, IE, LT, LU, LV, NL, PL, PT, RO, SE, SK, UK;Oui;fluoxastrobine;361377-29-9
728;Flupyrsulfuron-methyl (DPX KE 459);Non approuvée;;;;;;NL;Non;flupyrsulfuron-methyl;144740-54-5
729;Fluquinconazole;Non approuvée;01/01/2012;31/12/2021;;;;PT;Non;fluquinconazole;136426-54-5
733;Flurochloridone;Approuvée;06/01/2011;31/05/2023;;;;CZ, EL, FR, FR, FR, HR, HU, IT, PL, RO, SK;Oui;flurochloridone;61213-25-0
734;Fluroxypyr;Approuvée;01/01/2012;31/12/2024;;;;AT, AT, AT, BE, BG, CY, CZ, DE, DK, EE, EL, ES, FI, FR, FR, FR, HR, HU, IE, LT, LU, LV, MT, NL, PL, PT, RO, SE, SI, SK, UK;Oui;fluroxypyr;69377-81-7
734;Fluroxypyr;Approuvée;01/01/2012;31/12/2024;;;;AT, AT, AT, BE, BG, CY, CZ, DE, DK, EE, EL, ES, FI, FR, FR, FR, HR, HU, IE, LT, LU, LV, MT, NL, PL, PT, RO, SE, SI, SK, UK;Oui;fluroxypyr-meptyl;81406-37-3
735;Flurprimidol;Non approuvée;;;;;;;;flurprimidol;56425-91-3
736;Flurtamone;Non approuvée;01/01/2004;27/12/2018;;;;UK;Non;flurtamone;96525-23-4
737;Flusilazole;Non approuvée;;;;;;;;flusilazole;85509-19-9
739;Flutolanil;Approuvée;03/01/2009;29/02/2024;;;;AT, AT, AT, BE, BG, CY, CZ, DE, EL, FR, FR, FR, HR, HU, IE, LU, NL, PL, PT, RO, SI, SK, UK;Oui;flutolanil;66332-96-5
740;Flutriafol;Non approuvée;06/01/2011;31/05/2021;;;;CY, CZ, EL, ES, HR, HU, IT, MT, PT, UK;Non;flutriafol;76674-21-0
989;Fluxapyroxad;Approuvée;01/01/2013;31/05/2025;;;;AT, AT, AT, BE, BG, CY, CZ, DE, EE, EL, ES, FI, FR, FR, FR, HR, HU, IE, LT, LU, LV, MT, NL, PL, RO, SE, SI, SK, UK;Oui;fluxapyroxad;907204-31-3
742;Folpet;Approuvée;10/01/2007;31/07/2023;;;;AT, AT, AT, BE, BG, CY, CZ, DE, DK, EL, ES, FR, FR, FR, HR, HU, IE, LU, MT, NL, PL, PT, RO, SE, SI, SK, UK;Oui;folpel;133-07-3
745;Foramsulfuron;Approuvée;06/01/2020;31/05/2035;;;;AT, AT, AT, BE, BG, CY, CZ, DE, DK, EE, EL, ES, FI, FR, FR, FR, HR, HU, IE, IT, LT, LU, LV, NL, PL, PT, RO, SE, SI, SK, UK;Oui;foramsulfuron;173159-57-4
746;Forchlorfenuron;Approuvée;06/01/2018;31/05/2033;;;;EL, FR, FR, FR, PT;Oui;forchlorfenuron;68157-60-8
747;Formaldehyde;Non approuvée;;;;;;IT;Non;formaldehyde;50-00-0
748;Formetanate;Approuvée;10/01/2007;31/07/2023;;;;BE, BG, CY, DE, EL, ES, NL, PL, PT;Non;formetanate-chlorhydrate;23422-53-9
1004;Formic acid;Non approuvée;;;;;;;;acide formique;64-18-6
751;Fosetyl;Approuvée;05/01/2007;30/04/2023;;;;AT, AT, AT, BE, BG, CY, CZ, DE, DK, EE, EL, ES, FI, FR, FR, FR, HR, HU, IE, IT, LT, LU, LV, MT, NL, PL, PT, RO, SE, SI, SK, UK;Oui;fosetyl;15845-66-6
751;Fosetyl;Approuvée;05/01/2007;30/04/2023;;;;AT, AT, AT, BE, BG, CY, CZ, DE, DK, EE, EL, ES, FI, FR, FR, FR, HR, HU, IE, IT, LT, LU, LV, MT, NL, PL, PT, RO, SE, SI, SK, UK;Oui;fosetyl-aluminium;39148-24-8
752;Fosthiazate;Approuvée;01/01/2004;31/10/2023;;;;BE, BG, CY, DE, EL, ES, FR, FR, FR, HR, HU, IE, MT, NL, PL, RO, UK;Oui;fosthiazate;98886-44-3
1211;Gamma-cyhalothrin;Approuvée;04/01/2015;31/03/2025;;;;AT, AT, AT, BE, BG, CZ, DE, DK, EE, FI, HR, HU, IE, IT, LT, LV, PL, RO, SE, SK;Non;gamma-cyhalothrine;76703-62-3
760;Garlic extract;Approuvée;03/01/2021;29/02/2036;;;;BE, BG, CY, EL, ES, FR, FR, FR, IE, NL, PL, PT, UK;Oui;extrait d'ail;8008-99-9
1036;Geraniol;Approuvée;12/01/2013;30/11/2023;;;;BE, BG, CY, EL, ES, FR, FR, FR, IT, MT, NL, PT, RO;Oui;geraniol;106-24-1
764;Gibberellic acid;Approuvée;09/01/2009;31/08/2023;;;;AT, AT, AT, BE, CY, CZ, DE, DK, EL, ES, FR, FR, FR, HU, IT, LT, LU, NL, PL, PT, RO, SI, UK;Oui;acide gibberellique;77-06-5
765;Gibberellins;Approuvée;09/01/2009;31/08/2023;;;;AT, AT, AT, BE, CZ, DE, EL, ES, FI, FR, FR, FR, HR, HU, IE, LU, NL, PL, PT, SE, SI, SK, UK;Oui;gibberellines (a4+a7);8030-53-3
79;Glufosinate;Non approuvée;10/01/2007;31/07/2018;;;;;;glufosinate ammonium;77182-82-2
1314;Glutaraldehyde (aka glutardialdehyde);Non approuvée;;;;;;IT;Non;glutaraldehyde;111-30-8
811;Glyphosate;Approuvée;16/12/2017;15/12/2023;;;;AT, AT, AT, BE, BG, CY, CZ, DE, DK, EE, EL, ES, FI, FR, FR, FR, HR, HU, IE, LT, LV, MT, NL, PL, PT, RO, SE, SI, SK, UK;Oui;glyphosate;1071-83-6
811;Glyphosate;Approuvée;16/12/2017;15/12/2023;;;;AT, AT, AT, BE, BG, CY, CZ, DE, DK, EE, EL, ES, FI, FR, FR, FR, HR, HU, IE, LT, LV, MT, NL, PL, PT, RO, SE, SI, SK, UK;Oui;n-phosphonomethyl glycine;1071-83-6
811;Glyphosate;Approuvée;16/12/2017;15/12/2023;;;;AT, AT, AT, BE, BG, CY, CZ, DE, DK, EE, EL, ES, FI, FR, FR, FR, HR, HU, IE, LT, LV, MT, NL, PL, PT, RO, SE, SI, SK, UK;Oui;sulfosate;81591-81-3
1413;Halauxifen-methyl;Approuvée;08/05/2015;08/05/2025;;;;AT, AT, AT, BE, BG, CY, CZ, DE, DK, EE, FI, FR, FR, FR, HU, IE, LT, LU, LV, NL, PL, PT, RO, SE, SI, SK, UK;Oui;halauxifen-methyl;943831-98-9
83;Halosulfuron - methyl;Approuvée;10/01/2013;30/09/2023;;;;BG, EL, FR, FR, FR, HU, PT;Oui;halosulfuron-methyle;100784-20-1
768;Haloxyfop-P (Haloxyfop-R);Non approuvée;01/01/2011;31/12/2020;;;;BE, IT, NL;Non;haloxyfop-r;72619-32-0
771;Helicoverpa armigera nucleopolyhedrovirus (HearNPV);Approuvée;06/01/2013;31/05/2023;;;;AT, AT, AT, BG, CY, EL, ES, FR, FR, FR, PT;Oui;npv ha (nucleopolyhedrovirus d'helicoverpa armigera);
772;Heptamaloxyloglucan;Approuvée;03/01/2023;28/02/2038;;;Oui;FR, FR, FR;Oui;heptamaloxyloglucan;870721-81-6
129;Hexazinone;Non approuvée;;;;;;IT;Non;hexazinone;51235-04-2
130;Hexythiazox;Approuvée;06/01/2011;31/08/2024;;;;AT, AT, AT, BE, BG, CY, CZ, DE, DK, EL, ES, FI, FR, FR, FR, HU, LT, MT, NL, PL, PT, RO, SE, SI, SK, UK;Oui;hexythiazox;78587-05-0
1001;Hydramethylnon;Non approuvée;;;;;;;;hydramethylnon;67485-29-4
132;Hydrolysed proteins;Approuvée;09/01/2009;31/08/2023;;;;CY, EL, ES, FR, FR, FR, MT, PT;Oui;hydrolysat de proteines;
135;Hymexazol;Approuvée;06/01/2011;31/05/2023;;;;AT, AT, AT, BE, CZ, DE, DK, EL, FI, FR, FR, FR, HU, IE, NL, PL, RO, SE, UK;Oui;hymexazol;10004-44-1
1315;Imazalil (aka enilconazole);Approuvée;01/01/2012;31/12/2024;;;;AT, AT, AT, BE, BG, CY, CZ, DE, DK, EE, EL, FI, FR, FR, FR, HR, HU, IE, LU, NL, PL, PT, RO, SE, SK, UK;Oui;imazalil;35554-44-0
138;Imazamox;Approuvée;11/01/2017;31/01/2025;;;;AT, AT, AT, BE, BG, CY, CZ, DE, EE, EL, ES, FI, FR, FR, FR, HR, HU, IE, LT, LV, MT, NL, PL, PT, RO, SE, SI, SK, UK;Oui;imazamox;114311-32-9
140;Imazaquin;Non approuvée;01/01/2009;31/12/2018;;;;IE, UK;Non;imazaquine;81335-37-7
688;Imidacloprid;Non approuvée;08/01/2009;12/01/2020;;;;CY, DK, EL, ES, FI, HR, MT, NL, PT, SE;Non;imidaclopride;138261-41-3
227;Indolylacetic acid (aka auxins);Non approuvée;;;;;;IT;Non;acide b-indole acetique (aia);87-51-4
228;Indolylbutyric acid;Approuvée;06/01/2011;31/05/2023;;;;AT, AT, AT, BE, CY, DE, EL, FR, FR, FR, IT, LU, NL, PL, PT, SI, UK;Oui;acide b-indole butyrique (aib);133-32-4
229;Indoxacarb;Non approuvée;04/01/2006;19/12/2021;;;;BE, CY, CZ, DE, DK, EL, ES, FI, HR, HU, IE, MT, NL, PT, SE, SK, UK;Non;indoxacarbe;173584-44-6
231;Iodosulfuron;Approuvée;04/01/2017;31/03/2032;;;;AT, AT, AT, BE, BG, CY, CZ, DE, DK, EE, EL, ES, FI, FR, FR, FR, HR, HU, IE, LT, LU, LV, NL, PL, PT, RO, SE, SI, SK, UK;Oui;iodosulfuron-methyl-sodium;144550-36-7
232;Ioxynil;Non approuvée;;;;;;IT;Non;ioxynil;1689-83-4
232;Ioxynil;Non approuvée;;;;;;IT;Non;ioxynil octanoate;3861-47-0
233;Ipconazole;Approuvée;09/01/2014;30/11/2024;;;;AT, AT, AT, BE, BG, CY, CZ, DE, EL, FR, FR, FR, HU, IE, LT, LV, PL, PT, RO, SE, SK, UK;Oui;ipconazole;125225-28-7
234;Iprodione;Non approuvée;01/01/2004;12/05/2017;;;;IT, NL;Non;iprodione;36734-19-7
235;Iprovalicarb;Approuvée;04/01/2016;31/03/2031;;;;AT, AT, AT, BG, CY, CZ, DE, EL, FR, FR, FR, HR, HU, PT, RO, SI, SK;Oui;iprovalicarbe;140923-17-7
237;Iron sulphate;Approuvée;09/01/2009;31/08/2023;;;;AT, AT, AT, BE, DE, DK, EE, FI, FR, FR, FR, HU, LU, NL, PL, SE, SI, UK;Oui;fer sous forme de sulfate de fer;7720-78-7
237;Iron sulphate;Approuvée;09/01/2009;31/08/2023;;;;AT, AT, AT, BE, DE, DK, EE, FI, FR, FR, FR, HU, LU, NL, PL, SE, SI, UK;Oui;sulfate de fer (sulfate ferreux heptahydrate);7782-63-0
237;Iron sulphate;Approuvée;09/01/2009;31/08/2023;;;;AT, AT, AT, BE, DE, DK, EE, FI, FR, FR, FR, HU, LU, NL, PL, SE, SI, UK;Oui;sulfate de fer monohydrate;17375-41-6
1199;Isofetamid;Approuvée;15/09/2016;15/09/2026;;;;AT, AT, AT, BE, BG, CY, CZ, DE, EL, FR, FR, FR, HU, LT, LU, PL, PT, RO, SE, SI;Oui;isofetamide;875915-78-9
246;Isoproturon;Non approuvée;;;;;;IT, LT, NL;Non;isoproturon;34123-59-6
248;Isoxaben;Approuvée;06/01/2011;31/08/2024;;;;AT, AT, AT, BE, DE, ES, FI, FR, FR, FR, IE, IT, LU, NL, PT, SE, SI, UK;Oui;isoxaben;82558-50-7
1250;Isoxadifen-ethyl;Substance pas encore évaluée au niveau européen;;;;;;BE, EE, EL, HU, IT, LU;Non;isoxadifen-ethyl;163520-33-0
249;Isoxaflutole;Approuvée;08/01/2019;31/07/2034;;;;AT, AT, AT, BE, BG, CZ, DE, EL, ES, FR, FR, FR, HR, HU, IE, LU, NL, PL, PT, RO, SI, SK, UK;Oui;isoxaflutole;141112-29-0
255;Kieselgur (diatomaceous earth);Approuvée;01/01/2021;31/01/2036;;;;AT, AT, AT, BE, CY, DE, EL, ES, FR, FR, FR, HR, LU, SI;Oui;kieselguhr;
257;Kresoxim-methyl;Approuvée;01/01/2012;31/12/2024;;;;AT, AT, AT, BE, BG, CY, CZ, DE, DK, EE, EL, ES, FI, FR, FR, FR, HR, HU, IE, LT, LU, LV, NL, PL, PT, RO, SE, SI, SK, UK;Oui;kresoxim-methyl;143390-89-0
260;Laminarin;Approuvée;03/01/2018;28/02/2033;;;Oui;BE, DK, EL, ES, FR, FR, FR, NL, PL, PT, UK;Oui;laminarine;9008-22-4
1303;Landes pine tar;Non approuvée;;;;;;;;goudrons de pin;8011-48-1
1208;Lecithins;Approuvée;;;;Oui;;;;lecithine de soja;8002-43-5
267;Lenacil;Approuvée;01/01/2009;31/12/2023;;;;AT, AT, AT, BE, CY, CZ, DE, EL, ES, FR, FR, FR, HU, IE, NL, PL, PT, RO, SK, UK;Oui;lenacile;2164-08-1
269;Lime sulphur (calcium polysulphid);Approuvée;06/01/2011;31/08/2024;;;;AT, AT, AT, BG, EL, ES, HU, NL, PT;Non;polysulfure de calcium;1344-81-6
270;Linuron;Non approuvée;01/01/2004;03/03/2017;;;;;;linuron;330-55-2
271;Lufenuron;Non approuvée;01/01/2010;31/12/2019;;;;EL, MT, NL, PT;Non;lufenuron;103055-07-8
1324;MCPA;Approuvée;05/01/2006;31/10/2023;;;;AT, AT, AT, BE, BG, CY, CZ, DE, DK, EE, EL, ES, FI, FR, FR, FR, HR, HU, IE, LT, LU, LV, MT, NL, PL, PT, RO, SE, SI, SK, UK;Oui;2,4-mcpa;94-74-6
279;MCPB;Approuvée;05/01/2006;31/10/2023;;;;AT, AT, AT, BE, CZ, EE, FR, FR, FR, HU, IE, LT, LU, LV, PL, RO, SK, UK;Oui;2,4-mcpb;94-81-5
272;Magnesium phosphide;Approuvée;09/01/2009;31/08/2023;;;;AT, AT, AT, BE, BG, CY, DE, EE, EL, ES, FI, FR, FR, FR, HR, HU, LT, LU, LV, NL, PL, PT, RO, SI, SK, UK;Oui;phosphure de magnesium;12057-74-8
273;Malathion;Approuvée;05/01/2010;30/04/2023;;;;EL, IT;Non;malathion;121-75-5
820;Maleic hydrazide;Approuvée;11/01/2017;31/10/2032;;;;AT, AT, AT, BE, CZ, DE, DK, EL, ES, FI, FR, FR, FR, HR, HU, IE, IT, LU, PL, PT, RO, SE, SI, SK, UK;Oui;hydrazide maleique;123-33-1
274;Maltodextrin;Approuvée;10/01/2013;30/09/2023;;;;AT, AT, AT, BE, BG, CZ, DE, DK, EL, ES, FR, FR, FR, IE, LU, MT, NL, PL, PT, SE, UK;Oui;maltodextrine;9050-36-6
277;Mancozeb;Non approuvée;07/01/2006;01/04/2021;;;;CY, EL, ES, FI, HR, HU, IE, MT, PT, SE, UK;Non;mancozebe;8018-01-7
996;Mandipropamid;Approuvée;08/01/2013;31/07/2023;;;;AT, AT, AT, BE, BG, CY, CZ, DE, DK, EE, EL, ES, FI, FR, FR, FR, HR, HU, IE, LT, LU, LV, MT, NL, PL, PT, RO, SE, SI, SK, UK;Oui;mandipropamide;374726-62-2
278;Maneb;Non approuvée;07/01/2006;31/01/2017;;;;NL;Non;manebe;12427-38-2
281;Mecoprop;Non approuvée;06/01/2004;31/01/2017;;;;IT;Non;mecoprop (mcpp);7085-19-0
282;Mecoprop-P;Approuvée;06/01/2004;31/01/2024;;;;AT, AT, AT, BE, BG, CY, CZ, DE, EE, EL, ES, FI, FR, FR, FR, HR, HU, IE, LT, LU, LV, NL, PL, PT, SI, SK, UK;Oui;mecoprop-p (mcpp-p);16484-77-8
1325;Mefenpyr;Substance pas encore évaluée au niveau européen;;;;;;AT, AT, AT, BE, DE, EE, EL, HU, IT, LU, PT, RO, SK;Non;mefenpyr-diethyl;135590-91-9
1332;Mefentrifluconazole;Approuvée;20/03/2019;20/03/2029;;;;AT, AT, AT, BE, BG, CY, CZ, DE, DK, EE, EL, ES, FI, FR, FR, FR, HR, HU, IE, LT, LU, LV, MT, NL, PL, PT, RO, SE, SI, SK, UK;Oui;mefentrifluconazole;1417782-03-6
283;Mefluidide;Non approuvée;;;;;;IT;Non;mefluidide (sel de diethanolamine);53780-36-2
284;Mepanipyrim;Approuvée;10/01/2004;30/04/2023;;;;AT, AT, AT, BE, CY, DK, EL, ES, FI, FR, FR, FR, IE, NL, PL, PT, SE, UK;Oui;mepanipyrim;110235-47-7
286;Mepiquat;Approuvée;03/01/2009;29/02/2024;;;;AT, AT, AT, BE, BG, CZ, DE, DK, EE, EL, FI, FR, FR, FR, HR, HU, IE, LT, LU, LV, NL, PL, RO, SE, SI, SK, UK;Oui;mepiquat-chlorure;24307-26-4
823;Meptyldinocap;Approuvée;04/01/2015;31/03/2025;;;;AT, AT, AT, CY, CZ, EL, FR, FR, FR, HR, HU, MT, PT, RO, SI, SK, UK;Oui;meptyldinocap;131-72-6
203;Mesosulfuron;Approuvée;07/01/2017;30/06/2032;;;;AT, AT, AT, BE, BG, CY, CZ, DE, DK, EE, EL, ES, FI, FR, FR, FR, HR, HU, IE, IT, LT, LU, LV, NL, PL, PT, RO, SE, SI, SK, UK;Oui;mesosulfuron-methyl;208465-21-8
204;Mesotrione;Approuvée;06/01/2017;31/05/2032;;;;AT, AT, AT, BE, BG, CY, CZ, DE, DK, EE, EL, ES, FR, FR, FR, HR, HU, IE, IT, LT, LU, LV, MT, NL, PL, PT, RO, SE, SI, SK, UK;Oui;mesotrione;104206-82-8
1318;Metalaxyl;Approuvée;07/01/2010;30/06/2023;;;;AT, AT, AT, BE, BG, CY, CZ, DE, EL, ES, FR, FR, FR, HR, HU, IT, MT, PL, PT, RO, SI, SK;Oui;metalaxyl;57837-19-1
206;Metalaxyl-M;Approuvée;06/01/2020;31/05/2035;;;;AT, AT, AT, BE, BG, CY, CZ, DE, DK, EL, ES, FI, FR, FR, FR, HR, HU, IE, IT, MT, NL, PT, SE, SI, SK, UK;Oui;metalaxyl-m;70630-17-0
207;Metaldehyde;Approuvée;06/01/2011;31/05/2023;;;;AT, AT, AT, BE, BG, CY, CZ, DE, EE, EL, ES, FR, FR, FR, HR, HU, IE, IT, LT, LU, LV, MT, NL, PL, PT, RO, SI, SK, UK;Oui;metaldehyde;108-62-3
208;Metam (incl. -potassium and -sodium);Approuvée;07/01/2012;30/06/2023;;;;BE, BG, CY, EL, HU, IE, MT, NL, PL, PT, RO;Non;metam-sodium;137-42-8
209;Metamitron;Approuvée;09/01/2009;31/08/2023;;;;AT, AT, AT, BE, CY, CZ, DE, DK, EE, EL, ES, FI, FR, FR, FR, HR, HU, IE, IT, LT, LU, LV, MT, NL, PL, PT, RO, SE, SI, SK, UK;Oui;metamitrone;41394-05-2
1319;Metarhizium brunneum strain Ma 43 (formerly Metarhizium anisopliae var anisopliae);Approuvée;05/01/2022;30/04/2037;;;Oui;AT, AT, AT, BE, DE, DK, ES, FR, FR, FR, IE, LU, NL, PT, UK;Oui;metarhizium anisopliae;
210;Metazachlor;Approuvée;08/01/2009;31/07/2023;;;;AT, AT, AT, BE, BG, CY, CZ, DE, EE, EL, ES, FI, FR, FR, FR, HR, HU, IE, IT, LT, LU, LV, MT, NL, PL, PT, RO, SI, SK, UK;Oui;metazachlore;67129-08-2
211;Metconazole;Approuvée;06/01/2007;30/04/2023;;;;AT, AT, AT, BE, BG, CZ, DE, DK, EE, ES, FI, FR, FR, FR, HR, HU, IE, LT, LU, LV, NL, PL, PT, RO, SE, SI, SK, UK;Oui;metconazole;125116-23-6
212;Methabenzthiazuron;Non approuvée;;;;;;;;methabenzthiazuron;18691-97-9
217;Methiocarb (aka mercaptodimethur);Non approuvée;10/01/2007;10/03/2019;;;;IE, UK;Non;methiocarbe;2032-65-7
218;Methomyl;Non approuvée;;;;;;MT, PT;Non;methomyl;16752-77-5
1321;Methoxyfenozide;Approuvée;04/01/2019;31/03/2026;;;;BE, BG, CY, EL, ES, HR, HU, MT, NL, PT, RO, UK;Non;methoxyfenozide;161050-58-4
220;Methyl bromide;Non approuvée;;;;;;;;bromure de methyle;74-83-9
1322;Methylnaphthylacetamide;Non approuvée;;;;;;;;2-methyl-1-naphtylacetamide;85-07-4
225;Methylnaphthylacetic acid;Non approuvée;;;;;;IT;Non;acide 2-methyl-1-naphtylacetique;
1385;Metiram;Approuvée;07/01/2006;31/01/2024;;;;AT, AT, AT, BE, BG, CY, CZ, DE, EL, ES, FR, FR, FR, HR, HU, IT, LU, NL, PL, PT, RO, SI, SK;Oui;metirame;9006-42-2
1385;Metiram;Approuvée;07/01/2006;31/01/2024;;;;AT, AT, AT, BE, BG, CY, CZ, DE, EL, ES, FR, FR, FR, HR, HU, IT, LU, NL, PL, PT, RO, SI, SK;Oui;metirame-zinc;9006-42-2
1212;Metobromuron;Approuvée;01/01/2015;31/12/2024;;;;AT, AT, AT, BE, BG, CY, CZ, DE, DK, EE, EL, ES, FI, FR, FR, FR, HR, HU, IE, LT, LU, LV, MT, NL, PL, PT, RO, SE, SI, SK, UK;Oui;metobromuron;3060-89-7
877;Metosulam;Non approuvée;05/01/2011;30/04/2021;;;;UK;Non;metosulam;139528-85-1
1195;Metrafenone;Approuvée;02/01/2007;30/04/2023;;;;AT, AT, AT, BE, BG, CY, CZ, DE, DK, EE, EL, ES, FR, FR, FR, HR, HU, IE, IT, LT, LU, LV, NL, PL, PT, RO, SE, SI, SK, UK;Oui;metrafenone;220899-03-6
845;Metribuzin;Approuvée;10/01/2007;31/07/2023;;;;AT, AT, AT, BE, BG, CY, CZ, DE, EE, EL, ES, FI, FR, FR, FR, HR, HU, IE, IT, LU, LV, MT, NL, PL, PT, RO, SE, SI, SK, UK;Oui;metribuzine;21087-64-9
1306;Metschnikowia fructicola strain NRRL Y-27328;Approuvée;27/12/2018;27/12/2028;;;;EL;Non;metschnikowia fructicola souche nrrl y-27328;
880;Metsulfuron-methyl;Approuvée;04/01/2016;31/03/2024;;;;AT, AT, AT, BE, BG, CY, CZ, DE, DK, EE, EL, ES, FI, FR, FR, FR, HR, HU, IE, LT, LU, LV, MT, NL, PL, PT, RO, SE, SI, SK, UK;Oui;metsulfuron-methyl;74223-64-6
882;Milbemectin;Approuvée;12/01/2005;31/07/2023;;;;AT, AT, AT, BE, BG, CY, CZ, DE, DK, EL, FR, FR, FR, HU, IT, LU, MT, NL, PL, PT, RO, SE, SI;Oui;milbemectine;51596-10-2
1287;Mild Pepino Mosaic Virus isolate VC 1;Approuvée;29/03/2017;29/03/2032;;;Oui;AT, AT, AT, BE, CZ, DE, DK, EL, ES, FR, FR, FR, HU, LT, NL, PL, SE, SK, UK;Oui;virus de la mosaique du pepino isolat vc1;
1288;Mild Pepino Mosaic Virus isolate VX 1;Approuvée;29/03/2017;29/03/2032;;;Oui;AT, AT, AT, CZ, DE, DK, EL, ES, FR, FR, FR, HU, NL, PL, SE, SK, UK;Oui;virus de la mosaique du pepino isolat vx1;
885;Molinate;Non approuvée;;;;;;;;molinate;2212-67-1
893;Myclobutanil;Non approuvée;06/01/2011;31/05/2021;;;;BE, CY, EL, ES, HR, HU, IE, MT, PT, UK;Non;myclobutanil;88671-89-0
894;N,N-Diallyl-2,2-dichloroacetamide;Substance pas encore évaluée au niveau européen;;;;;;;;dichlormide;37764-25-3
900;Napropamide;Approuvée;01/01/2011;31/12/2023;;;;AT, AT, AT, BE, BG, CZ, DE, EE, EL, ES, FI, FR, FR, FR, HR, HU, IE, LT, LU, LV, NL, PL, RO, SE, SI, SK, UK;Oui;napropamide;15299-99-7
904;Nicosulfuron;Approuvée;01/01/2009;31/12/2023;;;;AT, AT, AT, BE, BG, CY, CZ, DE, EE, EL, ES, FR, FR, FR, HR, HU, IE, LT, LU, LV, MT, NL, PL, PT, RO, SI, SK, UK;Oui;nicosulfuron;111991-09-4
39;Orange oil;Approuvée;05/01/2014;31/07/2024;;;;AT, AT, AT, BE, BG, CY, CZ, DE, EL, ES, FR, FR, FR, HR, HU, LU, NL, PL, PT, RO, SE, SI;Oui;huile essentielle d'orange douce;8028-48-6
925;Oryzalin;Non approuvée;06/01/2011;31/05/2021;;;;ES, PT;Non;oryzalin;19044-88-3
927;Oxadiargyl;Non approuvée;07/01/2003;31/03/2014;;;;;;oxadiargyl;39807-15-3
928;Oxadiazon;Non approuvée;;;;;;;;oxadiazon;19666-30-9
930;Oxamyl;Approuvée;08/01/2006;31/10/2023;;;;BE, BG, CY, CZ, EL, FR, FR, FR, HR, HU, IE, MT, NL, PL, PT, RO, UK;Oui;oxamyl;23135-22-0
1290;Oxathiapiprolin;Approuvée;03/03/2017;03/03/2027;;;;AT, AT, AT, BE, BG, CY, CZ, DE, EE, EL, ES, FI, FR, FR, FR, HU, IE, LT, LU, LV, NL, PL, PT, RO, SE, SI, SK, UK;Oui;oxathiapiproline;1003318-67-9
933;Oxycarboxin;Non approuvée;;;;;;;;carboxine;5234-68-4
934;Oxydemeton-methyl;Non approuvée;;;;;;IT;Non;oxydemeton-methyl;301-12-2
935;Oxyfluorfen;Approuvée;01/01/2012;31/12/2024;;;;BG, CY, EL, ES, HR, MT, PL, PT, RO;Non;oxyfluorfene;42874-03-3
937;Paclobutrazol;Approuvée;06/01/2011;31/05/2023;;;;AT, AT, AT, BE, BG, CY, CZ, DE, DK, EE, EL, ES, FI, FR, FR, FR, HU, IE, IT, LT, LV, NL, PL, PT, RO, SE, SK, UK;Oui;paclobutrazol;76738-62-0
943;Paraffin oil/(CAS 64742-46-7);Approuvée;01/01/2010;31/12/2023;;;;CY, EL, ES, FI, FR, FR, FR, HU, PT;Oui;huile de paraffine;64742-46-7
949;Paraffin oil/(CAS 8042-47-5);Approuvée;01/01/2010;31/12/2023;;;;AT, AT, AT, BE, BG, CY, DE, EE, EL, ES, FI, FR, FR, FR, HR, HU, IT, LT, LU, LV, MT, NL, PL, RO, SE, SI;Oui;huile blanche paraffinique;8042-47-5
949;Paraffin oil/(CAS 8042-47-5);Approuvée;01/01/2010;31/12/2023;;;;AT, AT, AT, BE, BG, CY, DE, EE, EL, ES, FI, FR, FR, FR, HR, HU, IT, LT, LU, LV, MT, NL, PL, RO, SE, SI;Oui;huile de vaseline;8042-47-5
949;Paraffin oil/(CAS 8042-47-5);Approuvée;01/01/2010;31/12/2023;;;;AT, AT, AT, BE, BG, CY, DE, EE, EL, ES, FI, FR, FR, FR, HR, HU, IT, LT, LU, LV, MT, NL, PL, RO, SE, SI;Oui;huile minerale blanche;8042-47-5
949;Paraffin oil/(CAS 8042-47-5);Approuvée;01/01/2010;31/12/2023;;;;AT, AT, AT, BE, BG, CY, DE, EE, EL, ES, FI, FR, FR, FR, HR, HU, IT, LT, LU, LV, MT, NL, PL, RO, SE, SI;Oui;huile minerale paraffinique;8042-47-5
950;Paraffin oil/(CAS 97862-82-3);Approuvée;01/01/2010;31/12/2023;;;;BG, EL, ES, HR, HU, MT, RO;Non;huile de paraffine;97862-82-3
959;Pelargonic acid (CAS 112-05-0);Approuvée;09/01/2009;31/08/2023;;;;AT, AT, AT, BE, CY, CZ, DE, DK, EE, EL, ES, FI, HR, HU, IE, IT, LT, LU, LV, MT, NL, PL, PT, RO, SE, UK;Non;acide nonanoique;112-05-0
959;Pelargonic acid (CAS 112-05-0);Approuvée;09/01/2009;31/08/2023;;;;AT, AT, AT, BE, CY, CZ, DE, DK, EE, EL, ES, FI, HR, HU, IE, IT, LT, LU, LV, MT, NL, PL, PT, RO, SE, UK;Non;acide pelargonique;112-05-0
960;Penconazole;Approuvée;01/01/2010;31/12/2023;;;;AT, AT, AT, BE, BG, CY, CZ, DE, EE, EL, ES, FI, FR, FR, FR, HR, HU, LT, LU, LV, MT, NL, PL, PT, RO, SE, SI, SK, UK;Oui;penconazole;66246-88-6
1192;Pencycuron;Non approuvée;06/01/2011;31/05/2021;;;;CZ, IT, NL, PT, SE, UK;Non;pencycuron;66063-05-6
961;Pendimethalin;Approuvée;09/01/2017;30/11/2024;;;;AT, AT, AT, BE, BG, CY, CZ, DE, DK, EE, EL, ES, FI, FR, FR, FR, HR, HU, IE, LT, LU, LV, MT, NL, PL, PT, RO, SI, SK, UK;Oui;pendimethaline;40487-42-1
962;Penoxsulam;Approuvée;08/01/2010;31/07/2023;;;;AT, AT, AT, BE, CY, CZ, DE, EL, ES, FR, FR, FR, HU, LU, PT, RO, SI, SK;Oui;penoxsulame;219714-96-2
982;Penthiopyrad;Approuvée;05/01/2014;31/05/2025;;;;AT, AT, AT, BE, BG, CY, CZ, DE, EL, ES, FR, FR, FR, HU, IE, MT, NL, PL, PT, RO, SK, UK;Oui;penthiopyrad;183675-82-3
1187;Pepino mosaic virus strain CH2 isolate 1906;Approuvée;08/07/2015;08/07/2030;;;Oui;AT, AT, AT, BE, CZ, DE, EL, ES, FR, FR, FR, HR, HU, LT, LV, NL, PL, SE, SI, SK, UK;Oui;virus de la mosaique du pepino souche ch2 isolat 1906;
1011;Pepper dust extraction residue (PDER);Non approuvée;09/01/2009;31/08/2019;;;;IE, UK;Non;poivre;
965;Peracetic acid;Non approuvée;;;;;;;;acide peracetique;79-21-0
968;Permethrin;Non approuvée;;;;;;IT;Non;permethrine;52645-53-1
869;Pethoxamid;Approuvée;12/01/2018;30/11/2033;;;;AT, AT, AT, BE, BG, CZ, DE, EL, ES, FR, FR, FR, HR, HU, LU, PL, PT, RO, SI, SK;Oui;pethoxamide;106700-29-2
970;Petroleum oils/(CAS 64742-55-8/64742-57-7);Non approuvée;;;;;;;;huile de petrole;64742-55-8
973;Phenmedipham;Approuvée;03/01/2005;31/07/2023;;;;AT, AT, AT, BE, BG, CY, CZ, DE, DK, EE, EL, ES, FI, FR, FR, FR, HR, HU, IE, LT, LU, LV, NL, PL, PT, RO, SE, SK, UK;Oui;phenmediphame;13684-63-4
1295;Phlebiopsis gigantea strain VRA 1835;Approuvée;09/01/2020;31/08/2035;;;Oui;DK, FI, LV, PL, SE;Non;phlebiopsis gigantea;
977;Phosalone;Non approuvée;;;;;;;;phosalone;2310-17-0
850;Phosmet;Non approuvée;10/01/2007;02/01/2022;;;;BE, BG, CY, EL, ES, HR, HU, PL, PT, RO;Non;phosmet;732-11-6
1030;Phosphoric acid;Non approuvée;;;;;;;;acide phosphorique;7664-38-2
1031;Phoxim;Non approuvée;;;;;;;;phoxime;14816-18-3
290;Picloram;Approuvée;01/01/2009;31/12/2023;;;;AT, AT, AT, BG, CZ, DE, DK, EE, ES, FI, FR, FR, FR, HR, HU, IE, LT, LU, LV, PL, RO, SE, SI, SK, UK;Oui;piclorame;1918-02-1
291;Picolinafen;Approuvée;11/01/2016;30/06/2031;;;;AT, AT, AT, BE, BG, CZ, DE, DK, EE, ES, FR, FR, FR, HU, IE, IT, LT, LU, LV, PL, SE, UK;Oui;picolinafen;137641-05-5
824;Picoxystrobin;Non approuvée;01/01/2004;31/08/2017;;;;;;picoxystrobine;117428-22-5
292;Pinoxaden;Approuvée;07/01/2016;30/06/2026;;;;AT, AT, AT, BE, BG, CY, CZ, DE, EE, EL, ES, FI, FR, FR, FR, HR, HU, IE, IT, LT, LU, LV, NL, PL, PT, RO, SE, SI, SK, UK;Oui;pinoxaden;243973-20-8
1327;Piperonyl butoxide;Substance pas encore évaluée au niveau européen;;;;;;BE, CY, DE, EL, IT, LU, NL, PT, RO;Non;butoxyde de piperonyle;51-03-6
1327;Piperonyl butoxide;Substance pas encore évaluée au niveau européen;;;;;;BE, CY, DE, EL, IT, LU, NL, PT, RO;Non;piperonyl;51-03-6
997;Pirimicarb;Approuvée;02/01/2007;30/04/2023;;;;AT, AT, AT, BE, CZ, DE, DK, EL, ES, FR, FR, FR, HR, HU, IE, IT, LU, NL, PL, PT, SE, SI, SK, UK;Oui;pyrimicarbe;23103-98-2
294;Pirimiphos-methyl;Approuvée;10/01/2007;31/07/2023;;;;BE, BG, CY, CZ, EE, EL, ES, FR, FR, FR, HR, HU, IE, LT, LU, LV, NL, PL, PT, RO, SI, SK, UK;Oui;pyrimiphos-methyl;29232-93-7
298;Plant oils / Clove oil;Approuvée;09/01/2009;31/08/2023;;;;CY, EL, ES, FR, FR, FR;Oui;huile essentielle de girofle;84961-50-8
41;Plant oils / Pinus oil;Non approuvée;;;;;;;;huile de pin;8002-09-3
870;Plant oils / Rape seed oil;Approuvée;09/01/2009;31/08/2023;;;;AT, AT, AT, BE, CY, CZ, DE, DK, EL, ES, FI, FR, FR, FR, IE, LU, NL, PL, PT, RO, SE, SI, UK;Oui;huile de colza;8002-13-9
44;Plant oils / Spear mint oil;Approuvée;;;;;;AT, AT, AT, BE, BG, CY, DE, DK, EL, FI, FR, FR, FR, HR, HU, IE, LT, NL, PT, RO, SE, UK;Oui;huile essentielle de menthe verte;8008-79-5
47;Polybutene;Non approuvée;;;;;;;;polybutene;9003-29-6
51;Potassium hydrogen carbonate;Approuvée;11/01/2021;31/10/2036;;;Oui;AT, AT, AT, BE, BG, CZ, DE, DK, EL, ES, FR, FR, FR, HR, HU, IE, LT, LU, LV, NL, PL, PT, RO, SE, SI, SK, UK;Oui;bicarbonate de potassium;298-14-6
52;Potassium permanganate;Non approuvée;;;;;;;;permanganate de potassium;7722-64-7
53;Potassium phosphonates (formerly potassium phosphite);Approuvée;10/01/2013;31/01/2026;;;;AT, AT, AT, BE, BG, CY, CZ, DE, DK, EE, EL, ES, FI, FR, FR, FR, HR, HU, IE, LT, LU, LV, NL, PL, PT, RO, SE, SI, SK, UK;Oui;phosphonate de potassium;13492-26-7
59;Prochloraz;Non approuvée;01/01/2012;31/12/2021;;;;BE, CY, CZ, EL, HR, HU, IE, LT, MT, PT, UK;Non;prochloraze;67747-09-5
60;Procymidone;Non approuvée;;;;;;IT;Non;procymidone;32809-16-8
62;Profoxydim;Non approuvée;08/01/2011;31/07/2021;;;;EL, PT;Non;profoxydim;139001-49-3
63;Prohexadione;Approuvée;;;;;;AT, AT, AT, BE, BG, CZ, DE, DK, EE, EL, ES, FI, FR, FR, FR, HR, HU, IE, LT, LV, NL, PL, PT, RO, SE, SI, SK, UK;Oui;prohexadione-calcium;127277-53-6
66;Propachlor;Non approuvée;;;;;;;;propachlore;1918-16-7
67;Propamocarb;Approuvée;10/01/2007;31/07/2023;;;;AT, AT, AT, BE, BG, CY, CZ, DE, DK, EE, EL, ES, FI, FR, FR, FR, HR, HU, IE, LT, LU, LV, MT, NL, PL, PT, RO, SE, SI, SK, UK;Oui;propamocarbe;24579-73-5
67;Propamocarb;Approuvée;10/01/2007;31/07/2023;;;;AT, AT, AT, BE, BG, CY, CZ, DE, DK, EE, EL, ES, FI, FR, FR, FR, HR, HU, IE, LT, LU, LV, MT, NL, PL, PT, RO, SE, SI, SK, UK;Oui;propamocarbe hcl;25606-41-1
68;Propanil;Non approuvée;;;;;;IT;Non;propanil;709-98-8
70;Propaquizafop;Approuvée;12/01/2009;30/11/2023;;;;AT, AT, AT, BE, BG, CY, CZ, DE, DK, EE, EL, ES, FI, FR, FR, FR, HR, HU, IE, LT, LU, LV, PL, PT, RO, SE, SI, SK, UK;Oui;propaquizafop;111479-05-1
71;Propargite;Non approuvée;;;;;;;;propargite;2312-35-8
75;Propiconazole;Non approuvée;06/01/2004;19/12/2018;;;;UK;Non;propiconazole;60207-90-1
76;Propineb;Non approuvée;04/01/2004;22/03/2018;;;;;;propinebe;9016-72-2
77;Propionic acid;Non approuvée;;;;;;;;acide propionique;79-09-4
708;Propoxycarbazone;Approuvée;09/01/2017;31/08/2032;;;;BE, BG, CY, CZ, DE, EE, EL, ES, FI, FR, FR, FR, IE, LU, LV, PL, PT, RO, SE, SK, UK;Oui;propoxycarbazone sodium;181274-15-7
709;Propyzamide;Approuvée;07/01/2018;30/06/2025;;;;AT, AT, AT, BE, CY, CZ, DE, DK, EL, FR, FR, FR, HU, IE, IT, LU, MT, NL, PL, PT, SE, UK;Oui;propyzamide;23950-58-5
710;Proquinazid;Approuvée;08/01/2010;31/07/2023;;;;AT, AT, AT, BE, BG, CY, CZ, DE, DK, EE, EL, ES, FI, FR, FR, FR, HR, HU, IE, IT, LT, LU, LV, MT, PL, PT, RO, SE, SI, SK, UK;Oui;proquinazid;189278-12-4
711;Prosulfocarb;Approuvée;11/01/2009;31/10/2023;;;;AT, AT, AT, BE, BG, CY, CZ, DE, DK, EE, EL, ES, FI, FR, FR, FR, HR, HU, IE, LT, LU, LV, NL, PL, PT, RO, SE, SI, SK, UK;Oui;prosulfocarbe;52888-80-9
712;Prosulfuron;Approuvée;05/01/2017;31/07/2024;;;;AT, AT, AT, BE, BG, CZ, DE, EL, ES, FR, FR, FR, HR, HU, IT, LU, MT, NL, PL, PT, RO, SI, SK, UK;Oui;prosulfuron;94125-34-5
713;Prothioconazole;Approuvée;08/01/2008;31/07/2023;;;;AT, AT, AT, BE, BG, CY, CZ, DE, DK, EE, EL, ES, FI, FR, FR, FR, HR, HU, IE, LT, LU, LV, MT, NL, PL, PT, RO, SE, SI, SK, UK;Oui;prothioconazole;178928-70-6
716;Pseudomonas chlororaphis strain MA342;Approuvée;03/01/2023;28/02/2038;;;;AT, AT, AT, BE, DE, DK, ES, FI, FR, FR, FR, IT, LT, LU, NL, PT, SE, UK;Oui;pseudomonas chlororaphis souche ma 342;
864;Purpureocillium lilacinum strain 251 (former Paecilomyces lilacinus strain 251);Approuvée;03/01/2022;28/02/2037;;;;CY, EL, ES, FR, FR, FR, HR;Oui;paecilomyces lilacinus souche 251;
1405;Pymetrozine;Non approuvée;;;;;;HU, IT, NL, UK;Non;pymetrozine;123312-89-0
1219;Pyraclostrobin;Approuvée;06/01/2004;31/01/2024;;;;AT, AT, AT, BE, BG, CY, CZ, DE, DK, EE, EL, ES, FI, FR, FR, FR, HR, HU, IE, LT, LU, LV, MT, NL, PL, PT, RO, SE, SI, SK, UK;Oui;pyraclostrobine;175013-18-0
1088;Pyraflufen-ethyl;Approuvée;04/01/2016;31/03/2031;;;;AT, AT, AT, BE, BG, CZ, DE, EL, ES, FR, FR, FR, HU, IE, LU, NL, PL, PT, RO, UK;Oui;pyraflufen-ethyl;129630-19-9
1092;Pyrethrins;Approuvée;09/01/2009;31/08/2023;;;;AT, AT, AT, BE, BG, CY, CZ, DE, DK, EL, ES, FI, FR, FR, FR, HU, IE, LU, MT, NL, PL, PT, RO, SE, SI, UK;Oui;extrait de pyrethre vegetal;8003-34-7
1092;Pyrethrins;Approuvée;09/01/2009;31/08/2023;;;;AT, AT, AT, BE, BG, CY, CZ, DE, DK, EL, ES, FI, FR, FR, FR, HU, IE, LU, MT, NL, PL, PT, RO, SE, SI, UK;Oui;pyrethres naturels;8003-34-7
1092;Pyrethrins;Approuvée;09/01/2009;31/08/2023;;;;AT, AT, AT, BE, BG, CY, CZ, DE, DK, EL, ES, FI, FR, FR, FR, HU, IE, LU, MT, NL, PL, PT, RO, SE, SI, UK;Oui;pyrethrines;8003-34-7
1093;Pyridaben;Approuvée;05/01/2011;30/04/2023;;;;BE, BG, CY, CZ, EL, ES, FR, FR, FR, HU, NL, PL, PT, RO;Oui;pyridabene;96489-71-3
1095;Pyridalyl;Approuvée;07/01/2014;30/06/2025;;;;IT, NL;Non;pyridalyl;179101-81-6
1407;Pyridate;Approuvée;01/01/2016;31/12/2030;;;;AT, AT, AT, BE, BG, CY, CZ, DE, DK, EE, EL, ES, FI, FR, FR, FR, HR, HU, IE, LT, LU, LV, MT, NL, PL, PT, RO, SE, SI, SK, UK;Oui;pyridate;55512-33-9
1098;Pyrimethanil;Approuvée;06/01/2007;30/04/2023;;;;AT, AT, AT, BE, BG, CY, CZ, DE, DK, EL, ES, FI, FR, FR, FR, HR, HU, IE, LT, LU, MT, NL, PL, PT, RO, SE, SI, SK, UK;Oui;pyrimethanil;53112-28-0
862;Pyriofenone;Approuvée;02/01/2014;31/01/2025;;;;AT, AT, AT, BE, BG, DE, DK, EE, EL, ES, FI, FR, FR, FR, HR, HU, IE, LU, LV, NL, PL, PT, RO, SE, SI, UK;Oui;pyriofenone;688046-61-9
1100;Pyriproxyfen;Approuvée;08/01/2020;31/07/2035;;;;AT, AT, AT, BE, BG, CY, CZ, DK, EL, ES, FR, FR, FR, HR, HU, IE, NL, PL, PT, RO, SE, SI, SK;Oui;pyriproxyfene;95737-68-1
1101;Pyroxsulam;Approuvée;05/01/2014;30/04/2025;;;;AT, AT, AT, BE, BG, CY, CZ, DE, DK, EE, EL, ES, FI, FR, FR, FR, HR, HU, IE, LT, LU, LV, NL, PL, PT, RO, SE, SI, SK, UK;Oui;pyroxsulame;422556-08-9
1102;Pythium oligandrum M1;Approuvée;03/01/2023;28/02/2038;;;;AT, AT, AT, BE, BG, CY, CZ, DE, DK, EL, ES, FR, FR, FR, HU, LV, NL, PL, PT, RO, SE, SI, SK, UK;Oui;pythium oligandrum souche m1;
1104;Quartz sand;Approuvée;09/01/2009;31/08/2023;;;;AT, AT, AT, BE, BG, CZ, DE, EE, FR, FR, FR, HU, LT, LV, NL, PL, RO, SI, SK;Oui;sable quartzeux;
1105;Quassia;Non approuvée;;;;;;AT;Non;extrait de bois de quassia (variete picrasma);
1107;Quinmerac;Approuvée;05/01/2011;31/07/2024;;;;AT, AT, AT, BE, BG, CZ, DE, EE, EL, FI, FR, FR, FR, HR, HU, IE, LT, LU, LV, NL, PL, RO, SE, SI, SK, UK;Oui;quinmerac;90717-03-6
1108;Quinoclamine;Non approuvée;;;;;;NL, PL, UK;Non;quinoclamine;2797-51-5
1109;Quinoxyfen;Non approuvée;09/01/2004;27/12/2018;;;;UK;Non;quinoxyfene;124495-18-7
1113;Quizalofop-P-ethyl;Approuvée;12/01/2009;30/11/2023;;;;AT, AT, AT, BE, BG, CY, CZ, DE, EE, EL, ES, FI, FR, FR, FR, HR, HU, IE, LT, LU, LV, MT, NL, PL, PT, RO, SE, SI, SK, UK;Oui;quizalofop-p-ethyl;100646-51-3
856;Repellents by smell of animal or plant origin/ fish oil;Approuvée;03/01/2023;28/02/2038;;;Oui;AT, AT, AT, CZ, DE, FR, FR, FR, PL, PT;Oui;huile de poisson;
1120;Repellents by smell of animal or plant origin/ sheep fat;Approuvée;11/01/2022;30/10/2037;;;;AT, AT, AT, BE, CZ, DE, DK, EE, ES, FI, FR, FR, FR, HU, LT, LV, PL, SE, SI, SK, UK;Oui;graisse de mouton;
1122;Rimsulfuron (aka renriduron);Approuvée;02/01/2007;30/04/2023;;;;AT, AT, AT, BE, BG, CY, CZ, DE, EE, EL, ES, FI, FR, FR, FR, HR, HU, IE, LT, LU, LV, MT, NL, PL, PT, RO, SE, SI, SK, UK;Oui;rimsulfuron;122931-48-0
1124;Rotenone;Non approuvée;;;;;;IT;Non;rotenone;83-79-4
1137;S-Metolachlor;Approuvée;04/01/2005;31/07/2023;;;;AT, AT, AT, BE, BG, CY, CZ, DE, EL, ES, FR, FR, FR, HR, HU, IE, IT, LU, MT, NL, PL, PT, RO, SI, SK, UK;Oui;s-metolachlore;87392-12-9
1196;Saccharomyces cerevisiae strain LAS02;Approuvée;07/06/2016;07/06/2031;;;Oui;BE, EL, ES, FR, FR, FR, PL;Oui;saccharomyces cerevisiae souche las02;
1392;Sedaxane;Approuvée;02/01/2014;31/05/2025;;;;AT, AT, AT, BE, BG, CY, CZ, DE, EE, EL, ES, FI, FR, FR, FR, HU, IE, LT, LU, LV, NL, PL, RO, SE, SK, UK;Oui;sedaxane;874967-67-6
859;Silthiofam;Approuvée;07/01/2018;30/06/2033;;;;BE, CZ, DE, DK, EE, ES, FR, FR, FR, IE, LT, LU, LV, NL, PL, SE, SK, UK;Oui;silthiofam;175217-20-6
1027;Sintofen (aka Cintofen);Approuvée;06/01/2011;31/08/2024;;;;CZ, DE, FR, FR, FR, HU, SK;Oui;cintofen;130561-48-7
1141;Sodium chloride;Approuvée;;;;Oui;;;;chlorate de sodium;7775-09-9
1141;Sodium chloride;Approuvée;;;;Oui;;;;chlorure de sodium;7647-14-5
1150;Sodium hypochlorite;Non approuvée;09/01/2009;31/08/2019;;;;UK;Non;hypochlorite de sodium;7681-52-9
1166;Spinetoram;Approuvée;07/01/2014;30/06/2024;;;;BE, BG, CY, DE, EL, FR, FR, FR, HR, HU, LU, NL, PL, PT, RO, SI;Oui;spinetoram;935545-74-7
1167;Spinosad;Approuvée;02/01/2007;30/04/2023;;;;AT, AT, AT, BE, BG, CY, CZ, DE, DK, EL, ES, FR, FR, FR, HR, HU, IE, IT, LU, LV, MT, NL, PL, PT, RO, SE, SI, SK, UK;Oui;spinosad;168316-95-8
1168;Spirodiclofen;Non approuvée;08/01/2010;31/07/2020;;;;EL, FI, HR, IT, NL, PT, UK;Non;spirodiclofen;148477-71-8
1169;Spiromesifen;Approuvée;10/01/2013;30/09/2023;;;;BE, CY, EL, ES, FR, FR, FR, HU, IT, LU, MT, NL, PT;Oui;spiromesifen;283594-90-1
1170;Spirotetramat;Approuvée;05/01/2014;30/04/2024;;;;AT, AT, AT, BE, BG, CY, CZ, DE, DK, EE, EL, FI, FR, FR, FR, HR, HU, IE, LT, LU, LV, MT, NL, PL, PT, SE, SI, SK, UK;Oui;spirotetramat;203313-25-1
1171;Spiroxamine;Approuvée;01/01/2012;31/12/2023;;;;AT, AT, AT, BE, BG, CY, CZ, DE, DK, EE, EL, ES, FI, FR, FR, FR, HR, HU, IE, LT, LU, LV, PL, PT, RO, SE, SI, SK, UK;Oui;spiroxamine;118134-30-8
1173;Spodoptera littoralis nucleopolyhedrovirus (SpliNPV);Approuvée;06/01/2013;31/05/2023;;;;BG, ES, FR, FR, FR, IT, PT;Oui;nucleopolyhedrovirus de spodoptera littoralis;
1411;Streptomyces K61 (formerly S. griseoviridis);Approuvée;07/01/2021;30/06/2036;;;;BE, CY, DK, EE, FI, FR, FR, FR, HU, LT, LV, NL, SE, UK;Oui;streptomyces k61 (anciennement streptomyces griseoviridis);
1177;Sulcotrione;Approuvée;09/01/2009;31/08/2023;;;;BE, BG, CZ, DE, EL, ES, FR, FR, FR, HU, LU, NL, PL, PT, RO, SK;Oui;sulcotrione;99105-77-8
1412;Sulfosulfuron;Approuvée;01/01/2016;31/12/2030;;;;BE, CZ, EE, FI, FR, FR, FR, HU, IE, IT, LV, SK, UK;Oui;sulfosulfuron;141776-32-1
1180;Sulfuryl fluoride;Approuvée;11/01/2010;31/10/2023;;;;AT, AT, AT, BE, DE, ES, FR, FR, FR, IE, NL, PL, PT, SI, UK;Oui;fluorure de sulfuryle;2699-79-8
1028;Sulphur;Approuvée;01/01/2010;31/12/2023;;;;AT, AT, AT, BE, BG, CY, CZ, DE, DK, EL, ES, FR, FR, FR, HR, HU, IE, LU, MT, NL, PL, PT, RO, SE, SI, SK, UK;Oui;soufre;7704-34-9
1028;Sulphur;Approuvée;01/01/2010;31/12/2023;;;;AT, AT, AT, BE, BG, CY, CZ, DE, DK, EL, ES, FR, FR, FR, HR, HU, IE, LU, MT, NL, PL, PT, RO, SE, SI, SK, UK;Oui;soufre pour pulverisation (micronise);7704-34-9
1028;Sulphur;Approuvée;01/01/2010;31/12/2023;;;;AT, AT, AT, BE, BG, CY, CZ, DE, DK, EL, ES, FR, FR, FR, HR, HU, IE, LU, MT, NL, PL, PT, RO, SE, SI, SK, UK;Oui;soufre sublime;7704-34-9
1028;Sulphur;Approuvée;01/01/2010;31/12/2023;;;;AT, AT, AT, BE, BG, CY, CZ, DE, DK, EL, ES, FR, FR, FR, HR, HU, IE, LU, MT, NL, PL, PT, RO, SE, SI, SK, UK;Oui;soufre triture;7704-34-9
1028;Sulphur;Approuvée;01/01/2010;31/12/2023;;;;AT, AT, AT, BE, BG, CY, CZ, DE, DK, EL, ES, FR, FR, FR, HR, HU, IE, LU, MT, NL, PL, PT, RO, SE, SI, SK, UK;Oui;soufre triture ventile;7704-34-9
1181;Sulphuric acid;Non approuvée;;;;;;;;acide sulfurique;7664-93-9
779;Tebuconazole;Approuvée;09/01/2009;31/08/2023;;;;AT, AT, AT, BE, BG, CY, CZ, DE, DK, EE, EL, ES, FI, FR, FR, FR, HR, HU, IE, IT, LT, LU, LV, MT, NL, PL, PT, RO, SE, SI, SK, UK;Oui;tebuconazole;107534-96-3
780;Tebufenozide;Approuvée;06/01/2011;31/08/2024;;;;AT, AT, AT, BE, BG, CZ, DE, EL, ES, FR, FR, FR, HR, HU, LU, PT, SI, SK;Oui;tebufenozide;112410-23-8
1374;Tebufenpyrad;Approuvée;11/01/2009;31/10/2023;;;;BE, BG, CY, CZ, EL, ES, FR, FR, FR, HR, HU, LU, NL, PL, PT, SI, UK;Oui;tebufenpyrad;119168-77-3
783;Teflubenzuron;Non approuvée;;;;;;IT, NL, PT;Non;teflubenzuron;83121-18-0
784;Tefluthrin;Approuvée;01/01/2012;31/12/2024;;;;AT, AT, AT, BE, BG, CY, CZ, DE, DK, EE, EL, ES, FR, FR, FR, HR, HU, IE, LT, LU, LV, MT, NL, PL, PT, RO, SE, SI, SK, UK;Oui;tefluthrine;79538-32-2
1218;Tembotrione;Approuvée;05/01/2014;31/07/2024;;;;AT, AT, AT, BE, BG, CY, CZ, DE, EL, ES, FR, FR, FR, HR, HU, LU, NL, PL, PT, RO, SI, SK, UK;Oui;tembotrione;335104-84-2
785;Temephos;Non approuvée;;;;;;;;temephos;3383-96-8
788;Terbuthylazine;Approuvée;01/01/2012;31/12/2024;;;;AT, AT, AT, BE, BG, CY, CZ, DE, EL, ES, FR, FR, FR, HR, HU, IE, IT, LU, MT, NL, PL, PT, RO, SI, SK, UK;Oui;terbuthylazine;5915-41-3
790;Tetraconazole;Approuvée;01/01/2010;31/12/2023;;;;AT, AT, AT, BE, BG, CY, CZ, DE, EL, ES, FR, FR, FR, HR, HU, LT, MT, PL, PT, RO, SI, SK, UK;Oui;tetraconazole;112281-77-3
1384;Tetradecan-1-ol;Approuvée;;;;;;AT, AT, AT, BE, BG, CZ, DK, EL, ES, FR, FR, FR, HU, NL, PL, PT, SE, SI;Oui;1-tetradecanol;112-72-1
795;Thiabendazole;Approuvée;04/01/2017;31/03/2032;;;;AT, AT, AT, BE, BG, CY, DE, EL, ES, FR, FR, FR, HU, IE, PT, RO, SI, UK;Oui;thiabendazole;148-79-8
841;Thiacloprid;Non approuvée;01/01/2005;02/03/2020;;;;FI, IE, UK;Non;thiaclopride;111988-49-9
796;Thiamethoxam;Non approuvée;02/01/2007;30/04/2019;;;;AT, NL;Non;thiamethoxam;153719-23-4
800;Thiencarbazone-methyl;Approuvée;07/01/2014;30/09/2024;;;;AT, AT, AT, BE, BG, CY, CZ, DE, DK, EE, EL, ES, FI, FR, FR, FR, HR, HU, IE, LT, LU, LV, NL, PL, PT, RO, SE, SI, SK, UK;Oui;thiencarbazone-methyl;317815-83-1
842;Thifensulfuron-methyl;Approuvée;11/01/2016;31/10/2031;;;;AT, AT, AT, BE, BG, CZ, DE, DK, EE, EL, ES, FI, FR, FR, FR, HR, HU, IE, LT, LU, LV, NL, PL, PT, RO, SE, SI, SK, UK;Oui;thifensulfuron-methyle;79277-27-3
802;Thiodicarb;Non approuvée;;;;;;;;thiodicarbe;59669-26-0
807;Thiophanate-methyl;Non approuvée;03/01/2006;19/10/2020;;;;ES, FI, HR, MT, PT, SE, UK;Non;thiophanate-methyl;23564-05-8
141;Thiram;Non approuvée;08/01/2004;30/10/2018;;;;IT, NL, PT, UK;Non;thirame;137-26-8
1082;Thymol;Approuvée;12/01/2013;30/11/2023;;;;BE, BG, CY, EL, ES, FR, FR, FR, MT, NL, PT, RO;Oui;thymol;89-83-8
143;Tolclofos-methyl;Approuvée;09/01/2019;31/08/2034;;;;DK, EL, FI, NL, SE, UK;Non;tolclofos-methyl;57018-04-9
154;Tri-allate;Approuvée;01/01/2010;31/12/2023;;;;BE, FR, FR, FR, IE, NL, UK;Oui;triallate;2303-17-5
153;Triadimenol;Non approuvée;09/01/2009;31/08/2019;;;;;;triadimenol;55219-65-3
159;Triazoxide;Non approuvée;10/01/2011;30/09/2021;;;;IT;Non;triazoxide;72459-58-6
160;Tribenuron (aka metometuron);Approuvée;02/01/2019;30/01/2034;;;;AT, AT, AT, BE, BG, CY, CZ, DE, DK, EE, EL, ES, FI, FR, FR, FR, HR, HU, IE, LU, LV, MT, NL, PL, PT, RO, SE, SI, SK, UK;Oui;tribenuron-methyle;101200-48-0
1396;Trichoderma asperellum (formerly T. harzianum) strain ICC012;Approuvée;05/01/2009;30/04/2023;;;;CY, EL, ES, FR, FR, FR, NL, PL;Oui;trichoderma asperellum icc012;
1397;Trichoderma asperellum (formerly T. harzianum) strain T25;Approuvée;05/01/2009;30/04/2023;;;;EL, ES, IT, PT;Non;trichoderma asperellum t25;
1398;Trichoderma asperellum (formerly T. harzianum) strain TV1;Approuvée;05/01/2009;30/04/2023;;;;EL, ES, IT;Non;trichoderma asperellum tv1;
674;Trichoderma asperellum strain T34;Approuvée;06/01/2013;31/05/2023;;;;AT, AT, AT, BE, CZ, DE, ES, HU, IE, LV, NL, PL, PT, RO, SI, SK, UK;Non;trichoderma asperellum t34;
1298;Trichoderma atroviride (formerly T. harzianum) strain T11;Approuvée;05/01/2009;30/04/2023;;;;EL, ES, FR, FR, FR;Oui;trichoderma atroviride t11;
167;Trichoderma atroviride strain I-1237;Approuvée;06/01/2013;31/05/2023;;;;CY, DE, ES, FR, FR, FR, IT, PT;Oui;trichoderma atroviride souche l-1237;
1205;Trichoderma atroviride strain SC1;Approuvée;07/06/2016;07/06/2031;;;Oui;AT, AT, AT, BE, CY, CZ, DE, EL, ES, FR, FR, FR, HR, HU, LU, NL, PL, PT, RO, SI;Oui;trichoderma atroviride souche sc1;
168;Trichoderma gamsii (formerly T. viride) strain ICC080;Approuvée;05/01/2009;30/04/2023;;;;CY, DE, EL, ES, NL, PL, PT;Non;trichoderma gamsii icc080;
169;Trichoderma harzianum strains T-22 and ITEM 908;Approuvée;05/01/2009;30/04/2023;;;;BE, DK, EE, ES, IE, IT, PL, PT, UK;Non;trichoderma harzianum souche t22;
170;Triclopyr;Approuvée;06/01/2007;30/04/2023;;;;AT, AT, AT, BE, CY, CZ, DE, EL, ES, FR, FR, FR, IE, LU, NL, PL, PT, RO, SK, UK;Oui;triclopyr;55335-06-3
176;Trifloxystrobin;Approuvée;08/01/2018;31/07/2033;;;;AT, AT, AT, BE, BG, CY, CZ, DE, EL, ES, FI, FR, FR, FR, HR, HU, IE, LT, LU, LV, MT, NL, PL, PT, RO, SE, SI, SK, UK;Oui;trifloxystrobine;141517-21-7
178;Trifluralin;Non approuvée;;;;;;;;trifluraline;1582-09-8
179;Triflusulfuron;Approuvée;01/01/2010;31/12/2023;;;;AT, AT, AT, BE, CZ, DE, DK, EL, ES, FI, FR, FR, FR, HR, HU, IE, NL, PL, RO, SE, SK, UK;Oui;triflusulfuron-methyl;126535-15-7
182;Trimethylamine hydrochloride;Non approuvée;09/01/2009;31/08/2019;;;;;;trimethylamine hydrochloride;593-81-7
183;Trinexapac (aka cimetacarb ethyl);Approuvée;05/01/2007;30/04/2023;;;;AT, AT, AT, BE, BG, CZ, DE, DK, EE, EL, ES, FI, FR, FR, FR, HR, HU, IE, IT, LT, LU, LV, MT, NL, PL, PT, RO, SE, SI, SK, UK;Oui;trinexapac-ethyl;95266-40-3
185;Triticonazole;Approuvée;02/01/2007;30/04/2023;;;;AT, AT, AT, BE, BG, CZ, DE, EE, EL, ES, FI, FR, FR, FR, HU, IE, LT, LU, LV, MT, NL, PL, PT, RO, SE, SI, SK, UK;Oui;triticonazole;131983-72-7
186;Tritosulfuron;Approuvée;12/01/2008;30/11/2023;;;;AT, AT, AT, BE, BG, CY, CZ, DE, EE, EL, ES, FI, FR, FR, FR, HR, HU, IE, LT, LU, LV, NL, PL, PT, RO, SE, SI, SK;Oui;tritosulfuron;142469-14-5
189;Valifenalate (formerly Valiphenal);Approuvée;07/01/2014;30/09/2024;;;;AT, AT, AT, BG, CY, CZ, DE, EL, ES, FR, FR, FR, HU, MT, NL, PL, PT, RO, SI;Oui;valifenalate;283159-90-0
1228;Z,Z-3,13-Octadecadienyl Acetate;Approuvée;09/01/2009;31/08/2023;;;;;;(z,z)-3,13-octadecadienyl acetate;53120-27-7
199;Zinc phosphide;Approuvée;05/01/2011;31/07/2024;;;;AT, AT, AT, BE, BG, CZ, DE, ES, FR, FR, FR, HR, HU, IT, LU, PL, RO, SI, SK;Oui;phosphure de zinc;1314-84-7
1008;Ziram;Approuvée;08/01/2004;30/04/2023;;;;AT, AT, AT, BE, CY, CZ, EL, FR, FR, FR, HR, HU, MT, PL, PT, RO, SI, SK;Oui;zirame;137-30-4
200;Zoxamide;Approuvée;07/01/2018;30/06/2033;;;;AT, AT, AT, BE, BG, CY, CZ, DE, EL, ES, FR, FR, FR, HR, HU, IE, MT, NL, PL, PT, RO, SI, SK, UK;Oui;zoxamide;156052-68-5
202;Zucchini yellow mosaic virus - weak strain;Approuvée;06/01/2013;31/05/2023;;;;;;virus zymv-wk;
259;lambda-Cyhalothrin;Approuvée;;;;;;AT, AT, AT, BE, BG, CY, CZ, DE, DK, EE, EL, ES, FI, FR, FR, FR, HR, HU, IE, LT, LU, LV, MT, NL, PL, PT, RO, SI, SK, UK;Oui;lambda-cyhalothrine;91465-08-6
1253;n-Tetradecylacetate;Approuvée;09/01/2009;31/08/2023;;;;BE, CZ, EL, HR, PL, UK;Non;acetate de tetradecyle;638-59-5
1373;tau-Fluvalinate;Approuvée;06/01/2011;31/08/2024;;;;AT, AT, AT, BE, BG, CY, CZ, DE, DK, EE, EL, ES, FI, FR, FR, FR, HR, HU, LT, LV, MT, PL, PT, RO, SE, SI, SK, UK;Oui;tau-fluvalinate;102851-06-9
198;zeta-Cypermethrin;Non approuvée;12/01/2009;12/01/2020;;;;CY, EL, ES, PT, UK;Non;zetacypermethrine;52315-07-8
